--------------------------------------------------------------------------------
*** jtpsla   Job: 7058454.sdb   started: 03/06/20 00:25:43   host: mom5 ***
*** jtpsla   Job: 7058454.sdb   started: 03/06/20 00:25:43   host: mom5 ***
*** jtpsla   Job: 7058454.sdb   started: 03/06/20 00:25:43   host: mom5 ***
*** jtpsla   Job: 7058454.sdb   started: 03/06/20 00:25:43   host: mom5 ***

--------------------------------------------------------------------------------
PBS_O_WORKDIR = /work/c01/c01/jtpsla/bout/041-ta+mg-timings

running blob2d with 1024 mpi tasks and  mpi tasks per node
BOUT++ version 5.0.0-alpha
Revision: BOUT_REVISION
MD5 checksum: e83d7fb8cb8c2a605f03f73f101cf268
Code compiled on May 25 2020 at 10:25:16

B.Dudson (University of York), M.Umansky (LLNL) 2007
Based on BOUT by Xueqiao Xu, 1999

Processor number: 0 of 1024

pid: 46947

Compile-time options:
	Checking disabled
	Signal handling enabled
	netCDF4 support enabled
	Parallel NetCDF support disabled
	OpenMP parallelisation disabled
	Compiled with flags : "-DMD5SUM=e83d7fb8cb8c2a605f03f73f101cf268 -DBOUT_REVISION=2cce49ed76d9101820d1b5181c87dd662d98fc22 -g -DHAS_PRETTY_FUNCTION -Wall -Wextra -Wnull-dereference -O3 -march=native -funroll-loops -DSIGHANDLE -DLOGCOLOR -DBACKTRACE -DBOUT_HAS_FFTW -DNCDF4 -DHDF5 -DLAPACK -DBOUT_HAS_PVODE -DBOUT_HAS_GETTEXT -DBOUT_LOCALE_PATH=/usr/local/share/locale"
	Command line options for this run : blob2d -d delta_0.25 NXPE=1024 
Reading options file delta_0.25/BOUT.inp
Writing options to file delta_0.25/BOUT.settings

Getting grid data from options
	Option mesh:type = bout (default)
	Option mesh:include_corner_cells = 1 (default)
	Option mesh:StaggerGrids = 0 (default)
	Option mesh:maxregionblocksize = 64 (default)
	Option mesh:calcParallelSlices_on_communicate = 1 (default)
	Option mesh:ddx:first = c2 (delta_0.25/BOUT.inp)
	Option mesh:ddx:second = c2 (delta_0.25/BOUT.inp)
	Option mesh:ddx:upwind = w3 (delta_0.25/BOUT.inp)
	Option mesh:ddy:first = c2 (delta_0.25/BOUT.inp)
	Option mesh:ddy:second = c2 (delta_0.25/BOUT.inp)
	Option mesh:ddy:upwind = w3 (delta_0.25/BOUT.inp)
	Option mesh:ddz:first = fft (delta_0.25/BOUT.inp)
	Option mesh:ddz:second = fft (delta_0.25/BOUT.inp)
	Option mesh:ddz:upwind = w3 (delta_0.25/BOUT.inp)
	Option mesh:ddy:first = c2 (delta_0.25/BOUT.inp)
	Option mesh:ddy:second = c2 (delta_0.25/BOUT.inp)
	Option mesh:ddy:upwind = w3 (delta_0.25/BOUT.inp)
	Option mesh:ddx:first = c2 (delta_0.25/BOUT.inp)
	Option mesh:ddx:second = c2 (delta_0.25/BOUT.inp)
	Option mesh:ddx:upwind = w3 (delta_0.25/BOUT.inp)
	Option mesh:ddy:first = c2 (delta_0.25/BOUT.inp)
	Option mesh:ddy:second = c2 (delta_0.25/BOUT.inp)
	Option mesh:ddy:upwind = w3 (delta_0.25/BOUT.inp)
	Option mesh:ddz:first = fft (delta_0.25/BOUT.inp)
	Option mesh:ddz:second = fft (delta_0.25/BOUT.inp)
	Option mesh:ddz:upwind = w3 (delta_0.25/BOUT.inp)
	Option mesh:ddy:first = c2 (delta_0.25/BOUT.inp)
	Option mesh:ddy:second = c2 (delta_0.25/BOUT.inp)
	Option mesh:ddy:upwind = w3 (delta_0.25/BOUT.inp)
	Option mesh:ddz:fft_filter = 0 (default)
	Option mesh:symmetricGlobalX = 1 (default)
	Option optionfile = BOUT.inp ()
WARNING: The default of this option has changed in release 4.1.
If you want the old setting, you have to specify mesh:symmetricGlobalY=false in BOUT.inp
	Option mesh:symmetricGlobalY = 1 (default)
Loading mesh
	Option input:transform_from_field_aligned = 1 (default)
	Option input:max_recursion_depth = 0 (default)
	Option mesh:nx = 8196 (delta_0.25/BOUT.inp)
	Option mesh:ny = 1 (delta_0.25/BOUT.inp)
	Option mesh:nz = 1024 (delta_0.25/BOUT.inp)
	Read nz from input grid file
	Grid size: 8196 x 1 x 1024
Variable 'MXG' not in mesh options. Setting to 0
	Option mxg = 2 (delta_0.25/BOUT.inp)
Variable 'MYG' not in mesh options. Setting to 0
	Option myg = 0 (delta_0.25/BOUT.inp)
	Guard cells (x,y,z): 2, 0, 0
Variable 'ixseps1' not in mesh options. Setting to 8196
Variable 'ixseps2' not in mesh options. Setting to 8196
Variable 'jyseps1_1' not in mesh options. Setting to -1
Variable 'jyseps1_2' not in mesh options. Setting to 0
Variable 'jyseps2_1' not in mesh options. Setting to 0
Variable 'jyseps2_2' not in mesh options. Setting to 0
Variable 'ny_inner' not in mesh options. Setting to 0
	Option NXPE = 1024 (Command line)
	Option IncIntShear = 0 (default)
	Option periodicX = 0 (default)
	Option async_send = 0 (default)
	Option ZMIN = 0 (default)
	Option ZMAX = 1 (default)
	EQUILIBRIUM IS SINGLE NULL (SND) 
Connection between top of Y processor 0 and bottom of 0 in range 0 <= x < 8196
=> This processor sending in up
=> This processor sending in down
WARNING adding connection: poloidal index -1 out of range
	MYPE_IN_CORE = 1
	DXS = 12, DIN = 0. DOUT = -1
	UXS = 12, UIN = 0. UOUT = -1
	XIN = -1, XOUT = 1
	Twist-shift: DI UI 
	Option TwistShift = 0 (default)
Variable 'ShiftAngle' not in mesh options. Setting to empty vector
Boundary regions in this processor: core, 
Constructing default regions
	Boundary region inner X
	Option mesh:extrapolate_x = 0 (default)
	Option mesh:extrapolate_y = 0 (default)
	Option mesh:dx = 3.75e-2 (delta_0.25/BOUT.inp)
Variable 'dy' not in mesh options. Setting to 1.000000e+00
	Option ZMIN = 0 (default)
	Option ZMAX = 1 (default)
	Option mesh:dz = 0.0375 (delta_0.25/BOUT.inp)
Variable 'g11' not in mesh options. Setting to 1.000000e+00
Variable 'g22' not in mesh options. Setting to 1.000000e+00
Variable 'g33' not in mesh options. Setting to 1.000000e+00
Variable 'g12' not in mesh options. Setting to 0.000000e+00
Variable 'g13' not in mesh options. Setting to 0.000000e+00
Variable 'g23' not in mesh options. Setting to 0.000000e+00
	Local maximum error in diagonal inversion is 0.000000e+00
	Local maximum error in off-diagonal inversion is 0.000000e+00
Variable 'J' not in mesh options. Setting to 0.000000e+00
	WARNING: Jacobian 'J' not found. Calculating from metric tensor
Variable 'Bxy' not in mesh options. Setting to 0.000000e+00
	WARNING: Magnitude of B field 'Bxy' not found. Calculating from metric tensor
Calculating differential geometry terms
	Communicating connection terms
	Option non_uniform = 1 (default)
Variable 'd2x' not in mesh options. Setting to 0.000000e+00
	WARNING: differencing quantity 'd2x' not found. Calculating from dx
Variable 'd2y' not in mesh options. Setting to 0.000000e+00
	WARNING: differencing quantity 'd2y' not found. Calculating from dy
Variable 'ShiftTorsion' not in mesh options. Setting to 0.000000e+00
	WARNING: No Torsion specified for zShift. Derivatives may not be correct
	Option mesh:paralleltransform:type = identity (default)
	done
	Option append = 0 (default)
	Option dump_format = nc (default)
Setting up output (dump) file
	Option output:parallel = 0 (default)
	Option output:flush = 1 (default)
	Option output:guards = 1 (default)
	Option output:floats = 0 (default)
	Option output:openclose = 1 (default)
	Option output:enabled = false (delta_0.25/BOUT.inp)
	Option output:init_missing = 0 (default)
	Option output:shiftOutput = 0 (default)
	Option output:shiftInput = 0 (default)
	Option output:flushFrequency = 1 (default)
	Option restart:parallel = 0 (default)
	Option restart:flush = 1 (default)
	Option restart:guards = 1 (default)
	Option restart:floats = 0 (default)
	Option restart:openclose = 1 (default)
	Option restart:enabled = false (delta_0.25/BOUT.inp)
	Option restart:init_missing = 0 (default)
	Option restart:shiftOutput = 0 (default)
	Option restart:shiftInput = 0 (default)
	Option restart:flushFrequency = 1 (default)
	Option solver:type = rk4 (delta_0.25/BOUT.inp)
	Option solver:monitor_timestep = 0 (default)
	Option solver:is_nonsplit_model_diffusive = 1 (default)
	Option solver:mms = 0 (default)
	Option solver:mms_initialise = 0 (default)
	Option restart = 0 (default)
	Option model:te0 = 5 (delta_0.25/BOUT.inp)
	Option model:e = 1.602e-19 (default)
	Option model:m_i = 3.334e-27 (default)
	Option model:m_e = 9.11e-31 (default)
	Option model:n0 = 2e+18 (delta_0.25/BOUT.inp)
	Option model:d_vort = 1e-06 (delta_0.25/BOUT.inp)
	Option model:d_n = 1e-06 (delta_0.25/BOUT.inp)
	Option model:r_c = 1.5 (delta_0.25/BOUT.inp)
	Option model:L_par = 10 (default)
	Option model:B0 = 0.35 (default)
	Option model:compressible = false (delta_0.25/BOUT.inp)
	Option model:boussinesq = true (delta_0.25/BOUT.inp)
	Option model:sheath = 1 (default)


	----------Parameters: ------------ 
	Omega_i = 1.681764e+07 /s,
	c_s = 1.550006e+04 m/s,
	rho_s = 9.216552e-04 m
	delta_* = rho_s * (dn/n) * 9.372772e+00 	Option phiboussinesq:type = cyclic (delta_0.25/BOUT.inp)
Initialising Laplacian inversion routines
	Option phiboussinesq:async = 1 (default)
	Option phiboussinesq:filter = 0 (default)
	Option phiboussinesq:maxmode = 512 (default)
	Option phiboussinesq:low_mem = 0 (default)
	Option phiboussinesq:nonuniform = 1 (default)
	Option phiboussinesq:all_terms = 1 (default)
	Option phiboussinesq:global_flags = 0 (default)
	Option phiboussinesq:inner_boundary_flags = 0 (default)
	Option phiboussinesq:outer_boundary_flags = 0 (default)
	Option phiboussinesq:include_yguards = 0 (default)
	Option phiboussinesq:extra_yguards_lower = 0 (default)
	Option phiboussinesq:extra_yguards_upper = 0 (default)
	Option phiboussinesq:dst = 0 (default)
Setting boundary for variable n
	core region: 	Option all:bndry_all = neumann (delta_0.25/BOUT.inp)

	Option input:transform_from_field_aligned = true (default)
	Option input:max_recursion_depth = 0 (default)
	Option n:function = 1 + height * exp(-((x-0.25)/width)^2 - ((z/(2*pi) - 0.5)/width)^2) (delta_0.25/BOUT.inp)
	Option n:height = 0.5 (delta_0.25/BOUT.inp)
	Option n:width = 0.1 (delta_0.25/BOUT.inp)
	Option n:scale = 1 (delta_0.25/BOUT.inp)
	Option all:evolve_bndry = 0 (default)
	Option n:evolve_bndry = 0 (default)
Setting boundary for variable omega
	core region: 	Option all:bndry_all = neumann (delta_0.25/BOUT.inp)

	Option input:transform_from_field_aligned = true (default)
	Option input:max_recursion_depth = 0 (default)
	Option all:function = 0.0 (default)
	Option all:scale = 0 (delta_0.25/BOUT.inp)
	Option all:evolve_bndry = false (default)
	Option omega:evolve_bndry = 0 (default)
	Option datadir = delta_0.25 ()
	Option dump_format = nc (default)
	Option restart_format = nc (default)
	Option nout = 10 (delta_0.25/BOUT.inp)
	Option timestep = 0.2 (delta_0.25/BOUT.inp)
	Option solver:NOUT = 10 (default)
	Option solver:output_step = 0.2 (default)
Solver running for 10 outputs with output timestep of 2.000000e-01
Initialising solver

	Runge-Kutta 4th-order solver
	3d fields = 2, 2d fields = 0 neq=16777216, local_N=16384
	Option solver:atol = 1e-10 (delta_0.25/BOUT.inp)
	Option solver:rtol = 1e-05 (delta_0.25/BOUT.inp)
	Option solver:max_timestep = 0.2 (default)
	Option solver:timestep = 0.02 (delta_0.25/BOUT.inp)
	Option solver:mxstep = 10000 (delta_0.25/BOUT.inp)
	Option solver:adaptive = 0 (default)
Running simulation


Run started at  : Wed Jun  3 00:25:56 2020
	Option restart = false (default)
	Option append = false (default)
	Option dump_on_restart = 1 (default)
	Option fft:fft_measure = 0 (default)
	Option laplace:type = cyclic (default)
Initialising Laplacian inversion routines
	Option laplace:async = 1 (default)
	Option laplace:filter = 0 (default)
	Option laplace:maxmode = 512 (default)
	Option laplace:low_mem = 0 (default)
	Option laplace:nonuniform = 1 (default)
	Option laplace:all_terms = 1 (default)
	Option laplace:global_flags = 0 (default)
	Option laplace:inner_boundary_flags = 0 (default)
	Option laplace:outer_boundary_flags = 0 (default)
	Option laplace:include_yguards = 0 (default)
	Option laplace:extra_yguards_lower = 0 (default)
	Option laplace:extra_yguards_upper = 0 (default)
	Option laplace:dst = 0 (default)
	Option wall_limit = -1 (default)
	Option stopCheck = 0 (default)
Sim Time  |  RHS evals  | Wall Time |  Calc    Inv   Comm    I/O   SOLVER

0.000e+00          1       3.62e-01     2.8   95.6    0.5    0.0    1.1
|  Step 0 of 10. Elapsed 0:00:00.4 ETA 0:00:03.62.000e-01         45       5.90e-01    16.1   80.5    1.2    0.0    2.2
/  Step 1 of 10. Elapsed 0:00:01.0 ETA 0:00:05.34.000e-01         41       5.15e-01    16.8   79.8    1.5    0.0    2.0
-  Step 2 of 10. Elapsed 0:00:01.5 ETA 0:00:04.16.000e-01         41       5.72e-01    15.0   81.7    0.8    0.0    2.4
\  Step 3 of 10. Elapsed 0:00:02.0 ETA 0:00:04.08.000e-01         41       5.71e-01    15.2   81.5    1.7    0.0    1.6
|  Step 4 of 10. Elapsed 0:00:02.6 ETA 0:00:03.41.000e+00         41       6.06e-01    14.0   83.0    1.4    0.0    1.6
/  Step 5 of 10. Elapsed 0:00:03.2 ETA 0:00:03.01.200e+00         41       6.47e-01    13.1   82.7    2.0    0.0    2.2
-  Step 6 of 10. Elapsed 0:00:03.9 ETA 0:00:02.61.400e+00         41       6.69e-01    12.7   82.0    1.8    0.0    3.5
\  Step 7 of 10. Elapsed 0:00:04.5 ETA 0:00:02.01.600e+00         41       1.08e+00     7.8   88.4    2.8    0.0    0.9
|  Step 8 of 10. Elapsed 0:00:05.6 ETA 0:00:02.21.800e+00         41       5.51e-01    15.7   81.0    1.3    0.0    2.0
/  Step 9 of 10. Elapsed 0:00:06.2 ETA 0:00:00.62.000e+00         41       5.62e-01    15.4   80.7    2.1    0.0    1.8
-  Step 10 of 10. Elapsed 0:00:06.7 ETA 0:00:00.0
Run finished at  : Wed Jun  3 00:26:02 2020
Run time : 6 s
	Option datadir = delta_0.25 ()
	Option settingsfile = BOUT.settings ()
Writing options to file delta_0.25/BOUT.settings
	Option time_report:show = true (delta_0.25/BOUT.inp)

Timer report 

Timer name | Total time (s) | % of top | Hits | Mean time/hit (s)
-----------|----------------|----------|------|------------------
run        | 6.72520274     | 100.00%  | 1    | 6.72520274       
rhs        | 6.59659509     | 98.09%   | 415  | 0.0158954098     
invert     | 5.6055865      | 83.35%   | 415  | 0.0135074374     
comms      | 0.114397609    | 1.70%    | 3496 | 3.27224282e-05   
io         | 0              | 0.00%    | 0    | -nan             

Application 40726947 resources: utime ~9532s, stime ~209s, Rss ~24168, inblocks ~3990878, outblocks ~12358014
BOUT++ version 5.0.0-alpha
Revision: BOUT_REVISION
MD5 checksum: e83d7fb8cb8c2a605f03f73f101cf268
Code compiled on May 25 2020 at 10:25:16

B.Dudson (University of York), M.Umansky (LLNL) 2007
Based on BOUT by Xueqiao Xu, 1999

Processor number: 0 of 1024

pid: 47095

Compile-time options:
	Checking disabled
	Signal handling enabled
	netCDF4 support enabled
	Parallel NetCDF support disabled
	OpenMP parallelisation disabled
	Compiled with flags : "-DMD5SUM=e83d7fb8cb8c2a605f03f73f101cf268 -DBOUT_REVISION=2cce49ed76d9101820d1b5181c87dd662d98fc22 -g -DHAS_PRETTY_FUNCTION -Wall -Wextra -Wnull-dereference -O3 -march=native -funroll-loops -DSIGHANDLE -DLOGCOLOR -DBACKTRACE -DBOUT_HAS_FFTW -DNCDF4 -DHDF5 -DLAPACK -DBOUT_HAS_PVODE -DBOUT_HAS_GETTEXT -DBOUT_LOCALE_PATH=/usr/local/share/locale"
	Command line options for this run : blob2d -d delta_0.25 NXPE=1024 
Reading options file delta_0.25/BOUT.inp
Writing options to file delta_0.25/BOUT.settings

Getting grid data from options
	Option mesh:type = bout (default)
	Option mesh:include_corner_cells = 1 (default)
	Option mesh:StaggerGrids = 0 (default)
	Option mesh:maxregionblocksize = 64 (default)
	Option mesh:calcParallelSlices_on_communicate = 1 (default)
	Option mesh:ddx:first = c2 (delta_0.25/BOUT.inp)
	Option mesh:ddx:second = c2 (delta_0.25/BOUT.inp)
	Option mesh:ddx:upwind = w3 (delta_0.25/BOUT.inp)
	Option mesh:ddy:first = c2 (delta_0.25/BOUT.inp)
	Option mesh:ddy:second = c2 (delta_0.25/BOUT.inp)
	Option mesh:ddy:upwind = w3 (delta_0.25/BOUT.inp)
	Option mesh:ddz:first = fft (delta_0.25/BOUT.inp)
	Option mesh:ddz:second = fft (delta_0.25/BOUT.inp)
	Option mesh:ddz:upwind = w3 (delta_0.25/BOUT.inp)
	Option mesh:ddy:first = c2 (delta_0.25/BOUT.inp)
	Option mesh:ddy:second = c2 (delta_0.25/BOUT.inp)
	Option mesh:ddy:upwind = w3 (delta_0.25/BOUT.inp)
	Option mesh:ddx:first = c2 (delta_0.25/BOUT.inp)
	Option mesh:ddx:second = c2 (delta_0.25/BOUT.inp)
	Option mesh:ddx:upwind = w3 (delta_0.25/BOUT.inp)
	Option mesh:ddy:first = c2 (delta_0.25/BOUT.inp)
	Option mesh:ddy:second = c2 (delta_0.25/BOUT.inp)
	Option mesh:ddy:upwind = w3 (delta_0.25/BOUT.inp)
	Option mesh:ddz:first = fft (delta_0.25/BOUT.inp)
	Option mesh:ddz:second = fft (delta_0.25/BOUT.inp)
	Option mesh:ddz:upwind = w3 (delta_0.25/BOUT.inp)
	Option mesh:ddy:first = c2 (delta_0.25/BOUT.inp)
	Option mesh:ddy:second = c2 (delta_0.25/BOUT.inp)
	Option mesh:ddy:upwind = w3 (delta_0.25/BOUT.inp)
	Option mesh:ddz:fft_filter = 0 (default)
	Option mesh:symmetricGlobalX = 1 (default)
	Option optionfile = BOUT.inp ()
WARNING: The default of this option has changed in release 4.1.
If you want the old setting, you have to specify mesh:symmetricGlobalY=false in BOUT.inp
	Option mesh:symmetricGlobalY = 1 (default)
Loading mesh
	Option input:transform_from_field_aligned = 1 (default)
	Option input:max_recursion_depth = 0 (default)
	Option mesh:nx = 8196 (delta_0.25/BOUT.inp)
	Option mesh:ny = 1 (delta_0.25/BOUT.inp)
	Option mesh:nz = 1024 (delta_0.25/BOUT.inp)
	Read nz from input grid file
	Grid size: 8196 x 1 x 1024
Variable 'MXG' not in mesh options. Setting to 0
	Option mxg = 2 (delta_0.25/BOUT.inp)
Variable 'MYG' not in mesh options. Setting to 0
	Option myg = 0 (delta_0.25/BOUT.inp)
	Guard cells (x,y,z): 2, 0, 0
Variable 'ixseps1' not in mesh options. Setting to 8196
Variable 'ixseps2' not in mesh options. Setting to 8196
Variable 'jyseps1_1' not in mesh options. Setting to -1
Variable 'jyseps1_2' not in mesh options. Setting to 0
Variable 'jyseps2_1' not in mesh options. Setting to 0
Variable 'jyseps2_2' not in mesh options. Setting to 0
Variable 'ny_inner' not in mesh options. Setting to 0
	Option NXPE = 1024 (Command line)
	Option IncIntShear = 0 (default)
	Option periodicX = 0 (default)
	Option async_send = 0 (default)
	Option ZMIN = 0 (default)
	Option ZMAX = 1 (default)
	EQUILIBRIUM IS SINGLE NULL (SND) 
Connection between top of Y processor 0 and bottom of 0 in range 0 <= x < 8196
=> This processor sending in up
=> This processor sending in down
WARNING adding connection: poloidal index -1 out of range
	MYPE_IN_CORE = 1
	DXS = 12, DIN = 0. DOUT = -1
	UXS = 12, UIN = 0. UOUT = -1
	XIN = -1, XOUT = 1
	Twist-shift: DI UI 
	Option TwistShift = 0 (default)
Variable 'ShiftAngle' not in mesh options. Setting to empty vector
Boundary regions in this processor: core, 
Constructing default regions
	Boundary region inner X
	Option mesh:extrapolate_x = 0 (default)
	Option mesh:extrapolate_y = 0 (default)
	Option mesh:dx = 3.75e-2 (delta_0.25/BOUT.inp)
Variable 'dy' not in mesh options. Setting to 1.000000e+00
	Option ZMIN = 0 (default)
	Option ZMAX = 1 (default)
	Option mesh:dz = 0.0375 (delta_0.25/BOUT.inp)
Variable 'g11' not in mesh options. Setting to 1.000000e+00
Variable 'g22' not in mesh options. Setting to 1.000000e+00
Variable 'g33' not in mesh options. Setting to 1.000000e+00
Variable 'g12' not in mesh options. Setting to 0.000000e+00
Variable 'g13' not in mesh options. Setting to 0.000000e+00
Variable 'g23' not in mesh options. Setting to 0.000000e+00
	Local maximum error in diagonal inversion is 0.000000e+00
	Local maximum error in off-diagonal inversion is 0.000000e+00
Variable 'J' not in mesh options. Setting to 0.000000e+00
	WARNING: Jacobian 'J' not found. Calculating from metric tensor
Variable 'Bxy' not in mesh options. Setting to 0.000000e+00
	WARNING: Magnitude of B field 'Bxy' not found. Calculating from metric tensor
Calculating differential geometry terms
	Communicating connection terms
	Option non_uniform = 1 (default)
Variable 'd2x' not in mesh options. Setting to 0.000000e+00
	WARNING: differencing quantity 'd2x' not found. Calculating from dx
Variable 'd2y' not in mesh options. Setting to 0.000000e+00
	WARNING: differencing quantity 'd2y' not found. Calculating from dy
Variable 'ShiftTorsion' not in mesh options. Setting to 0.000000e+00
	WARNING: No Torsion specified for zShift. Derivatives may not be correct
	Option mesh:paralleltransform:type = identity (default)
	done
	Option append = 0 (default)
	Option dump_format = nc (default)
Setting up output (dump) file
	Option output:parallel = 0 (default)
	Option output:flush = 1 (default)
	Option output:guards = 1 (default)
	Option output:floats = 0 (default)
	Option output:openclose = 1 (default)
	Option output:enabled = false (delta_0.25/BOUT.inp)
	Option output:init_missing = 0 (default)
	Option output:shiftOutput = 0 (default)
	Option output:shiftInput = 0 (default)
	Option output:flushFrequency = 1 (default)
	Option restart:parallel = 0 (default)
	Option restart:flush = 1 (default)
	Option restart:guards = 1 (default)
	Option restart:floats = 0 (default)
	Option restart:openclose = 1 (default)
	Option restart:enabled = false (delta_0.25/BOUT.inp)
	Option restart:init_missing = 0 (default)
	Option restart:shiftOutput = 0 (default)
	Option restart:shiftInput = 0 (default)
	Option restart:flushFrequency = 1 (default)
	Option solver:type = rk4 (delta_0.25/BOUT.inp)
	Option solver:monitor_timestep = 0 (default)
	Option solver:is_nonsplit_model_diffusive = 1 (default)
	Option solver:mms = 0 (default)
	Option solver:mms_initialise = 0 (default)
	Option restart = 0 (default)
	Option model:te0 = 5 (delta_0.25/BOUT.inp)
	Option model:e = 1.602e-19 (default)
	Option model:m_i = 3.334e-27 (default)
	Option model:m_e = 9.11e-31 (default)
	Option model:n0 = 2e+18 (delta_0.25/BOUT.inp)
	Option model:d_vort = 1e-06 (delta_0.25/BOUT.inp)
	Option model:d_n = 1e-06 (delta_0.25/BOUT.inp)
	Option model:r_c = 1.5 (delta_0.25/BOUT.inp)
	Option model:L_par = 10 (default)
	Option model:B0 = 0.35 (default)
	Option model:compressible = false (delta_0.25/BOUT.inp)
	Option model:boussinesq = true (delta_0.25/BOUT.inp)
	Option model:sheath = 1 (default)


	----------Parameters: ------------ 
	Omega_i = 1.681764e+07 /s,
	c_s = 1.550006e+04 m/s,
	rho_s = 9.216552e-04 m
	delta_* = rho_s * (dn/n) * 9.372772e+00 	Option phiboussinesq:type = cyclic (delta_0.25/BOUT.inp)
Initialising Laplacian inversion routines
	Option phiboussinesq:async = 1 (default)
	Option phiboussinesq:filter = 0 (default)
	Option phiboussinesq:maxmode = 512 (default)
	Option phiboussinesq:low_mem = 0 (default)
	Option phiboussinesq:nonuniform = 1 (default)
	Option phiboussinesq:all_terms = 1 (default)
	Option phiboussinesq:global_flags = 0 (default)
	Option phiboussinesq:inner_boundary_flags = 0 (default)
	Option phiboussinesq:outer_boundary_flags = 0 (default)
	Option phiboussinesq:include_yguards = 0 (default)
	Option phiboussinesq:extra_yguards_lower = 0 (default)
	Option phiboussinesq:extra_yguards_upper = 0 (default)
	Option phiboussinesq:dst = 0 (default)
Setting boundary for variable n
	core region: 	Option all:bndry_all = neumann (delta_0.25/BOUT.inp)

	Option input:transform_from_field_aligned = true (default)
	Option input:max_recursion_depth = 0 (default)
	Option n:function = 1 + height * exp(-((x-0.25)/width)^2 - ((z/(2*pi) - 0.5)/width)^2) (delta_0.25/BOUT.inp)
	Option n:height = 0.5 (delta_0.25/BOUT.inp)
	Option n:width = 0.1 (delta_0.25/BOUT.inp)
	Option n:scale = 1 (delta_0.25/BOUT.inp)
	Option all:evolve_bndry = 0 (default)
	Option n:evolve_bndry = 0 (default)
Setting boundary for variable omega
	core region: 	Option all:bndry_all = neumann (delta_0.25/BOUT.inp)

	Option input:transform_from_field_aligned = true (default)
	Option input:max_recursion_depth = 0 (default)
	Option all:function = 0.0 (default)
	Option all:scale = 0 (delta_0.25/BOUT.inp)
	Option all:evolve_bndry = false (default)
	Option omega:evolve_bndry = 0 (default)
	Option datadir = delta_0.25 ()
	Option dump_format = nc (default)
	Option restart_format = nc (default)
	Option nout = 10 (delta_0.25/BOUT.inp)
	Option timestep = 0.2 (delta_0.25/BOUT.inp)
	Option solver:NOUT = 10 (default)
	Option solver:output_step = 0.2 (default)
Solver running for 10 outputs with output timestep of 2.000000e-01
Initialising solver

	Runge-Kutta 4th-order solver
	3d fields = 2, 2d fields = 0 neq=16777216, local_N=16384
	Option solver:atol = 1e-10 (delta_0.25/BOUT.inp)
	Option solver:rtol = 1e-05 (delta_0.25/BOUT.inp)
	Option solver:max_timestep = 0.2 (default)
	Option solver:timestep = 0.02 (delta_0.25/BOUT.inp)
	Option solver:mxstep = 10000 (delta_0.25/BOUT.inp)
	Option solver:adaptive = 0 (default)
Running simulation


Run started at  : Wed Jun  3 00:26:39 2020
	Option restart = false (default)
	Option append = false (default)
	Option dump_on_restart = 1 (default)
	Option fft:fft_measure = 0 (default)
	Option laplace:type = cyclic (default)
Initialising Laplacian inversion routines
	Option laplace:async = 1 (default)
	Option laplace:filter = 0 (default)
	Option laplace:maxmode = 512 (default)
	Option laplace:low_mem = 0 (default)
	Option laplace:nonuniform = 1 (default)
	Option laplace:all_terms = 1 (default)
	Option laplace:global_flags = 0 (default)
	Option laplace:inner_boundary_flags = 0 (default)
	Option laplace:outer_boundary_flags = 0 (default)
	Option laplace:include_yguards = 0 (default)
	Option laplace:extra_yguards_lower = 0 (default)
	Option laplace:extra_yguards_upper = 0 (default)
	Option laplace:dst = 0 (default)
	Option wall_limit = -1 (default)
	Option stopCheck = 0 (default)
Sim Time  |  RHS evals  | Wall Time |  Calc    Inv   Comm    I/O   SOLVER

0.000e+00          1       3.80e-01     2.6   95.7    0.5    0.0    1.1
|  Step 0 of 10. Elapsed 0:00:00.4 ETA 0:00:03.82.000e-01         45       1.16e+00     8.3   88.1    2.4    0.0    1.3
/  Step 1 of 10. Elapsed 0:00:01.5 ETA 0:00:10.44.000e-01         41       7.96e-01    10.8   86.8    1.0    0.0    1.3
-  Step 2 of 10. Elapsed 0:00:02.3 ETA 0:00:06.46.000e-01         41       5.87e-01    14.9   81.6    1.5    0.0    2.0
\  Step 3 of 10. Elapsed 0:00:02.9 ETA 0:00:04.18.000e-01         41       6.46e-01    13.4   83.0    1.8    0.0    1.8
|  Step 4 of 10. Elapsed 0:00:03.6 ETA 0:00:03.91.000e+00         41       5.88e-01    14.6   82.4    1.4    0.0    1.5
/  Step 5 of 10. Elapsed 0:00:04.2 ETA 0:00:02.91.200e+00         41       6.03e-01    14.4   81.0    1.1    0.0    3.5
-  Step 6 of 10. Elapsed 0:00:04.8 ETA 0:00:02.41.400e+00         41       1.12e+00     7.6   88.4    3.1    0.0    0.9
\  Step 7 of 10. Elapsed 0:00:05.9 ETA 0:00:03.41.600e+00         41       5.69e-01    15.3   81.7    1.2    0.0    1.8
|  Step 8 of 10. Elapsed 0:00:06.5 ETA 0:00:01.11.800e+00         41       5.79e-01    14.9   81.1    1.7    0.0    2.3
/  Step 9 of 10. Elapsed 0:00:07.0 ETA 0:00:00.62.000e+00         41       6.87e-01    12.4   83.9    2.1    0.0    1.6
-  Step 10 of 10. Elapsed 0:00:07.7 ETA 0:00:00.0
Run finished at  : Wed Jun  3 00:26:47 2020
Run time : 8 s
	Option datadir = delta_0.25 ()
	Option settingsfile = BOUT.settings ()
Writing options to file delta_0.25/BOUT.settings
	Option time_report:show = true (delta_0.25/BOUT.inp)

Timer report 

Timer name | Total time (s) | % of top | Hits | Mean time/hit (s)
-----------|----------------|----------|------|------------------
run        | 7.71858205     | 100.00%  | 1    | 7.71858205       
rhs        | 7.59036291     | 98.34%   | 415  | 0.0182900311     
invert     | 6.56884333     | 85.10%   | 415  | 0.0158285382     
comms      | 0.139182299    | 1.80%    | 3496 | 3.98118704e-05   
io         | 0              | 0.00%    | 0    | -nan             

Application 40726948 resources: utime ~17529s, stime ~230s, Rss ~24200, inblocks ~3990878, outblocks ~12358014
BOUT++ version 5.0.0-alpha
Revision: BOUT_REVISION
MD5 checksum: e83d7fb8cb8c2a605f03f73f101cf268
Code compiled on May 25 2020 at 10:25:16

B.Dudson (University of York), M.Umansky (LLNL) 2007
Based on BOUT by Xueqiao Xu, 1999

Processor number: 0 of 1024

pid: 47243

Compile-time options:
	Checking disabled
	Signal handling enabled
	netCDF4 support enabled
	Parallel NetCDF support disabled
	OpenMP parallelisation disabled
	Compiled with flags : "-DMD5SUM=e83d7fb8cb8c2a605f03f73f101cf268 -DBOUT_REVISION=2cce49ed76d9101820d1b5181c87dd662d98fc22 -g -DHAS_PRETTY_FUNCTION -Wall -Wextra -Wnull-dereference -O3 -march=native -funroll-loops -DSIGHANDLE -DLOGCOLOR -DBACKTRACE -DBOUT_HAS_FFTW -DNCDF4 -DHDF5 -DLAPACK -DBOUT_HAS_PVODE -DBOUT_HAS_GETTEXT -DBOUT_LOCALE_PATH=/usr/local/share/locale"
	Command line options for this run : blob2d -d delta_0.25 NXPE=1024 
Reading options file delta_0.25/BOUT.inp
Writing options to file delta_0.25/BOUT.settings

Getting grid data from options
	Option mesh:type = bout (default)
	Option mesh:include_corner_cells = 1 (default)
	Option mesh:StaggerGrids = 0 (default)
	Option mesh:maxregionblocksize = 64 (default)
	Option mesh:calcParallelSlices_on_communicate = 1 (default)
	Option mesh:ddx:first = c2 (delta_0.25/BOUT.inp)
	Option mesh:ddx:second = c2 (delta_0.25/BOUT.inp)
	Option mesh:ddx:upwind = w3 (delta_0.25/BOUT.inp)
	Option mesh:ddy:first = c2 (delta_0.25/BOUT.inp)
	Option mesh:ddy:second = c2 (delta_0.25/BOUT.inp)
	Option mesh:ddy:upwind = w3 (delta_0.25/BOUT.inp)
	Option mesh:ddz:first = fft (delta_0.25/BOUT.inp)
	Option mesh:ddz:second = fft (delta_0.25/BOUT.inp)
	Option mesh:ddz:upwind = w3 (delta_0.25/BOUT.inp)
	Option mesh:ddy:first = c2 (delta_0.25/BOUT.inp)
	Option mesh:ddy:second = c2 (delta_0.25/BOUT.inp)
	Option mesh:ddy:upwind = w3 (delta_0.25/BOUT.inp)
	Option mesh:ddx:first = c2 (delta_0.25/BOUT.inp)
	Option mesh:ddx:second = c2 (delta_0.25/BOUT.inp)
	Option mesh:ddx:upwind = w3 (delta_0.25/BOUT.inp)
	Option mesh:ddy:first = c2 (delta_0.25/BOUT.inp)
	Option mesh:ddy:second = c2 (delta_0.25/BOUT.inp)
	Option mesh:ddy:upwind = w3 (delta_0.25/BOUT.inp)
	Option mesh:ddz:first = fft (delta_0.25/BOUT.inp)
	Option mesh:ddz:second = fft (delta_0.25/BOUT.inp)
	Option mesh:ddz:upwind = w3 (delta_0.25/BOUT.inp)
	Option mesh:ddy:first = c2 (delta_0.25/BOUT.inp)
	Option mesh:ddy:second = c2 (delta_0.25/BOUT.inp)
	Option mesh:ddy:upwind = w3 (delta_0.25/BOUT.inp)
	Option mesh:ddz:fft_filter = 0 (default)
	Option mesh:symmetricGlobalX = 1 (default)
	Option optionfile = BOUT.inp ()
WARNING: The default of this option has changed in release 4.1.
If you want the old setting, you have to specify mesh:symmetricGlobalY=false in BOUT.inp
	Option mesh:symmetricGlobalY = 1 (default)
Loading mesh
	Option input:transform_from_field_aligned = 1 (default)
	Option input:max_recursion_depth = 0 (default)
	Option mesh:nx = 8196 (delta_0.25/BOUT.inp)
	Option mesh:ny = 1 (delta_0.25/BOUT.inp)
	Option mesh:nz = 1024 (delta_0.25/BOUT.inp)
	Read nz from input grid file
	Grid size: 8196 x 1 x 1024
Variable 'MXG' not in mesh options. Setting to 0
	Option mxg = 2 (delta_0.25/BOUT.inp)
Variable 'MYG' not in mesh options. Setting to 0
	Option myg = 0 (delta_0.25/BOUT.inp)
	Guard cells (x,y,z): 2, 0, 0
Variable 'ixseps1' not in mesh options. Setting to 8196
Variable 'ixseps2' not in mesh options. Setting to 8196
Variable 'jyseps1_1' not in mesh options. Setting to -1
Variable 'jyseps1_2' not in mesh options. Setting to 0
Variable 'jyseps2_1' not in mesh options. Setting to 0
Variable 'jyseps2_2' not in mesh options. Setting to 0
Variable 'ny_inner' not in mesh options. Setting to 0
	Option NXPE = 1024 (Command line)
	Option IncIntShear = 0 (default)
	Option periodicX = 0 (default)
	Option async_send = 0 (default)
	Option ZMIN = 0 (default)
	Option ZMAX = 1 (default)
	EQUILIBRIUM IS SINGLE NULL (SND) 
Connection between top of Y processor 0 and bottom of 0 in range 0 <= x < 8196
=> This processor sending in up
=> This processor sending in down
WARNING adding connection: poloidal index -1 out of range
	MYPE_IN_CORE = 1
	DXS = 12, DIN = 0. DOUT = -1
	UXS = 12, UIN = 0. UOUT = -1
	XIN = -1, XOUT = 1
	Twist-shift: DI UI 
	Option TwistShift = 0 (default)
Variable 'ShiftAngle' not in mesh options. Setting to empty vector
Boundary regions in this processor: core, 
Constructing default regions
	Boundary region inner X
	Option mesh:extrapolate_x = 0 (default)
	Option mesh:extrapolate_y = 0 (default)
	Option mesh:dx = 3.75e-2 (delta_0.25/BOUT.inp)
Variable 'dy' not in mesh options. Setting to 1.000000e+00
	Option ZMIN = 0 (default)
	Option ZMAX = 1 (default)
	Option mesh:dz = 0.0375 (delta_0.25/BOUT.inp)
Variable 'g11' not in mesh options. Setting to 1.000000e+00
Variable 'g22' not in mesh options. Setting to 1.000000e+00
Variable 'g33' not in mesh options. Setting to 1.000000e+00
Variable 'g12' not in mesh options. Setting to 0.000000e+00
Variable 'g13' not in mesh options. Setting to 0.000000e+00
Variable 'g23' not in mesh options. Setting to 0.000000e+00
	Local maximum error in diagonal inversion is 0.000000e+00
	Local maximum error in off-diagonal inversion is 0.000000e+00
Variable 'J' not in mesh options. Setting to 0.000000e+00
	WARNING: Jacobian 'J' not found. Calculating from metric tensor
Variable 'Bxy' not in mesh options. Setting to 0.000000e+00
	WARNING: Magnitude of B field 'Bxy' not found. Calculating from metric tensor
Calculating differential geometry terms
	Communicating connection terms
	Option non_uniform = 1 (default)
Variable 'd2x' not in mesh options. Setting to 0.000000e+00
	WARNING: differencing quantity 'd2x' not found. Calculating from dx
Variable 'd2y' not in mesh options. Setting to 0.000000e+00
	WARNING: differencing quantity 'd2y' not found. Calculating from dy
Variable 'ShiftTorsion' not in mesh options. Setting to 0.000000e+00
	WARNING: No Torsion specified for zShift. Derivatives may not be correct
	Option mesh:paralleltransform:type = identity (default)
	done
	Option append = 0 (default)
	Option dump_format = nc (default)
Setting up output (dump) file
	Option output:parallel = 0 (default)
	Option output:flush = 1 (default)
	Option output:guards = 1 (default)
	Option output:floats = 0 (default)
	Option output:openclose = 1 (default)
	Option output:enabled = false (delta_0.25/BOUT.inp)
	Option output:init_missing = 0 (default)
	Option output:shiftOutput = 0 (default)
	Option output:shiftInput = 0 (default)
	Option output:flushFrequency = 1 (default)
	Option restart:parallel = 0 (default)
	Option restart:flush = 1 (default)
	Option restart:guards = 1 (default)
	Option restart:floats = 0 (default)
	Option restart:openclose = 1 (default)
	Option restart:enabled = false (delta_0.25/BOUT.inp)
	Option restart:init_missing = 0 (default)
	Option restart:shiftOutput = 0 (default)
	Option restart:shiftInput = 0 (default)
	Option restart:flushFrequency = 1 (default)
	Option solver:type = rk4 (delta_0.25/BOUT.inp)
	Option solver:monitor_timestep = 0 (default)
	Option solver:is_nonsplit_model_diffusive = 1 (default)
	Option solver:mms = 0 (default)
	Option solver:mms_initialise = 0 (default)
	Option restart = 0 (default)
	Option model:te0 = 5 (delta_0.25/BOUT.inp)
	Option model:e = 1.602e-19 (default)
	Option model:m_i = 3.334e-27 (default)
	Option model:m_e = 9.11e-31 (default)
	Option model:n0 = 2e+18 (delta_0.25/BOUT.inp)
	Option model:d_vort = 1e-06 (delta_0.25/BOUT.inp)
	Option model:d_n = 1e-06 (delta_0.25/BOUT.inp)
	Option model:r_c = 1.5 (delta_0.25/BOUT.inp)
	Option model:L_par = 10 (default)
	Option model:B0 = 0.35 (default)
	Option model:compressible = false (delta_0.25/BOUT.inp)
	Option model:boussinesq = true (delta_0.25/BOUT.inp)
	Option model:sheath = 1 (default)


	----------Parameters: ------------ 
	Omega_i = 1.681764e+07 /s,
	c_s = 1.550006e+04 m/s,
	rho_s = 9.216552e-04 m
	delta_* = rho_s * (dn/n) * 9.372772e+00 	Option phiboussinesq:type = cyclic (delta_0.25/BOUT.inp)
Initialising Laplacian inversion routines
	Option phiboussinesq:async = 1 (default)
	Option phiboussinesq:filter = 0 (default)
	Option phiboussinesq:maxmode = 512 (default)
	Option phiboussinesq:low_mem = 0 (default)
	Option phiboussinesq:nonuniform = 1 (default)
	Option phiboussinesq:all_terms = 1 (default)
	Option phiboussinesq:global_flags = 0 (default)
	Option phiboussinesq:inner_boundary_flags = 0 (default)
	Option phiboussinesq:outer_boundary_flags = 0 (default)
	Option phiboussinesq:include_yguards = 0 (default)
	Option phiboussinesq:extra_yguards_lower = 0 (default)
	Option phiboussinesq:extra_yguards_upper = 0 (default)
	Option phiboussinesq:dst = 0 (default)
Setting boundary for variable n
	core region: 	Option all:bndry_all = neumann (delta_0.25/BOUT.inp)

	Option input:transform_from_field_aligned = true (default)
	Option input:max_recursion_depth = 0 (default)
	Option n:function = 1 + height * exp(-((x-0.25)/width)^2 - ((z/(2*pi) - 0.5)/width)^2) (delta_0.25/BOUT.inp)
	Option n:height = 0.5 (delta_0.25/BOUT.inp)
	Option n:width = 0.1 (delta_0.25/BOUT.inp)
	Option n:scale = 1 (delta_0.25/BOUT.inp)
	Option all:evolve_bndry = 0 (default)
	Option n:evolve_bndry = 0 (default)
Setting boundary for variable omega
	core region: 	Option all:bndry_all = neumann (delta_0.25/BOUT.inp)

	Option input:transform_from_field_aligned = true (default)
	Option input:max_recursion_depth = 0 (default)
	Option all:function = 0.0 (default)
	Option all:scale = 0 (delta_0.25/BOUT.inp)
	Option all:evolve_bndry = false (default)
	Option omega:evolve_bndry = 0 (default)
	Option datadir = delta_0.25 ()
	Option dump_format = nc (default)
	Option restart_format = nc (default)
	Option nout = 10 (delta_0.25/BOUT.inp)
	Option timestep = 0.2 (delta_0.25/BOUT.inp)
	Option solver:NOUT = 10 (default)
	Option solver:output_step = 0.2 (default)
Solver running for 10 outputs with output timestep of 2.000000e-01
Initialising solver

	Runge-Kutta 4th-order solver
	3d fields = 2, 2d fields = 0 neq=16777216, local_N=16384
	Option solver:atol = 1e-10 (delta_0.25/BOUT.inp)
	Option solver:rtol = 1e-05 (delta_0.25/BOUT.inp)
	Option solver:max_timestep = 0.2 (default)
	Option solver:timestep = 0.02 (delta_0.25/BOUT.inp)
	Option solver:mxstep = 10000 (delta_0.25/BOUT.inp)
	Option solver:adaptive = 0 (default)
Running simulation


Run started at  : Wed Jun  3 00:27:14 2020
	Option restart = false (default)
	Option append = false (default)
	Option dump_on_restart = 1 (default)
	Option fft:fft_measure = 0 (default)
	Option laplace:type = cyclic (default)
Initialising Laplacian inversion routines
	Option laplace:async = 1 (default)
	Option laplace:filter = 0 (default)
	Option laplace:maxmode = 512 (default)
	Option laplace:low_mem = 0 (default)
	Option laplace:nonuniform = 1 (default)
	Option laplace:all_terms = 1 (default)
	Option laplace:global_flags = 0 (default)
	Option laplace:inner_boundary_flags = 0 (default)
	Option laplace:outer_boundary_flags = 0 (default)
	Option laplace:include_yguards = 0 (default)
	Option laplace:extra_yguards_lower = 0 (default)
	Option laplace:extra_yguards_upper = 0 (default)
	Option laplace:dst = 0 (default)
	Option wall_limit = -1 (default)
	Option stopCheck = 0 (default)
Sim Time  |  RHS evals  | Wall Time |  Calc    Inv   Comm    I/O   SOLVER

0.000e+00          1       3.71e-01     3.0   94.8    0.1    0.0    2.1
|  Step 0 of 10. Elapsed 0:00:00.4 ETA 0:00:03.72.000e-01         45       1.28e+00     7.2   87.7    4.1    0.0    1.0
/  Step 1 of 10. Elapsed 0:00:01.6 ETA 0:00:11.54.000e-01         41       5.26e-01    16.6   79.6    1.3    0.0    2.5
-  Step 2 of 10. Elapsed 0:00:02.2 ETA 0:00:04.26.000e-01         41       5.17e-01    16.8   79.6    1.1    0.0    2.5
\  Step 3 of 10. Elapsed 0:00:02.7 ETA 0:00:03.68.000e-01         41       6.00e-01    14.2   82.5    1.7    0.0    1.7
|  Step 4 of 10. Elapsed 0:00:03.3 ETA 0:00:03.61.000e+00         41       5.89e-01    14.5   82.1    1.4    0.0    2.0
/  Step 5 of 10. Elapsed 0:00:03.9 ETA 0:00:02.91.200e+00         41       6.09e-01    13.9   82.5    1.7    0.0    1.9
-  Step 6 of 10. Elapsed 0:00:04.5 ETA 0:00:02.41.400e+00         41       6.11e-01    13.9   82.4    1.6    0.0    2.1
\  Step 7 of 10. Elapsed 0:00:05.1 ETA 0:00:01.81.600e+00         41       5.77e-01    14.9   81.6    1.7    0.0    1.9
|  Step 8 of 10. Elapsed 0:00:05.7 ETA 0:00:01.21.800e+00         41       5.45e-01    16.0   80.9    1.1    0.0    2.0
/  Step 9 of 10. Elapsed 0:00:06.2 ETA 0:00:00.52.000e+00         41       5.41e-01    16.0   80.9    1.3    0.0    1.8
-  Step 10 of 10. Elapsed 0:00:06.8 ETA 0:00:00.0
Run finished at  : Wed Jun  3 00:27:21 2020
Run time : 7 s
	Option datadir = delta_0.25 ()
	Option settingsfile = BOUT.settings ()
Writing options to file delta_0.25/BOUT.settings
	Option time_report:show = true (delta_0.25/BOUT.inp)

Timer report 

Timer name | Total time (s) | % of top | Hits | Mean time/hit (s)
-----------|----------------|----------|------|------------------
run        | 6.76360417     | 100.00%  | 1    | 6.76360417       
rhs        | 6.63839171     | 98.15%   | 415  | 0.0159961246     
invert     | 5.6348023      | 83.31%   | 415  | 0.0135778369     
comms      | 0.12644696     | 1.87%    | 3496 | 3.61690389e-05   
io         | 0              | 0.00%    | 0    | -nan             

Application 40726953 resources: utime ~8171s, stime ~197s, Rss ~24204, inblocks ~3990880, outblocks ~12358014
--------------------------------------------------------------------------------

Resources requested: ncpus=1032,place=free,walltime=00:05:00
Resources allocated: cpupercent=27,cput=00:00:10,mem=7036kb,ncpus=1032,vmem=158300kb,walltime=00:01:48

*** jtpsla   Job: 7058454.sdb   ended: 03/06/20 00:27:30   queue: standard ***
*** jtpsla   Job: 7058454.sdb   ended: 03/06/20 00:27:30   queue: standard ***
*** jtpsla   Job: 7058454.sdb   ended: 03/06/20 00:27:30   queue: standard ***
*** jtpsla   Job: 7058454.sdb   ended: 03/06/20 00:27:30   queue: standard ***
--------------------------------------------------------------------------------
