--------------------------------------------------------------------------------
*** jtpsla   Job: 7263828.sdb   started: 15/09/20 22:33:42   host: mom5 ***
*** jtpsla   Job: 7263828.sdb   started: 15/09/20 22:33:42   host: mom5 ***
*** jtpsla   Job: 7263828.sdb   started: 15/09/20 22:33:42   host: mom5 ***
*** jtpsla   Job: 7263828.sdb   started: 15/09/20 22:33:42   host: mom5 ***

--------------------------------------------------------------------------------
PBS_O_WORKDIR = /work/c01/c01/jtpsla/bout/041-ta+mg-timings/ipt/strong-scaling/8192x1024-cvode-skip-loop
BOUT++ version 5.0.0-alpha
Revision: BOUT_REVISION
MD5 checksum: e83d7fb8cb8c2a605f03f73f101cf268
Code compiled on Sep 10 2020 at 11:35:25

B.Dudson (University of York), M.Umansky (LLNL) 2007
Based on BOUT by Xueqiao Xu, 1999

Processor number: 0 of 32

pid: 1651

Compile-time options:
	Checking disabled
	Signal handling enabled
	netCDF4 support enabled
	Parallel NetCDF support disabled
	OpenMP parallelisation disabled
	Compiled with flags : "-DMD5SUM=e83d7fb8cb8c2a605f03f73f101cf268 -DBOUT_REVISION=276f77758e18c24bfcbf3e9b6e356930437df6f8 -g -DHAS_PRETTY_FUNCTION -Wall -Wextra -Wnull-dereference -O3 -march=native -funroll-loops -DSIGHANDLE -DLOGCOLOR -DBACKTRACE -DBOUT_HAS_FFTW -DNCDF4 -DHDF5 -DLAPACK -DBOUT_HAS_PVODE -DBOUT_HAS_GETTEXT -DBOUT_LOCALE_PATH=/usr/local/share/locale"
	Command line options for this run : ../../../blob2d_276f777 -d delta_0.25 NXPE=32 phiboussinesq:type=cyclic 
Reading options file delta_0.25/BOUT.inp
Writing options to file delta_0.25/BOUT.settings

Getting grid data from options
	Option mesh:type = bout (default)
	Option mesh:include_corner_cells = 1 (default)
	Option mesh:StaggerGrids = 0 (default)
	Option mesh:maxregionblocksize = 64 (default)
	Option mesh:calcParallelSlices_on_communicate = 1 (default)
	Option mesh:ddx:first = c2 (delta_0.25/BOUT.inp)
	Option mesh:ddx:second = c2 (delta_0.25/BOUT.inp)
	Option mesh:ddx:upwind = w3 (delta_0.25/BOUT.inp)
	Option mesh:ddy:first = c2 (delta_0.25/BOUT.inp)
	Option mesh:ddy:second = c2 (delta_0.25/BOUT.inp)
	Option mesh:ddy:upwind = w3 (delta_0.25/BOUT.inp)
	Option mesh:ddz:first = fft (delta_0.25/BOUT.inp)
	Option mesh:ddz:second = fft (delta_0.25/BOUT.inp)
	Option mesh:ddz:upwind = w3 (delta_0.25/BOUT.inp)
	Option mesh:ddy:first = c2 (delta_0.25/BOUT.inp)
	Option mesh:ddy:second = c2 (delta_0.25/BOUT.inp)
	Option mesh:ddy:upwind = w3 (delta_0.25/BOUT.inp)
	Option mesh:ddx:first = c2 (delta_0.25/BOUT.inp)
	Option mesh:ddx:second = c2 (delta_0.25/BOUT.inp)
	Option mesh:ddx:upwind = w3 (delta_0.25/BOUT.inp)
	Option mesh:ddy:first = c2 (delta_0.25/BOUT.inp)
	Option mesh:ddy:second = c2 (delta_0.25/BOUT.inp)
	Option mesh:ddy:upwind = w3 (delta_0.25/BOUT.inp)
	Option mesh:ddz:first = fft (delta_0.25/BOUT.inp)
	Option mesh:ddz:second = fft (delta_0.25/BOUT.inp)
	Option mesh:ddz:upwind = w3 (delta_0.25/BOUT.inp)
	Option mesh:ddy:first = c2 (delta_0.25/BOUT.inp)
	Option mesh:ddy:second = c2 (delta_0.25/BOUT.inp)
	Option mesh:ddy:upwind = w3 (delta_0.25/BOUT.inp)
	Option mesh:ddz:fft_filter = 0 (default)
	Option mesh:symmetricGlobalX = 1 (default)
	Option optionfile = BOUT.inp ()
WARNING: The default of this option has changed in release 4.1.
If you want the old setting, you have to specify mesh:symmetricGlobalY=false in BOUT.inp
	Option mesh:symmetricGlobalY = 1 (default)
Loading mesh
	Option input:transform_from_field_aligned = 1 (default)
	Option input:max_recursion_depth = 0 (default)
	Option mesh:nx = 8196 (delta_0.25/BOUT.inp)
	Option mesh:ny = 1 (delta_0.25/BOUT.inp)
	Option mesh:nz = 1024 (delta_0.25/BOUT.inp)
	Read nz from input grid file
	Grid size: 8196 x 1 x 1024
Variable 'MXG' not in mesh options. Setting to 0
	Option mxg = 2 (delta_0.25/BOUT.inp)
Variable 'MYG' not in mesh options. Setting to 0
	Option myg = 0 (delta_0.25/BOUT.inp)
	Guard cells (x,y,z): 2, 0, 0
Variable 'ixseps1' not in mesh options. Setting to 8196
Variable 'ixseps2' not in mesh options. Setting to 8196
Variable 'jyseps1_1' not in mesh options. Setting to -1
Variable 'jyseps1_2' not in mesh options. Setting to 0
Variable 'jyseps2_1' not in mesh options. Setting to 0
Variable 'jyseps2_2' not in mesh options. Setting to 0
Variable 'ny_inner' not in mesh options. Setting to 0
	Option NXPE = 32 (Command line)
	Option IncIntShear = 0 (default)
	Option periodicX = 0 (default)
	Option async_send = 0 (default)
	Option ZMIN = 0 (default)
	Option ZMAX = 1 (default)
	EQUILIBRIUM IS SINGLE NULL (SND) 
Connection between top of Y processor 0 and bottom of 0 in range 0 <= x < 8196
=> This processor sending in up
=> This processor sending in down
WARNING adding connection: poloidal index -1 out of range
	MYPE_IN_CORE = 1
	DXS = 260, DIN = 0. DOUT = -1
	UXS = 260, UIN = 0. UOUT = -1
	XIN = -1, XOUT = 1
	Twist-shift: DI UI 
	Option TwistShift = 0 (default)
Variable 'ShiftAngle' not in mesh options. Setting to empty vector
Boundary regions in this processor: core, 
Constructing default regions
	Boundary region inner X
	Option mesh:extrapolate_x = 0 (default)
	Option mesh:extrapolate_y = 0 (default)
	Option mesh:dx = 3.75e-2 (delta_0.25/BOUT.inp)
Variable 'dy' not in mesh options. Setting to 1.000000e+00
	Option ZMIN = 0 (default)
	Option ZMAX = 1 (default)
	Option mesh:dz = 0.0375 (delta_0.25/BOUT.inp)
Variable 'g11' not in mesh options. Setting to 1.000000e+00
Variable 'g22' not in mesh options. Setting to 1.000000e+00
Variable 'g33' not in mesh options. Setting to 1.000000e+00
Variable 'g12' not in mesh options. Setting to 0.000000e+00
Variable 'g13' not in mesh options. Setting to 0.000000e+00
Variable 'g23' not in mesh options. Setting to 0.000000e+00
	Local maximum error in diagonal inversion is 0.000000e+00
	Local maximum error in off-diagonal inversion is 0.000000e+00
Variable 'J' not in mesh options. Setting to 0.000000e+00
	WARNING: Jacobian 'J' not found. Calculating from metric tensor
Variable 'Bxy' not in mesh options. Setting to 0.000000e+00
	WARNING: Magnitude of B field 'Bxy' not found. Calculating from metric tensor
Calculating differential geometry terms
	Communicating connection terms
	Option non_uniform = 1 (default)
Variable 'd2x' not in mesh options. Setting to 0.000000e+00
	WARNING: differencing quantity 'd2x' not found. Calculating from dx
Variable 'd2y' not in mesh options. Setting to 0.000000e+00
	WARNING: differencing quantity 'd2y' not found. Calculating from dy
Variable 'ShiftTorsion' not in mesh options. Setting to 0.000000e+00
	WARNING: No Torsion specified for zShift. Derivatives may not be correct
	Option mesh:paralleltransform:type = identity (default)
	done
	Option append = 0 (default)
	Option dump_format = nc (default)
Setting up output (dump) file
	Option output:parallel = 0 (default)
	Option output:flush = 1 (default)
	Option output:guards = 1 (default)
	Option output:floats = 0 (default)
	Option output:openclose = 1 (default)
	Option output:enabled = false (delta_0.25/BOUT.inp)
	Option output:init_missing = 0 (default)
	Option output:shiftOutput = 0 (default)
	Option output:shiftInput = 0 (default)
	Option output:flushFrequency = 1 (default)
	Option restart:parallel = 0 (default)
	Option restart:flush = 1 (default)
	Option restart:guards = 1 (default)
	Option restart:floats = 0 (default)
	Option restart:openclose = 1 (default)
	Option restart:enabled = false (delta_0.25/BOUT.inp)
	Option restart:init_missing = 0 (default)
	Option restart:shiftOutput = 0 (default)
	Option restart:shiftInput = 0 (default)
	Option restart:flushFrequency = 1 (default)
	Option solver:type = pvode (default)
	Option solver:monitor_timestep = 0 (default)
	Option solver:is_nonsplit_model_diffusive = 1 (default)
	Option solver:mms = 0 (default)
	Option solver:mms_initialise = 0 (default)
	Option restart = 0 (default)
	Option model:te0 = 5 (delta_0.25/BOUT.inp)
	Option model:e = 1.602e-19 (default)
	Option model:m_i = 3.334e-27 (default)
	Option model:m_e = 9.11e-31 (default)
	Option model:n0 = 2e+18 (delta_0.25/BOUT.inp)
	Option model:d_vort = 1e-06 (delta_0.25/BOUT.inp)
	Option model:d_n = 1e-06 (delta_0.25/BOUT.inp)
	Option model:r_c = 1.5 (delta_0.25/BOUT.inp)
	Option model:L_par = 10 (default)
	Option model:B0 = 0.35 (default)
	Option model:compressible = false (delta_0.25/BOUT.inp)
	Option model:boussinesq = true (delta_0.25/BOUT.inp)
	Option model:sheath = 1 (default)


	----------Parameters: ------------ 
	Omega_i = 1.681764e+07 /s,
	c_s = 1.550006e+04 m/s,
	rho_s = 9.216552e-04 m
	delta_* = rho_s * (dn/n) * 9.372772e+00 	Option phiboussinesq:type = cyclic (Command line)
Initialising Laplacian inversion routines
	Option phiboussinesq:async = 1 (default)
	Option phiboussinesq:filter = 0 (default)
	Option phiboussinesq:maxmode = 512 (default)
	Option phiboussinesq:low_mem = 0 (default)
	Option phiboussinesq:nonuniform = 1 (default)
	Option phiboussinesq:all_terms = 1 (default)
	Option phiboussinesq:global_flags = 0 (default)
	Option phiboussinesq:inner_boundary_flags = 0 (default)
	Option phiboussinesq:outer_boundary_flags = 0 (default)
	Option phiboussinesq:include_yguards = 0 (default)
	Option phiboussinesq:extra_yguards_lower = 0 (default)
	Option phiboussinesq:extra_yguards_upper = 0 (default)
	Option phiboussinesq:dst = 0 (default)
Setting boundary for variable n
	core region: 	Option all:bndry_all = neumann (delta_0.25/BOUT.inp)

	Option input:transform_from_field_aligned = true (default)
	Option input:max_recursion_depth = 0 (default)
	Option n:function = 1 + height * exp(-((x-0.25)/width)^2 - ((z/(2*pi) - 0.5)/width)^2) (delta_0.25/BOUT.inp)
	Option n:height = 0.5 (delta_0.25/BOUT.inp)
	Option n:width = 0.1 (delta_0.25/BOUT.inp)
	Option n:scale = 1 (delta_0.25/BOUT.inp)
	Option all:evolve_bndry = 0 (default)
	Option n:evolve_bndry = 0 (default)
Setting boundary for variable omega
	core region: 	Option all:bndry_all = neumann (delta_0.25/BOUT.inp)

	Option input:transform_from_field_aligned = true (default)
	Option input:max_recursion_depth = 0 (default)
	Option all:function = 0.0 (default)
	Option all:scale = 0 (delta_0.25/BOUT.inp)
	Option all:evolve_bndry = false (default)
	Option omega:evolve_bndry = 0 (default)
	Option datadir = delta_0.25 ()
	Option dump_format = nc (default)
	Option restart_format = nc (default)
	Option nout = 15 (delta_0.25/BOUT.inp)
	Option timestep = 20 (delta_0.25/BOUT.inp)
	Option solver:NOUT = 15 (default)
	Option solver:output_step = 20 (default)
Solver running for 15 outputs with output timestep of 2.000000e+01
Initialising solver
Initialising PVODE solver
	3d fields = 2, 2d fields = 0 neq=16777216, local_N=524288
	Option solver:mudq = 516 (default)
	Option solver:mldq = 516 (default)
	Option solver:mukeep = 0 (default)
	Option solver:mlkeep = 0 (default)
	Option solver:atol = 1e-10 (delta_0.25/BOUT.inp)
	Option solver:rtol = 1e-05 (delta_0.25/BOUT.inp)
	Option solver:use_precon = 0 (default)
	Option solver:precon_dimens = 50 (default)
	Option solver:precon_tol = 0.0001 (default)
	Option solver:mxstep = 10000 (delta_0.25/BOUT.inp)
	Option fft:fft_measure = 0 (default)
	Option laplace:type = cyclic (default)
Initialising Laplacian inversion routines
	Option laplace:async = 1 (default)
	Option laplace:filter = 0 (default)
	Option laplace:maxmode = 512 (default)
	Option laplace:low_mem = 0 (default)
	Option laplace:nonuniform = 1 (default)
	Option laplace:all_terms = 1 (default)
	Option laplace:global_flags = 0 (default)
	Option laplace:inner_boundary_flags = 0 (default)
	Option laplace:outer_boundary_flags = 0 (default)
	Option laplace:include_yguards = 0 (default)
	Option laplace:extra_yguards_lower = 0 (default)
	Option laplace:extra_yguards_upper = 0 (default)
	Option laplace:dst = 0 (default)
Running simulation


Run started at  : Tue Sep 15 22:33:51 2020
	Option restart = false (default)
	Option append = false (default)
	Option dump_on_restart = 1 (default)
	Option wall_limit = -1 (default)
	Option stopCheck = 0 (default)
Sim Time  |  RHS evals  | Wall Time |  Calc    Inv   Comm    I/O   SOLVER

0.000e+00          2       1.50e-01   156.8   58.7    0.5    0.0  -116.0
|  Step 0 of 15. Elapsed 0:00:00.2 ETA 0:00:02.32.000e+01         46       9.59e+00    54.6   15.5    0.1    0.0   29.8
/  Step 1 of 15. Elapsed 0:00:09.7 ETA 0:02:14.34.000e+01         14       2.94e+00    54.2   15.4    0.1    0.0   30.2
-  Step 2 of 15. Elapsed 0:00:12.7 ETA 0:00:38.26.000e+01          7       1.48e+00    53.8   15.3    0.1    0.0   30.8
\  Step 3 of 15. Elapsed 0:00:14.2 ETA 0:00:17.78.000e+01         22       4.69e+00    53.5   15.2    0.1    0.0   31.2
|  Step 4 of 15. Elapsed 0:00:18.8 ETA 0:00:51.61.000e+02         27       5.77e+00    53.3   15.1    0.1    0.0   31.5
/  Step 5 of 15. Elapsed 0:00:24.6 ETA 0:00:57.71.200e+02         40       8.59e+00    53.1   15.1    0.1    0.0   31.8
-  Step 6 of 15. Elapsed 0:00:33.2 ETA 0:01:17.41.400e+02         52       1.11e+01    53.3   15.1    0.1    0.0   31.4
\  Step 7 of 15. Elapsed 0:00:44.3 ETA 0:01:29.01.600e+02         69       1.49e+01    52.8   15.0    0.1    0.0   32.1
|  Step 8 of 15. Elapsed 0:00:59.2 ETA 0:01:44.31.800e+02        103       2.20e+01    53.3   15.1    0.1    0.0   31.5
/  Step 9 of 15. Elapsed 0:01:21.2 ETA 0:02:12.12.000e+02        119       2.55e+01    53.2   15.1    0.1    0.0   31.7
-  Step 10 of 15. Elapsed 0:01:46.8 ETA 0:02:07.52.200e+02        148       3.09e+01    54.5   15.5    0.1    0.0   29.9
\  Step 11 of 15. Elapsed 0:02:17.7 ETA 0:02:03.82.400e+02        306       6.40e+01    54.5   15.5    0.1    0.0   30.0
|  Step 12 of 15. Elapsed 0:03:21.7 ETA 0:03:12.02.600e+02        299       6.42e+01    53.1   15.1    0.1    0.0   31.8
/  Step 13 of 15. Elapsed 0:04:25.9 ETA 0:02:08.42.800e+02        215       4.65e+01    52.7   15.0    0.1    0.0   32.3
-  Step 14 of 15. Elapsed 0:05:12.4 ETA 0:00:46.53.000e+02        352       7.37e+01    54.4   15.4    0.1    0.0   30.1
\  Step 15 of 15. Elapsed 0:06:26.1 ETA 0:00:00.0
Run finished at  : Tue Sep 15 22:40:18 2020
Run time : 6 m 27 s
	Option datadir = delta_0.25 ()
	Option settingsfile = BOUT.settings ()
Writing options to file delta_0.25/BOUT.settings
	Option time_report:show = true (delta_0.25/BOUT.inp)

Timer report 

Timer name | Total time (s) | % of top | Hits  | Mean time/hit (s)
-----------|----------------|----------|-------|------------------
run        | 387.007121     | 100.00%  | 1     | 387.007121       
rhs        | 266.774009     | 68.93%   | 1821  | 0.146498632      
invert     | 58.9137199     | 15.22%   | 1821  | 0.0323523997     
comms      | 0.360920463    | 0.09%    | 14744 | 2.44791415e-05   
io         | 0              | 0.00%    | 0     | -nan             

Application 42156587 resources: utime ~12451s, stime ~13s, Rss ~262096, inblocks ~184109, outblocks ~573998
running ../../../blob2d_276f777 with 32 mpi tasks, rtol = 10^-6 and atol = 10^-7
BOUT++ version 5.0.0-alpha
Revision: BOUT_REVISION
MD5 checksum: e83d7fb8cb8c2a605f03f73f101cf268
Code compiled on Sep 10 2020 at 11:35:25

B.Dudson (University of York), M.Umansky (LLNL) 2007
Based on BOUT by Xueqiao Xu, 1999

Processor number: 0 of 32

pid: 1786

Compile-time options:
	Checking disabled
	Signal handling enabled
	netCDF4 support enabled
	Parallel NetCDF support disabled
	OpenMP parallelisation disabled
	Compiled with flags : "-DMD5SUM=e83d7fb8cb8c2a605f03f73f101cf268 -DBOUT_REVISION=276f77758e18c24bfcbf3e9b6e356930437df6f8 -g -DHAS_PRETTY_FUNCTION -Wall -Wextra -Wnull-dereference -O3 -march=native -funroll-loops -DSIGHANDLE -DLOGCOLOR -DBACKTRACE -DBOUT_HAS_FFTW -DNCDF4 -DHDF5 -DLAPACK -DBOUT_HAS_PVODE -DBOUT_HAS_GETTEXT -DBOUT_LOCALE_PATH=/usr/local/share/locale"
	Command line options for this run : ../../../blob2d_276f777 -d delta_0.25 NXPE=32 phiboussinesq:atol=1e-7 phiboussinesq:rtol=1e-6 phiboussinesq:type=ipt phiboussinesq:max_level=2 
Reading options file delta_0.25/BOUT.inp
	Option phiboussinesq:atol = 1e-10 (delta_0.25/BOUT.inp) overwritten with:
		phiboussinesq:atol = 1e-7 (Command line)
	Option phiboussinesq:rtol = 1e-5 (delta_0.25/BOUT.inp) overwritten with:
		phiboussinesq:rtol = 1e-6 (Command line)
	Option phiboussinesq:type = cyclic (delta_0.25/BOUT.inp) overwritten with:
		phiboussinesq:type = ipt (Command line)
	Option phiboussinesq:max_level = 8 (delta_0.25/BOUT.inp) overwritten with:
		phiboussinesq:max_level = 2 (Command line)
Writing options to file delta_0.25/BOUT.settings

Getting grid data from options
	Option mesh:type = bout (default)
	Option mesh:include_corner_cells = 1 (default)
	Option mesh:StaggerGrids = 0 (default)
	Option mesh:maxregionblocksize = 64 (default)
	Option mesh:calcParallelSlices_on_communicate = 1 (default)
	Option mesh:ddx:first = c2 (delta_0.25/BOUT.inp)
	Option mesh:ddx:second = c2 (delta_0.25/BOUT.inp)
	Option mesh:ddx:upwind = w3 (delta_0.25/BOUT.inp)
	Option mesh:ddy:first = c2 (delta_0.25/BOUT.inp)
	Option mesh:ddy:second = c2 (delta_0.25/BOUT.inp)
	Option mesh:ddy:upwind = w3 (delta_0.25/BOUT.inp)
	Option mesh:ddz:first = fft (delta_0.25/BOUT.inp)
	Option mesh:ddz:second = fft (delta_0.25/BOUT.inp)
	Option mesh:ddz:upwind = w3 (delta_0.25/BOUT.inp)
	Option mesh:ddy:first = c2 (delta_0.25/BOUT.inp)
	Option mesh:ddy:second = c2 (delta_0.25/BOUT.inp)
	Option mesh:ddy:upwind = w3 (delta_0.25/BOUT.inp)
	Option mesh:ddx:first = c2 (delta_0.25/BOUT.inp)
	Option mesh:ddx:second = c2 (delta_0.25/BOUT.inp)
	Option mesh:ddx:upwind = w3 (delta_0.25/BOUT.inp)
	Option mesh:ddy:first = c2 (delta_0.25/BOUT.inp)
	Option mesh:ddy:second = c2 (delta_0.25/BOUT.inp)
	Option mesh:ddy:upwind = w3 (delta_0.25/BOUT.inp)
	Option mesh:ddz:first = fft (delta_0.25/BOUT.inp)
	Option mesh:ddz:second = fft (delta_0.25/BOUT.inp)
	Option mesh:ddz:upwind = w3 (delta_0.25/BOUT.inp)
	Option mesh:ddy:first = c2 (delta_0.25/BOUT.inp)
	Option mesh:ddy:second = c2 (delta_0.25/BOUT.inp)
	Option mesh:ddy:upwind = w3 (delta_0.25/BOUT.inp)
	Option mesh:ddz:fft_filter = 0 (default)
	Option mesh:symmetricGlobalX = 1 (default)
	Option optionfile = BOUT.inp ()
WARNING: The default of this option has changed in release 4.1.
If you want the old setting, you have to specify mesh:symmetricGlobalY=false in BOUT.inp
	Option mesh:symmetricGlobalY = 1 (default)
Loading mesh
	Option input:transform_from_field_aligned = 1 (default)
	Option input:max_recursion_depth = 0 (default)
	Option mesh:nx = 8196 (delta_0.25/BOUT.inp)
	Option mesh:ny = 1 (delta_0.25/BOUT.inp)
	Option mesh:nz = 1024 (delta_0.25/BOUT.inp)
	Read nz from input grid file
	Grid size: 8196 x 1 x 1024
Variable 'MXG' not in mesh options. Setting to 0
	Option mxg = 2 (delta_0.25/BOUT.inp)
Variable 'MYG' not in mesh options. Setting to 0
	Option myg = 0 (delta_0.25/BOUT.inp)
	Guard cells (x,y,z): 2, 0, 0
Variable 'ixseps1' not in mesh options. Setting to 8196
Variable 'ixseps2' not in mesh options. Setting to 8196
Variable 'jyseps1_1' not in mesh options. Setting to -1
Variable 'jyseps1_2' not in mesh options. Setting to 0
Variable 'jyseps2_1' not in mesh options. Setting to 0
Variable 'jyseps2_2' not in mesh options. Setting to 0
Variable 'ny_inner' not in mesh options. Setting to 0
	Option NXPE = 32 (Command line)
	Option IncIntShear = 0 (default)
	Option periodicX = 0 (default)
	Option async_send = 0 (default)
	Option ZMIN = 0 (default)
	Option ZMAX = 1 (default)
	EQUILIBRIUM IS SINGLE NULL (SND) 
Connection between top of Y processor 0 and bottom of 0 in range 0 <= x < 8196
=> This processor sending in up
=> This processor sending in down
WARNING adding connection: poloidal index -1 out of range
	MYPE_IN_CORE = 1
	DXS = 260, DIN = 0. DOUT = -1
	UXS = 260, UIN = 0. UOUT = -1
	XIN = -1, XOUT = 1
	Twist-shift: DI UI 
	Option TwistShift = 0 (default)
Variable 'ShiftAngle' not in mesh options. Setting to empty vector
Boundary regions in this processor: core, 
Constructing default regions
	Boundary region inner X
	Option mesh:extrapolate_x = 0 (default)
	Option mesh:extrapolate_y = 0 (default)
	Option mesh:dx = 3.75e-2 (delta_0.25/BOUT.inp)
Variable 'dy' not in mesh options. Setting to 1.000000e+00
	Option ZMIN = 0 (default)
	Option ZMAX = 1 (default)
	Option mesh:dz = 0.0375 (delta_0.25/BOUT.inp)
Variable 'g11' not in mesh options. Setting to 1.000000e+00
Variable 'g22' not in mesh options. Setting to 1.000000e+00
Variable 'g33' not in mesh options. Setting to 1.000000e+00
Variable 'g12' not in mesh options. Setting to 0.000000e+00
Variable 'g13' not in mesh options. Setting to 0.000000e+00
Variable 'g23' not in mesh options. Setting to 0.000000e+00
	Local maximum error in diagonal inversion is 0.000000e+00
	Local maximum error in off-diagonal inversion is 0.000000e+00
Variable 'J' not in mesh options. Setting to 0.000000e+00
	WARNING: Jacobian 'J' not found. Calculating from metric tensor
Variable 'Bxy' not in mesh options. Setting to 0.000000e+00
	WARNING: Magnitude of B field 'Bxy' not found. Calculating from metric tensor
Calculating differential geometry terms
	Communicating connection terms
	Option non_uniform = 1 (default)
Variable 'd2x' not in mesh options. Setting to 0.000000e+00
	WARNING: differencing quantity 'd2x' not found. Calculating from dx
Variable 'd2y' not in mesh options. Setting to 0.000000e+00
	WARNING: differencing quantity 'd2y' not found. Calculating from dy
Variable 'ShiftTorsion' not in mesh options. Setting to 0.000000e+00
	WARNING: No Torsion specified for zShift. Derivatives may not be correct
	Option mesh:paralleltransform:type = identity (default)
	done
	Option append = 0 (default)
	Option dump_format = nc (default)
Setting up output (dump) file
	Option output:parallel = 0 (default)
	Option output:flush = 1 (default)
	Option output:guards = 1 (default)
	Option output:floats = 0 (default)
	Option output:openclose = 1 (default)
	Option output:enabled = false (delta_0.25/BOUT.inp)
	Option output:init_missing = 0 (default)
	Option output:shiftOutput = 0 (default)
	Option output:shiftInput = 0 (default)
	Option output:flushFrequency = 1 (default)
	Option restart:parallel = 0 (default)
	Option restart:flush = 1 (default)
	Option restart:guards = 1 (default)
	Option restart:floats = 0 (default)
	Option restart:openclose = 1 (default)
	Option restart:enabled = false (delta_0.25/BOUT.inp)
	Option restart:init_missing = 0 (default)
	Option restart:shiftOutput = 0 (default)
	Option restart:shiftInput = 0 (default)
	Option restart:flushFrequency = 1 (default)
	Option solver:type = pvode (default)
	Option solver:monitor_timestep = 0 (default)
	Option solver:is_nonsplit_model_diffusive = 1 (default)
	Option solver:mms = 0 (default)
	Option solver:mms_initialise = 0 (default)
	Option restart = 0 (default)
	Option model:te0 = 5 (delta_0.25/BOUT.inp)
	Option model:e = 1.602e-19 (default)
	Option model:m_i = 3.334e-27 (default)
	Option model:m_e = 9.11e-31 (default)
	Option model:n0 = 2e+18 (delta_0.25/BOUT.inp)
	Option model:d_vort = 1e-06 (delta_0.25/BOUT.inp)
	Option model:d_n = 1e-06 (delta_0.25/BOUT.inp)
	Option model:r_c = 1.5 (delta_0.25/BOUT.inp)
	Option model:L_par = 10 (default)
	Option model:B0 = 0.35 (default)
	Option model:compressible = false (delta_0.25/BOUT.inp)
	Option model:boussinesq = true (delta_0.25/BOUT.inp)
	Option model:sheath = 1 (default)


	----------Parameters: ------------ 
	Omega_i = 1.681764e+07 /s,
	c_s = 1.550006e+04 m/s,
	rho_s = 9.216552e-04 m
	delta_* = rho_s * (dn/n) * 9.372772e+00 	Option phiboussinesq:type = ipt (Command line)
Initialising Laplacian inversion routines
	Option phiboussinesq:async = 1 (default)
	Option phiboussinesq:filter = 0 (default)
	Option phiboussinesq:maxmode = 512 (default)
	Option phiboussinesq:low_mem = 0 (default)
	Option phiboussinesq:nonuniform = 1 (default)
	Option phiboussinesq:all_terms = 1 (default)
	Option phiboussinesq:global_flags = 0 (default)
	Option phiboussinesq:inner_boundary_flags = 0 (default)
	Option phiboussinesq:outer_boundary_flags = 0 (default)
	Option phiboussinesq:include_yguards = 0 (default)
	Option phiboussinesq:extra_yguards_lower = 0 (default)
	Option phiboussinesq:extra_yguards_upper = 0 (default)
	Option phiboussinesq:rtol = 1e-06 (Command line)
	Option phiboussinesq:atol = 1e-07 (Command line)
	Option phiboussinesq:maxits = 10000 (delta_0.25/BOUT.inp)
	Option phiboussinesq:max_level = 2 (Command line)
	Option phiboussinesq:max_cycle = 1 (delta_0.25/BOUT.inp)
	Option phiboussinesq:predict_exit = 0 (default)
Setting boundary for variable n
	core region: 	Option all:bndry_all = neumann (delta_0.25/BOUT.inp)

	Option input:transform_from_field_aligned = true (default)
	Option input:max_recursion_depth = 0 (default)
	Option n:function = 1 + height * exp(-((x-0.25)/width)^2 - ((z/(2*pi) - 0.5)/width)^2) (delta_0.25/BOUT.inp)
	Option n:height = 0.5 (delta_0.25/BOUT.inp)
	Option n:width = 0.1 (delta_0.25/BOUT.inp)
	Option n:scale = 1 (delta_0.25/BOUT.inp)
	Option all:evolve_bndry = 0 (default)
	Option n:evolve_bndry = 0 (default)
Setting boundary for variable omega
	core region: 	Option all:bndry_all = neumann (delta_0.25/BOUT.inp)

	Option input:transform_from_field_aligned = true (default)
	Option input:max_recursion_depth = 0 (default)
	Option all:function = 0.0 (default)
	Option all:scale = 0 (delta_0.25/BOUT.inp)
	Option all:evolve_bndry = false (default)
	Option omega:evolve_bndry = 0 (default)
	Option datadir = delta_0.25 ()
	Option dump_format = nc (default)
	Option restart_format = nc (default)
	Option nout = 15 (delta_0.25/BOUT.inp)
	Option timestep = 20 (delta_0.25/BOUT.inp)
	Option solver:NOUT = 15 (default)
	Option solver:output_step = 20 (default)
Solver running for 15 outputs with output timestep of 2.000000e+01
Initialising solver
Initialising PVODE solver
	3d fields = 2, 2d fields = 0 neq=16777216, local_N=524288
	Option solver:mudq = 516 (default)
	Option solver:mldq = 516 (default)
	Option solver:mukeep = 0 (default)
	Option solver:mlkeep = 0 (default)
	Option solver:atol = 1e-10 (delta_0.25/BOUT.inp)
	Option solver:rtol = 1e-05 (delta_0.25/BOUT.inp)
	Option solver:use_precon = 0 (default)
	Option solver:precon_dimens = 50 (default)
	Option solver:precon_tol = 0.0001 (default)
	Option solver:mxstep = 10000 (delta_0.25/BOUT.inp)
	Option fft:fft_measure = 0 (default)
	Option laplace:type = cyclic (default)
Initialising Laplacian inversion routines
	Option laplace:async = 1 (default)
	Option laplace:filter = 0 (default)
	Option laplace:maxmode = 512 (default)
	Option laplace:low_mem = 0 (default)
	Option laplace:nonuniform = 1 (default)
	Option laplace:all_terms = 1 (default)
	Option laplace:global_flags = 0 (default)
	Option laplace:inner_boundary_flags = 0 (default)
	Option laplace:outer_boundary_flags = 0 (default)
	Option laplace:include_yguards = 0 (default)
	Option laplace:extra_yguards_lower = 0 (default)
	Option laplace:extra_yguards_upper = 0 (default)
	Option laplace:dst = 0 (default)
Running simulation


Run started at  : Tue Sep 15 22:40:27 2020
	Option restart = false (default)
	Option append = false (default)
	Option dump_on_restart = 1 (default)
	Option wall_limit = -1 (default)
	Option stopCheck = 0 (default)
Sim Time  |  RHS evals  | Wall Time |  Calc    Inv   Comm    I/O   SOLVER

0.000e+00          2       1.37e-01   176.0   54.6    1.1    0.0  -131.7
|  Step 0 of 15. Elapsed 0:00:00.1 ETA 0:00:02.12.000e+01         50       9.93e+00    57.4   11.5    0.1    0.0   31.1
/  Step 1 of 15. Elapsed 0:00:10.1 ETA 0:02:19.04.000e+01         25       5.02e+00    56.9   11.3    0.0    0.0   31.8
-  Step 2 of 15. Elapsed 0:00:15.1 ETA 0:01:05.26.000e+01         59       1.19e+01    56.6   11.2    0.1    0.0   32.2
\  Step 3 of 15. Elapsed 0:00:27.0 ETA 0:02:23.08.000e+01        124       2.50e+01    56.8   11.2    0.1    0.0   32.0
|  Step 4 of 15. Elapsed 0:00:52.0 ETA 0:04:34.51.000e+02        117       2.38e+01    56.1   11.0    0.0    0.0   32.8
/  Step 5 of 15. Elapsed 0:01:15.8 ETA 0:03:58.41.200e+02        137       2.73e+01    57.3   11.3    0.1    0.0   31.4
-  Step 6 of 15. Elapsed 0:01:43.1 ETA 0:04:06.01.400e+02        149       2.95e+01    57.8   11.4    0.1    0.0   30.8
\  Step 7 of 15. Elapsed 0:02:12.6 ETA 0:03:55.71.600e+02        206       4.33e+01    54.4   10.7    0.0    0.0   34.9
|  Step 8 of 15. Elapsed 0:02:55.9 ETA 0:05:03.11.800e+02        278       5.63e+01    56.4   11.1    0.1    0.0   32.4
/  Step 9 of 15. Elapsed 0:03:52.2 ETA 0:05:37.82.000e+02        209       4.15e+01    57.5   11.4    0.1    0.0   31.1
-  Step 10 of 15. Elapsed 0:04:33.8 ETA 0:03:27.52.200e+02        141       2.97e+01    54.2   10.7    0.0    0.0   35.0
\  Step 11 of 15. Elapsed 0:05:03.4 ETA 0:01:58.92.400e+02        153       3.15e+01    55.5   11.0    0.0    0.0   33.5
|  Step 12 of 15. Elapsed 0:05:35.0 ETA 0:01:34.52.600e+02        219       4.26e+01    58.7   11.6    0.1    0.0   29.7
/  Step 13 of 15. Elapsed 0:06:17.5 ETA 0:01:25.22.800e+02        224       4.39e+01    58.3   11.5    0.1    0.0   30.2
-  Step 14 of 15. Elapsed 0:07:01.4 ETA 0:00:43.93.000e+02        264       5.12e+01    58.9   11.6    0.1    0.0   29.4
\  Step 15 of 15. Elapsed 0:07:52.6 ETA 0:00:00.0
Run finished at  : Tue Sep 15 22:48:21 2020
Run time : 7 m 54 s
	Option datadir = delta_0.25 ()
	Option settingsfile = BOUT.settings ()
Writing options to file delta_0.25/BOUT.settings
	Option time_report:show = true (delta_0.25/BOUT.inp)

Timer report 

Timer name | Total time (s) | % of top | Hits  | Mean time/hit (s)
-----------|----------------|----------|-------|------------------
run        | 473.390692     | 100.00%  | 1     | 473.390692       
rhs        | 322.65421      | 68.16%   | 2357  | 0.136891901      
invert     | 53.1517171     | 11.23%   | 2357  | 0.02255058       
comms      | 0.239330521    | 0.05%    | 19032 | 1.2575164e-05    
io         | 0              | 0.00%    | 0     | -nan             

Application 42156607 resources: utime ~15137s, stime ~13s, Rss ~245536, inblocks ~184261, outblocks ~574067
BOUT++ version 5.0.0-alpha
Revision: BOUT_REVISION
MD5 checksum: e83d7fb8cb8c2a605f03f73f101cf268
Code compiled on Sep 10 2020 at 11:35:25

B.Dudson (University of York), M.Umansky (LLNL) 2007
Based on BOUT by Xueqiao Xu, 1999

Processor number: 0 of 32

pid: 1921

Compile-time options:
	Checking disabled
	Signal handling enabled
	netCDF4 support enabled
	Parallel NetCDF support disabled
	OpenMP parallelisation disabled
	Compiled with flags : "-DMD5SUM=e83d7fb8cb8c2a605f03f73f101cf268 -DBOUT_REVISION=276f77758e18c24bfcbf3e9b6e356930437df6f8 -g -DHAS_PRETTY_FUNCTION -Wall -Wextra -Wnull-dereference -O3 -march=native -funroll-loops -DSIGHANDLE -DLOGCOLOR -DBACKTRACE -DBOUT_HAS_FFTW -DNCDF4 -DHDF5 -DLAPACK -DBOUT_HAS_PVODE -DBOUT_HAS_GETTEXT -DBOUT_LOCALE_PATH=/usr/local/share/locale"
	Command line options for this run : ../../../blob2d_276f777 -d delta_0.25 NXPE=32 phiboussinesq:atol=1e-7 phiboussinesq:rtol=1e-6 phiboussinesq:type=ipt phiboussinesq:max_level=1 
Reading options file delta_0.25/BOUT.inp
	Option phiboussinesq:atol = 1e-10 (delta_0.25/BOUT.inp) overwritten with:
		phiboussinesq:atol = 1e-7 (Command line)
	Option phiboussinesq:rtol = 1e-5 (delta_0.25/BOUT.inp) overwritten with:
		phiboussinesq:rtol = 1e-6 (Command line)
	Option phiboussinesq:type = cyclic (delta_0.25/BOUT.inp) overwritten with:
		phiboussinesq:type = ipt (Command line)
	Option phiboussinesq:max_level = 8 (delta_0.25/BOUT.inp) overwritten with:
		phiboussinesq:max_level = 1 (Command line)
Writing options to file delta_0.25/BOUT.settings

Getting grid data from options
	Option mesh:type = bout (default)
	Option mesh:include_corner_cells = 1 (default)
	Option mesh:StaggerGrids = 0 (default)
	Option mesh:maxregionblocksize = 64 (default)
	Option mesh:calcParallelSlices_on_communicate = 1 (default)
	Option mesh:ddx:first = c2 (delta_0.25/BOUT.inp)
	Option mesh:ddx:second = c2 (delta_0.25/BOUT.inp)
	Option mesh:ddx:upwind = w3 (delta_0.25/BOUT.inp)
	Option mesh:ddy:first = c2 (delta_0.25/BOUT.inp)
	Option mesh:ddy:second = c2 (delta_0.25/BOUT.inp)
	Option mesh:ddy:upwind = w3 (delta_0.25/BOUT.inp)
	Option mesh:ddz:first = fft (delta_0.25/BOUT.inp)
	Option mesh:ddz:second = fft (delta_0.25/BOUT.inp)
	Option mesh:ddz:upwind = w3 (delta_0.25/BOUT.inp)
	Option mesh:ddy:first = c2 (delta_0.25/BOUT.inp)
	Option mesh:ddy:second = c2 (delta_0.25/BOUT.inp)
	Option mesh:ddy:upwind = w3 (delta_0.25/BOUT.inp)
	Option mesh:ddx:first = c2 (delta_0.25/BOUT.inp)
	Option mesh:ddx:second = c2 (delta_0.25/BOUT.inp)
	Option mesh:ddx:upwind = w3 (delta_0.25/BOUT.inp)
	Option mesh:ddy:first = c2 (delta_0.25/BOUT.inp)
	Option mesh:ddy:second = c2 (delta_0.25/BOUT.inp)
	Option mesh:ddy:upwind = w3 (delta_0.25/BOUT.inp)
	Option mesh:ddz:first = fft (delta_0.25/BOUT.inp)
	Option mesh:ddz:second = fft (delta_0.25/BOUT.inp)
	Option mesh:ddz:upwind = w3 (delta_0.25/BOUT.inp)
	Option mesh:ddy:first = c2 (delta_0.25/BOUT.inp)
	Option mesh:ddy:second = c2 (delta_0.25/BOUT.inp)
	Option mesh:ddy:upwind = w3 (delta_0.25/BOUT.inp)
	Option mesh:ddz:fft_filter = 0 (default)
	Option mesh:symmetricGlobalX = 1 (default)
	Option optionfile = BOUT.inp ()
WARNING: The default of this option has changed in release 4.1.
If you want the old setting, you have to specify mesh:symmetricGlobalY=false in BOUT.inp
	Option mesh:symmetricGlobalY = 1 (default)
Loading mesh
	Option input:transform_from_field_aligned = 1 (default)
	Option input:max_recursion_depth = 0 (default)
	Option mesh:nx = 8196 (delta_0.25/BOUT.inp)
	Option mesh:ny = 1 (delta_0.25/BOUT.inp)
	Option mesh:nz = 1024 (delta_0.25/BOUT.inp)
	Read nz from input grid file
	Grid size: 8196 x 1 x 1024
Variable 'MXG' not in mesh options. Setting to 0
	Option mxg = 2 (delta_0.25/BOUT.inp)
Variable 'MYG' not in mesh options. Setting to 0
	Option myg = 0 (delta_0.25/BOUT.inp)
	Guard cells (x,y,z): 2, 0, 0
Variable 'ixseps1' not in mesh options. Setting to 8196
Variable 'ixseps2' not in mesh options. Setting to 8196
Variable 'jyseps1_1' not in mesh options. Setting to -1
Variable 'jyseps1_2' not in mesh options. Setting to 0
Variable 'jyseps2_1' not in mesh options. Setting to 0
Variable 'jyseps2_2' not in mesh options. Setting to 0
Variable 'ny_inner' not in mesh options. Setting to 0
	Option NXPE = 32 (Command line)
	Option IncIntShear = 0 (default)
	Option periodicX = 0 (default)
	Option async_send = 0 (default)
	Option ZMIN = 0 (default)
	Option ZMAX = 1 (default)
	EQUILIBRIUM IS SINGLE NULL (SND) 
Connection between top of Y processor 0 and bottom of 0 in range 0 <= x < 8196
=> This processor sending in up
=> This processor sending in down
WARNING adding connection: poloidal index -1 out of range
	MYPE_IN_CORE = 1
	DXS = 260, DIN = 0. DOUT = -1
	UXS = 260, UIN = 0. UOUT = -1
	XIN = -1, XOUT = 1
	Twist-shift: DI UI 
	Option TwistShift = 0 (default)
Variable 'ShiftAngle' not in mesh options. Setting to empty vector
Boundary regions in this processor: core, 
Constructing default regions
	Boundary region inner X
	Option mesh:extrapolate_x = 0 (default)
	Option mesh:extrapolate_y = 0 (default)
	Option mesh:dx = 3.75e-2 (delta_0.25/BOUT.inp)
Variable 'dy' not in mesh options. Setting to 1.000000e+00
	Option ZMIN = 0 (default)
	Option ZMAX = 1 (default)
	Option mesh:dz = 0.0375 (delta_0.25/BOUT.inp)
Variable 'g11' not in mesh options. Setting to 1.000000e+00
Variable 'g22' not in mesh options. Setting to 1.000000e+00
Variable 'g33' not in mesh options. Setting to 1.000000e+00
Variable 'g12' not in mesh options. Setting to 0.000000e+00
Variable 'g13' not in mesh options. Setting to 0.000000e+00
Variable 'g23' not in mesh options. Setting to 0.000000e+00
	Local maximum error in diagonal inversion is 0.000000e+00
	Local maximum error in off-diagonal inversion is 0.000000e+00
Variable 'J' not in mesh options. Setting to 0.000000e+00
	WARNING: Jacobian 'J' not found. Calculating from metric tensor
Variable 'Bxy' not in mesh options. Setting to 0.000000e+00
	WARNING: Magnitude of B field 'Bxy' not found. Calculating from metric tensor
Calculating differential geometry terms
	Communicating connection terms
	Option non_uniform = 1 (default)
Variable 'd2x' not in mesh options. Setting to 0.000000e+00
	WARNING: differencing quantity 'd2x' not found. Calculating from dx
Variable 'd2y' not in mesh options. Setting to 0.000000e+00
	WARNING: differencing quantity 'd2y' not found. Calculating from dy
Variable 'ShiftTorsion' not in mesh options. Setting to 0.000000e+00
	WARNING: No Torsion specified for zShift. Derivatives may not be correct
	Option mesh:paralleltransform:type = identity (default)
	done
	Option append = 0 (default)
	Option dump_format = nc (default)
Setting up output (dump) file
	Option output:parallel = 0 (default)
	Option output:flush = 1 (default)
	Option output:guards = 1 (default)
	Option output:floats = 0 (default)
	Option output:openclose = 1 (default)
	Option output:enabled = false (delta_0.25/BOUT.inp)
	Option output:init_missing = 0 (default)
	Option output:shiftOutput = 0 (default)
	Option output:shiftInput = 0 (default)
	Option output:flushFrequency = 1 (default)
	Option restart:parallel = 0 (default)
	Option restart:flush = 1 (default)
	Option restart:guards = 1 (default)
	Option restart:floats = 0 (default)
	Option restart:openclose = 1 (default)
	Option restart:enabled = false (delta_0.25/BOUT.inp)
	Option restart:init_missing = 0 (default)
	Option restart:shiftOutput = 0 (default)
	Option restart:shiftInput = 0 (default)
	Option restart:flushFrequency = 1 (default)
	Option solver:type = pvode (default)
	Option solver:monitor_timestep = 0 (default)
	Option solver:is_nonsplit_model_diffusive = 1 (default)
	Option solver:mms = 0 (default)
	Option solver:mms_initialise = 0 (default)
	Option restart = 0 (default)
	Option model:te0 = 5 (delta_0.25/BOUT.inp)
	Option model:e = 1.602e-19 (default)
	Option model:m_i = 3.334e-27 (default)
	Option model:m_e = 9.11e-31 (default)
	Option model:n0 = 2e+18 (delta_0.25/BOUT.inp)
	Option model:d_vort = 1e-06 (delta_0.25/BOUT.inp)
	Option model:d_n = 1e-06 (delta_0.25/BOUT.inp)
	Option model:r_c = 1.5 (delta_0.25/BOUT.inp)
	Option model:L_par = 10 (default)
	Option model:B0 = 0.35 (default)
	Option model:compressible = false (delta_0.25/BOUT.inp)
	Option model:boussinesq = true (delta_0.25/BOUT.inp)
	Option model:sheath = 1 (default)


	----------Parameters: ------------ 
	Omega_i = 1.681764e+07 /s,
	c_s = 1.550006e+04 m/s,
	rho_s = 9.216552e-04 m
	delta_* = rho_s * (dn/n) * 9.372772e+00 	Option phiboussinesq:type = ipt (Command line)
Initialising Laplacian inversion routines
	Option phiboussinesq:async = 1 (default)
	Option phiboussinesq:filter = 0 (default)
	Option phiboussinesq:maxmode = 512 (default)
	Option phiboussinesq:low_mem = 0 (default)
	Option phiboussinesq:nonuniform = 1 (default)
	Option phiboussinesq:all_terms = 1 (default)
	Option phiboussinesq:global_flags = 0 (default)
	Option phiboussinesq:inner_boundary_flags = 0 (default)
	Option phiboussinesq:outer_boundary_flags = 0 (default)
	Option phiboussinesq:include_yguards = 0 (default)
	Option phiboussinesq:extra_yguards_lower = 0 (default)
	Option phiboussinesq:extra_yguards_upper = 0 (default)
	Option phiboussinesq:rtol = 1e-06 (Command line)
	Option phiboussinesq:atol = 1e-07 (Command line)
	Option phiboussinesq:maxits = 10000 (delta_0.25/BOUT.inp)
	Option phiboussinesq:max_level = 1 (Command line)
	Option phiboussinesq:max_cycle = 1 (delta_0.25/BOUT.inp)
	Option phiboussinesq:predict_exit = 0 (default)
Setting boundary for variable n
	core region: 	Option all:bndry_all = neumann (delta_0.25/BOUT.inp)

	Option input:transform_from_field_aligned = true (default)
	Option input:max_recursion_depth = 0 (default)
	Option n:function = 1 + height * exp(-((x-0.25)/width)^2 - ((z/(2*pi) - 0.5)/width)^2) (delta_0.25/BOUT.inp)
	Option n:height = 0.5 (delta_0.25/BOUT.inp)
	Option n:width = 0.1 (delta_0.25/BOUT.inp)
	Option n:scale = 1 (delta_0.25/BOUT.inp)
	Option all:evolve_bndry = 0 (default)
	Option n:evolve_bndry = 0 (default)
Setting boundary for variable omega
	core region: 	Option all:bndry_all = neumann (delta_0.25/BOUT.inp)

	Option input:transform_from_field_aligned = true (default)
	Option input:max_recursion_depth = 0 (default)
	Option all:function = 0.0 (default)
	Option all:scale = 0 (delta_0.25/BOUT.inp)
	Option all:evolve_bndry = false (default)
	Option omega:evolve_bndry = 0 (default)
	Option datadir = delta_0.25 ()
	Option dump_format = nc (default)
	Option restart_format = nc (default)
	Option nout = 15 (delta_0.25/BOUT.inp)
	Option timestep = 20 (delta_0.25/BOUT.inp)
	Option solver:NOUT = 15 (default)
	Option solver:output_step = 20 (default)
Solver running for 15 outputs with output timestep of 2.000000e+01
Initialising solver
Initialising PVODE solver
	3d fields = 2, 2d fields = 0 neq=16777216, local_N=524288
	Option solver:mudq = 516 (default)
	Option solver:mldq = 516 (default)
	Option solver:mukeep = 0 (default)
	Option solver:mlkeep = 0 (default)
	Option solver:atol = 1e-10 (delta_0.25/BOUT.inp)
	Option solver:rtol = 1e-05 (delta_0.25/BOUT.inp)
	Option solver:use_precon = 0 (default)
	Option solver:precon_dimens = 50 (default)
	Option solver:precon_tol = 0.0001 (default)
	Option solver:mxstep = 10000 (delta_0.25/BOUT.inp)
	Option fft:fft_measure = 0 (default)
	Option laplace:type = cyclic (default)
Initialising Laplacian inversion routines
	Option laplace:async = 1 (default)
	Option laplace:filter = 0 (default)
	Option laplace:maxmode = 512 (default)
	Option laplace:low_mem = 0 (default)
	Option laplace:nonuniform = 1 (default)
	Option laplace:all_terms = 1 (default)
	Option laplace:global_flags = 0 (default)
	Option laplace:inner_boundary_flags = 0 (default)
	Option laplace:outer_boundary_flags = 0 (default)
	Option laplace:include_yguards = 0 (default)
	Option laplace:extra_yguards_lower = 0 (default)
	Option laplace:extra_yguards_upper = 0 (default)
	Option laplace:dst = 0 (default)
Running simulation


Run started at  : Tue Sep 15 22:48:30 2020
	Option restart = false (default)
	Option append = false (default)
	Option dump_on_restart = 1 (default)
	Option wall_limit = -1 (default)
	Option stopCheck = 0 (default)
Sim Time  |  RHS evals  | Wall Time |  Calc    Inv   Comm    I/O   SOLVER

0.000e+00          2       1.36e-01   177.3   54.4    0.5    0.0  -132.3
|  Step 0 of 15. Elapsed 0:00:00.1 ETA 0:00:02.02.000e+01         53       1.05e+01    57.5   11.5    0.1    0.0   31.0
/  Step 1 of 15. Elapsed 0:00:10.7 ETA 0:02:27.04.000e+01         23       4.83e+00    54.3   10.8    0.1    0.0   34.8
-  Step 2 of 15. Elapsed 0:00:15.5 ETA 0:01:02.76.000e+01         66       1.45e+01    52.1   10.3    0.0    0.0   37.5
\  Step 3 of 15. Elapsed 0:00:29.9 ETA 0:02:53.58.000e+01        129       2.70e+01    54.7   10.8    0.1    0.0   34.5
|  Step 4 of 15. Elapsed 0:00:56.9 ETA 0:04:56.61.000e+02        137       2.86e+01    54.6   10.7    0.1    0.0   34.6
/  Step 5 of 15. Elapsed 0:01:25.5 ETA 0:04:46.51.200e+02        127       2.52e+01    57.4   11.3    0.1    0.0   31.2
-  Step 6 of 15. Elapsed 0:01:50.8 ETA 0:03:47.21.400e+02        126       2.49e+01    57.8   11.4    0.1    0.0   30.8
\  Step 7 of 15. Elapsed 0:02:15.7 ETA 0:03:19.11.600e+02        136       2.77e+01    55.9   11.0    0.1    0.0   33.0
|  Step 8 of 15. Elapsed 0:02:43.5 ETA 0:03:14.21.800e+02        156       3.09e+01    57.6   11.4    0.1    0.0   31.0
/  Step 9 of 15. Elapsed 0:03:14.4 ETA 0:03:05.52.000e+02        188       3.70e+01    57.9   11.4    0.1    0.0   30.7
-  Step 10 of 15. Elapsed 0:03:51.3 ETA 0:03:05.12.200e+02        197       3.83e+01    58.5   11.6    0.1    0.0   29.8
\  Step 11 of 15. Elapsed 0:04:29.7 ETA 0:02:33.32.400e+02        274       5.37e+01    58.1   11.5    0.1    0.0   30.3
|  Step 12 of 15. Elapsed 0:05:23.4 ETA 0:02:41.2=>> PBS: job killed: walltime 1218 exceeded limit 1200
aprun: Apid 42156636: Caught signal Terminated, sending to application
_pmiu_daemon(SIGCHLD): [NID 00011] [c0-0c0s2n3] [Tue Sep 15 22:53:57 2020] PE RANK 26 exit signal Terminated
_pmiu_daemon(SIGCHLD): [NID 00010] [c0-0c0s2n2] [Tue Sep 15 22:53:58 2020] PE RANK 2 exit signal Terminated
Application 42156636 exit codes: 143
Application 42156636 resources: utime ~658s, stime ~3s, Rss ~244880, inblocks ~182203, outblocks ~573197
--------------------------------------------------------------------------------

Resources requested: ncpus=48,place=free,walltime=00:20:00
Resources allocated: cpupercent=33,cput=00:00:09,mem=14804kb,ncpus=48,vmem=158304kb,walltime=00:20:18

*** jtpsla   Job: 7263828.sdb   ended: 15/09/20 22:54:08   queue: R7256489 ***
*** jtpsla   Job: 7263828.sdb   ended: 15/09/20 22:54:08   queue: R7256489 ***
*** jtpsla   Job: 7263828.sdb   ended: 15/09/20 22:54:08   queue: R7256489 ***
*** jtpsla   Job: 7263828.sdb   ended: 15/09/20 22:54:08   queue: R7256489 ***
--------------------------------------------------------------------------------
