--------------------------------------------------------------------------------
*** jtpsla   Job: 7258775.sdb   started: 11/09/20 15:04:39   host: mom5 ***
*** jtpsla   Job: 7258775.sdb   started: 11/09/20 15:04:39   host: mom5 ***
*** jtpsla   Job: 7258775.sdb   started: 11/09/20 15:04:39   host: mom5 ***
*** jtpsla   Job: 7258775.sdb   started: 11/09/20 15:04:39   host: mom5 ***

--------------------------------------------------------------------------------
PBS_O_WORKDIR = /work/c01/c01/jtpsla/bout/041-ta+mg-timings/ipt/strong-scaling/8192x1024-cvode-skip-loop
running ../../../blob2d_276f777 with 256 mpi tasks, rtol = 10^-6 and atol = 10^-7
BOUT++ version 5.0.0-alpha
Revision: BOUT_REVISION
MD5 checksum: e83d7fb8cb8c2a605f03f73f101cf268
Code compiled on Sep 10 2020 at 11:35:25

B.Dudson (University of York), M.Umansky (LLNL) 2007
Based on BOUT by Xueqiao Xu, 1999

Processor number: 0 of 256

pid: 14464

Compile-time options:
	Checking disabled
	Signal handling enabled
	netCDF4 support enabled
	Parallel NetCDF support disabled
	OpenMP parallelisation disabled
	Compiled with flags : "-DMD5SUM=e83d7fb8cb8c2a605f03f73f101cf268 -DBOUT_REVISION=276f77758e18c24bfcbf3e9b6e356930437df6f8 -g -DHAS_PRETTY_FUNCTION -Wall -Wextra -Wnull-dereference -O3 -march=native -funroll-loops -DSIGHANDLE -DLOGCOLOR -DBACKTRACE -DBOUT_HAS_FFTW -DNCDF4 -DHDF5 -DLAPACK -DBOUT_HAS_PVODE -DBOUT_HAS_GETTEXT -DBOUT_LOCALE_PATH=/usr/local/share/locale"
	Command line options for this run : ../../../blob2d_276f777 -d delta_0.25 NXPE=256 phiboussinesq:atol=1e-7 phiboussinesq:rtol=1e-6 phiboussinesq:type=ipt phiboussinesq:max_level=7 
Reading options file delta_0.25/BOUT.inp
	Option phiboussinesq:atol = 1e-10 (delta_0.25/BOUT.inp) overwritten with:
		phiboussinesq:atol = 1e-7 (Command line)
	Option phiboussinesq:rtol = 1e-5 (delta_0.25/BOUT.inp) overwritten with:
		phiboussinesq:rtol = 1e-6 (Command line)
	Option phiboussinesq:type = cyclic (delta_0.25/BOUT.inp) overwritten with:
		phiboussinesq:type = ipt (Command line)
	Option phiboussinesq:max_level = 8 (delta_0.25/BOUT.inp) overwritten with:
		phiboussinesq:max_level = 7 (Command line)
Writing options to file delta_0.25/BOUT.settings

Getting grid data from options
	Option mesh:type = bout (default)
	Option mesh:include_corner_cells = 1 (default)
	Option mesh:StaggerGrids = 0 (default)
	Option mesh:maxregionblocksize = 64 (default)
	Option mesh:calcParallelSlices_on_communicate = 1 (default)
	Option mesh:ddx:first = c2 (delta_0.25/BOUT.inp)
	Option mesh:ddx:second = c2 (delta_0.25/BOUT.inp)
	Option mesh:ddx:upwind = w3 (delta_0.25/BOUT.inp)
	Option mesh:ddy:first = c2 (delta_0.25/BOUT.inp)
	Option mesh:ddy:second = c2 (delta_0.25/BOUT.inp)
	Option mesh:ddy:upwind = w3 (delta_0.25/BOUT.inp)
	Option mesh:ddz:first = fft (delta_0.25/BOUT.inp)
	Option mesh:ddz:second = fft (delta_0.25/BOUT.inp)
	Option mesh:ddz:upwind = w3 (delta_0.25/BOUT.inp)
	Option mesh:ddy:first = c2 (delta_0.25/BOUT.inp)
	Option mesh:ddy:second = c2 (delta_0.25/BOUT.inp)
	Option mesh:ddy:upwind = w3 (delta_0.25/BOUT.inp)
	Option mesh:ddx:first = c2 (delta_0.25/BOUT.inp)
	Option mesh:ddx:second = c2 (delta_0.25/BOUT.inp)
	Option mesh:ddx:upwind = w3 (delta_0.25/BOUT.inp)
	Option mesh:ddy:first = c2 (delta_0.25/BOUT.inp)
	Option mesh:ddy:second = c2 (delta_0.25/BOUT.inp)
	Option mesh:ddy:upwind = w3 (delta_0.25/BOUT.inp)
	Option mesh:ddz:first = fft (delta_0.25/BOUT.inp)
	Option mesh:ddz:second = fft (delta_0.25/BOUT.inp)
	Option mesh:ddz:upwind = w3 (delta_0.25/BOUT.inp)
	Option mesh:ddy:first = c2 (delta_0.25/BOUT.inp)
	Option mesh:ddy:second = c2 (delta_0.25/BOUT.inp)
	Option mesh:ddy:upwind = w3 (delta_0.25/BOUT.inp)
	Option mesh:ddz:fft_filter = 0 (default)
	Option mesh:symmetricGlobalX = 1 (default)
	Option optionfile = BOUT.inp ()
WARNING: The default of this option has changed in release 4.1.
If you want the old setting, you have to specify mesh:symmetricGlobalY=false in BOUT.inp
	Option mesh:symmetricGlobalY = 1 (default)
Loading mesh
	Option input:transform_from_field_aligned = 1 (default)
	Option input:max_recursion_depth = 0 (default)
	Option mesh:nx = 8196 (delta_0.25/BOUT.inp)
	Option mesh:ny = 1 (delta_0.25/BOUT.inp)
	Option mesh:nz = 1024 (delta_0.25/BOUT.inp)
	Read nz from input grid file
	Grid size: 8196 x 1 x 1024
Variable 'MXG' not in mesh options. Setting to 0
	Option mxg = 2 (delta_0.25/BOUT.inp)
Variable 'MYG' not in mesh options. Setting to 0
	Option myg = 0 (delta_0.25/BOUT.inp)
	Guard cells (x,y,z): 2, 0, 0
Variable 'ixseps1' not in mesh options. Setting to 8196
Variable 'ixseps2' not in mesh options. Setting to 8196
Variable 'jyseps1_1' not in mesh options. Setting to -1
Variable 'jyseps1_2' not in mesh options. Setting to 0
Variable 'jyseps2_1' not in mesh options. Setting to 0
Variable 'jyseps2_2' not in mesh options. Setting to 0
Variable 'ny_inner' not in mesh options. Setting to 0
	Option NXPE = 256 (Command line)
	Option IncIntShear = 0 (default)
	Option periodicX = 0 (default)
	Option async_send = 0 (default)
	Option ZMIN = 0 (default)
	Option ZMAX = 1 (default)
	EQUILIBRIUM IS SINGLE NULL (SND) 
Connection between top of Y processor 0 and bottom of 0 in range 0 <= x < 8196
=> This processor sending in up
=> This processor sending in down
WARNING adding connection: poloidal index -1 out of range
	MYPE_IN_CORE = 1
	DXS = 36, DIN = 0. DOUT = -1
	UXS = 36, UIN = 0. UOUT = -1
	XIN = -1, XOUT = 1
	Twist-shift: DI UI 
	Option TwistShift = 0 (default)
Variable 'ShiftAngle' not in mesh options. Setting to empty vector
Boundary regions in this processor: core, 
Constructing default regions
	Boundary region inner X
	Option mesh:extrapolate_x = 0 (default)
	Option mesh:extrapolate_y = 0 (default)
	Option mesh:dx = 3.75e-2 (delta_0.25/BOUT.inp)
Variable 'dy' not in mesh options. Setting to 1.000000e+00
	Option ZMIN = 0 (default)
	Option ZMAX = 1 (default)
	Option mesh:dz = 0.0375 (delta_0.25/BOUT.inp)
Variable 'g11' not in mesh options. Setting to 1.000000e+00
Variable 'g22' not in mesh options. Setting to 1.000000e+00
Variable 'g33' not in mesh options. Setting to 1.000000e+00
Variable 'g12' not in mesh options. Setting to 0.000000e+00
Variable 'g13' not in mesh options. Setting to 0.000000e+00
Variable 'g23' not in mesh options. Setting to 0.000000e+00
	Local maximum error in diagonal inversion is 0.000000e+00
	Local maximum error in off-diagonal inversion is 0.000000e+00
Variable 'J' not in mesh options. Setting to 0.000000e+00
	WARNING: Jacobian 'J' not found. Calculating from metric tensor
Variable 'Bxy' not in mesh options. Setting to 0.000000e+00
	WARNING: Magnitude of B field 'Bxy' not found. Calculating from metric tensor
Calculating differential geometry terms
	Communicating connection terms
	Option non_uniform = 1 (default)
Variable 'd2x' not in mesh options. Setting to 0.000000e+00
	WARNING: differencing quantity 'd2x' not found. Calculating from dx
Variable 'd2y' not in mesh options. Setting to 0.000000e+00
	WARNING: differencing quantity 'd2y' not found. Calculating from dy
Variable 'ShiftTorsion' not in mesh options. Setting to 0.000000e+00
	WARNING: No Torsion specified for zShift. Derivatives may not be correct
	Option mesh:paralleltransform:type = identity (default)
	done
	Option append = 0 (default)
	Option dump_format = nc (default)
Setting up output (dump) file
	Option output:parallel = 0 (default)
	Option output:flush = 1 (default)
	Option output:guards = 1 (default)
	Option output:floats = 0 (default)
	Option output:openclose = 1 (default)
	Option output:enabled = false (delta_0.25/BOUT.inp)
	Option output:init_missing = 0 (default)
	Option output:shiftOutput = 0 (default)
	Option output:shiftInput = 0 (default)
	Option output:flushFrequency = 1 (default)
	Option restart:parallel = 0 (default)
	Option restart:flush = 1 (default)
	Option restart:guards = 1 (default)
	Option restart:floats = 0 (default)
	Option restart:openclose = 1 (default)
	Option restart:enabled = false (delta_0.25/BOUT.inp)
	Option restart:init_missing = 0 (default)
	Option restart:shiftOutput = 0 (default)
	Option restart:shiftInput = 0 (default)
	Option restart:flushFrequency = 1 (default)
	Option solver:type = pvode (default)
	Option solver:monitor_timestep = 0 (default)
	Option solver:is_nonsplit_model_diffusive = 1 (default)
	Option solver:mms = 0 (default)
	Option solver:mms_initialise = 0 (default)
	Option restart = 0 (default)
	Option model:te0 = 5 (delta_0.25/BOUT.inp)
	Option model:e = 1.602e-19 (default)
	Option model:m_i = 3.334e-27 (default)
	Option model:m_e = 9.11e-31 (default)
	Option model:n0 = 2e+18 (delta_0.25/BOUT.inp)
	Option model:d_vort = 1e-06 (delta_0.25/BOUT.inp)
	Option model:d_n = 1e-06 (delta_0.25/BOUT.inp)
	Option model:r_c = 1.5 (delta_0.25/BOUT.inp)
	Option model:L_par = 10 (default)
	Option model:B0 = 0.35 (default)
	Option model:compressible = false (delta_0.25/BOUT.inp)
	Option model:boussinesq = true (delta_0.25/BOUT.inp)
	Option model:sheath = 1 (default)


	----------Parameters: ------------ 
	Omega_i = 1.681764e+07 /s,
	c_s = 1.550006e+04 m/s,
	rho_s = 9.216552e-04 m
	delta_* = rho_s * (dn/n) * 9.372772e+00 	Option phiboussinesq:type = ipt (Command line)
Initialising Laplacian inversion routines
	Option phiboussinesq:async = 1 (default)
	Option phiboussinesq:filter = 0 (default)
	Option phiboussinesq:maxmode = 512 (default)
	Option phiboussinesq:low_mem = 0 (default)
	Option phiboussinesq:nonuniform = 1 (default)
	Option phiboussinesq:all_terms = 1 (default)
	Option phiboussinesq:global_flags = 0 (default)
	Option phiboussinesq:inner_boundary_flags = 0 (default)
	Option phiboussinesq:outer_boundary_flags = 0 (default)
	Option phiboussinesq:include_yguards = 0 (default)
	Option phiboussinesq:extra_yguards_lower = 0 (default)
	Option phiboussinesq:extra_yguards_upper = 0 (default)
	Option phiboussinesq:rtol = 1e-06 (Command line)
	Option phiboussinesq:atol = 1e-07 (Command line)
	Option phiboussinesq:maxits = 10000 (delta_0.25/BOUT.inp)
	Option phiboussinesq:max_level = 7 (Command line)
	Option phiboussinesq:max_cycle = 1 (delta_0.25/BOUT.inp)
	Option phiboussinesq:predict_exit = 0 (default)
Setting boundary for variable n
	core region: 	Option all:bndry_all = neumann (delta_0.25/BOUT.inp)

	Option input:transform_from_field_aligned = true (default)
	Option input:max_recursion_depth = 0 (default)
	Option n:function = 1 + height * exp(-((x-0.25)/width)^2 - ((z/(2*pi) - 0.5)/width)^2) (delta_0.25/BOUT.inp)
	Option n:height = 0.5 (delta_0.25/BOUT.inp)
	Option n:width = 0.1 (delta_0.25/BOUT.inp)
	Option n:scale = 1 (delta_0.25/BOUT.inp)
	Option all:evolve_bndry = 0 (default)
	Option n:evolve_bndry = 0 (default)
Setting boundary for variable omega
	core region: 	Option all:bndry_all = neumann (delta_0.25/BOUT.inp)

	Option input:transform_from_field_aligned = true (default)
	Option input:max_recursion_depth = 0 (default)
	Option all:function = 0.0 (default)
	Option all:scale = 0 (delta_0.25/BOUT.inp)
	Option all:evolve_bndry = false (default)
	Option omega:evolve_bndry = 0 (default)
	Option datadir = delta_0.25 ()
	Option dump_format = nc (default)
	Option restart_format = nc (default)
	Option nout = 15 (delta_0.25/BOUT.inp)
	Option timestep = 20 (delta_0.25/BOUT.inp)
	Option solver:NOUT = 15 (default)
	Option solver:output_step = 20 (default)
Solver running for 15 outputs with output timestep of 2.000000e+01
Initialising solver
Initialising PVODE solver
	3d fields = 2, 2d fields = 0 neq=16777216, local_N=65536
	Option solver:mudq = 68 (default)
	Option solver:mldq = 68 (default)
	Option solver:mukeep = 0 (default)
	Option solver:mlkeep = 0 (default)
	Option solver:atol = 1e-10 (delta_0.25/BOUT.inp)
	Option solver:rtol = 1e-05 (delta_0.25/BOUT.inp)
	Option solver:use_precon = 0 (default)
	Option solver:precon_dimens = 50 (default)
	Option solver:precon_tol = 0.0001 (default)
	Option solver:mxstep = 10000 (delta_0.25/BOUT.inp)
	Option fft:fft_measure = 0 (default)
	Option laplace:type = cyclic (default)
Initialising Laplacian inversion routines
	Option laplace:async = 1 (default)
	Option laplace:filter = 0 (default)
	Option laplace:maxmode = 512 (default)
	Option laplace:low_mem = 0 (default)
	Option laplace:nonuniform = 1 (default)
	Option laplace:all_terms = 1 (default)
	Option laplace:global_flags = 0 (default)
	Option laplace:inner_boundary_flags = 0 (default)
	Option laplace:outer_boundary_flags = 0 (default)
	Option laplace:include_yguards = 0 (default)
	Option laplace:extra_yguards_lower = 0 (default)
	Option laplace:extra_yguards_upper = 0 (default)
	Option laplace:dst = 0 (default)
Running simulation


Run started at  : Fri Sep 11 15:04:46 2020
	Option restart = false (default)
	Option append = false (default)
	Option dump_on_restart = 1 (default)
	Option wall_limit = -1 (default)
	Option stopCheck = 0 (default)
Sim Time  |  RHS evals  | Wall Time |  Calc    Inv   Comm    I/O   SOLVER

0.000e+00          2       1.60e-02   183.7  292.6    8.7    0.0  -385.1
|  Step 0 of 15. Elapsed 0:00:00.0 ETA 0:00:00.22.000e+01         51       1.25e+00    42.6   35.6    0.4    0.0   21.4
/  Step 1 of 15. Elapsed 0:00:01.3 ETA 0:00:17.54.000e+01         22       4.97e-01    45.9   32.4    0.4    0.0   21.3
-  Step 2 of 15. Elapsed 0:00:01.8 ETA 0:00:06.56.000e+01         31       6.38e-01    50.5   26.5    0.4    0.0   22.6
\  Step 3 of 15. Elapsed 0:00:02.4 ETA 0:00:07.78.000e+01        107       2.20e+00    50.6   25.8    0.4    0.0   23.2
|  Step 4 of 15. Elapsed 0:00:04.6 ETA 0:00:24.21.000e+02        114       2.32e+00    51.0   26.1    0.4    0.0   22.5
/  Step 5 of 15. Elapsed 0:00:06.9 ETA 0:00:23.21.200e+02        167       3.66e+00    47.3   30.9    0.4    0.0   21.4
-  Step 6 of 15. Elapsed 0:00:10.6 ETA 0:00:33.01.400e+02        135       2.87e+00    49.0   29.2    0.4    0.0   21.5
\  Step 7 of 15. Elapsed 0:00:13.4 ETA 0:00:22.91.600e+02        133       2.83e+00    48.9   29.9    0.4    0.0   20.9
|  Step 8 of 15. Elapsed 0:00:16.3 ETA 0:00:19.81.800e+02        161       3.58e+00    46.7   32.4    0.4    0.0   20.5
/  Step 9 of 15. Elapsed 0:00:19.9 ETA 0:00:21.52.000e+02        189       3.94e+00    49.8   28.1    0.4    0.0   21.6
-  Step 10 of 15. Elapsed 0:00:23.8 ETA 0:00:19.72.200e+02        183       3.84e+00    49.6   27.9    0.4    0.0   22.1
\  Step 11 of 15. Elapsed 0:00:27.6 ETA 0:00:15.32.400e+02        205       4.45e+00    47.9   30.1    0.4    0.0   21.6
|  Step 12 of 15. Elapsed 0:00:32.1 ETA 0:00:13.42.600e+02        227       4.89e+00    48.3   29.1    0.4    0.0   22.2
/  Step 13 of 15. Elapsed 0:00:37.0 ETA 0:00:09.82.800e+02        178       4.48e+00    41.4   36.7    0.4    0.0   21.5
-  Step 14 of 15. Elapsed 0:00:41.5 ETA 0:00:04.53.000e+02        202       4.46e+00    47.2   30.5    0.4    0.0   21.9
\  Step 15 of 15. Elapsed 0:00:45.9 ETA 0:00:00.0
Run finished at  : Fri Sep 11 15:05:32 2020
Run time : 46 s
	Option datadir = delta_0.25 ()
	Option settingsfile = BOUT.settings ()
Writing options to file delta_0.25/BOUT.settings
	Option time_report:show = true (delta_0.25/BOUT.inp)

Timer report 

Timer name | Total time (s) | % of top | Hits  | Mean time/hit (s)
-----------|----------------|----------|-------|------------------
run        | 45.9122349     | 100.00%  | 1     | 45.9122349       
rhs        | 36.0098893     | 78.43%   | 2107  | 0.0170905977     
invert     | 13.9089183     | 30.29%   | 2107  | 0.00660129015    
comms      | 0.186164399    | 0.41%    | 17032 | 1.09302724e-05   
io         | 0              | 0.00%    | 0     | -nan             

Application 41970138 resources: utime ~11877s, stime ~58s, Rss ~47296, inblocks ~1024309, outblocks ~3159371
BOUT++ version 5.0.0-alpha
Revision: BOUT_REVISION
MD5 checksum: e83d7fb8cb8c2a605f03f73f101cf268
Code compiled on Sep 10 2020 at 11:35:25

B.Dudson (University of York), M.Umansky (LLNL) 2007
Based on BOUT by Xueqiao Xu, 1999

Processor number: 0 of 256

pid: 14602

Compile-time options:
	Checking disabled
	Signal handling enabled
	netCDF4 support enabled
	Parallel NetCDF support disabled
	OpenMP parallelisation disabled
	Compiled with flags : "-DMD5SUM=e83d7fb8cb8c2a605f03f73f101cf268 -DBOUT_REVISION=276f77758e18c24bfcbf3e9b6e356930437df6f8 -g -DHAS_PRETTY_FUNCTION -Wall -Wextra -Wnull-dereference -O3 -march=native -funroll-loops -DSIGHANDLE -DLOGCOLOR -DBACKTRACE -DBOUT_HAS_FFTW -DNCDF4 -DHDF5 -DLAPACK -DBOUT_HAS_PVODE -DBOUT_HAS_GETTEXT -DBOUT_LOCALE_PATH=/usr/local/share/locale"
	Command line options for this run : ../../../blob2d_276f777 -d delta_0.25 NXPE=256 phiboussinesq:atol=1e-7 phiboussinesq:rtol=1e-6 phiboussinesq:type=ipt phiboussinesq:max_level=6 
Reading options file delta_0.25/BOUT.inp
	Option phiboussinesq:atol = 1e-10 (delta_0.25/BOUT.inp) overwritten with:
		phiboussinesq:atol = 1e-7 (Command line)
	Option phiboussinesq:rtol = 1e-5 (delta_0.25/BOUT.inp) overwritten with:
		phiboussinesq:rtol = 1e-6 (Command line)
	Option phiboussinesq:type = cyclic (delta_0.25/BOUT.inp) overwritten with:
		phiboussinesq:type = ipt (Command line)
	Option phiboussinesq:max_level = 8 (delta_0.25/BOUT.inp) overwritten with:
		phiboussinesq:max_level = 6 (Command line)
Writing options to file delta_0.25/BOUT.settings

Getting grid data from options
	Option mesh:type = bout (default)
	Option mesh:include_corner_cells = 1 (default)
	Option mesh:StaggerGrids = 0 (default)
	Option mesh:maxregionblocksize = 64 (default)
	Option mesh:calcParallelSlices_on_communicate = 1 (default)
	Option mesh:ddx:first = c2 (delta_0.25/BOUT.inp)
	Option mesh:ddx:second = c2 (delta_0.25/BOUT.inp)
	Option mesh:ddx:upwind = w3 (delta_0.25/BOUT.inp)
	Option mesh:ddy:first = c2 (delta_0.25/BOUT.inp)
	Option mesh:ddy:second = c2 (delta_0.25/BOUT.inp)
	Option mesh:ddy:upwind = w3 (delta_0.25/BOUT.inp)
	Option mesh:ddz:first = fft (delta_0.25/BOUT.inp)
	Option mesh:ddz:second = fft (delta_0.25/BOUT.inp)
	Option mesh:ddz:upwind = w3 (delta_0.25/BOUT.inp)
	Option mesh:ddy:first = c2 (delta_0.25/BOUT.inp)
	Option mesh:ddy:second = c2 (delta_0.25/BOUT.inp)
	Option mesh:ddy:upwind = w3 (delta_0.25/BOUT.inp)
	Option mesh:ddx:first = c2 (delta_0.25/BOUT.inp)
	Option mesh:ddx:second = c2 (delta_0.25/BOUT.inp)
	Option mesh:ddx:upwind = w3 (delta_0.25/BOUT.inp)
	Option mesh:ddy:first = c2 (delta_0.25/BOUT.inp)
	Option mesh:ddy:second = c2 (delta_0.25/BOUT.inp)
	Option mesh:ddy:upwind = w3 (delta_0.25/BOUT.inp)
	Option mesh:ddz:first = fft (delta_0.25/BOUT.inp)
	Option mesh:ddz:second = fft (delta_0.25/BOUT.inp)
	Option mesh:ddz:upwind = w3 (delta_0.25/BOUT.inp)
	Option mesh:ddy:first = c2 (delta_0.25/BOUT.inp)
	Option mesh:ddy:second = c2 (delta_0.25/BOUT.inp)
	Option mesh:ddy:upwind = w3 (delta_0.25/BOUT.inp)
	Option mesh:ddz:fft_filter = 0 (default)
	Option mesh:symmetricGlobalX = 1 (default)
	Option optionfile = BOUT.inp ()
WARNING: The default of this option has changed in release 4.1.
If you want the old setting, you have to specify mesh:symmetricGlobalY=false in BOUT.inp
	Option mesh:symmetricGlobalY = 1 (default)
Loading mesh
	Option input:transform_from_field_aligned = 1 (default)
	Option input:max_recursion_depth = 0 (default)
	Option mesh:nx = 8196 (delta_0.25/BOUT.inp)
	Option mesh:ny = 1 (delta_0.25/BOUT.inp)
	Option mesh:nz = 1024 (delta_0.25/BOUT.inp)
	Read nz from input grid file
	Grid size: 8196 x 1 x 1024
Variable 'MXG' not in mesh options. Setting to 0
	Option mxg = 2 (delta_0.25/BOUT.inp)
Variable 'MYG' not in mesh options. Setting to 0
	Option myg = 0 (delta_0.25/BOUT.inp)
	Guard cells (x,y,z): 2, 0, 0
Variable 'ixseps1' not in mesh options. Setting to 8196
Variable 'ixseps2' not in mesh options. Setting to 8196
Variable 'jyseps1_1' not in mesh options. Setting to -1
Variable 'jyseps1_2' not in mesh options. Setting to 0
Variable 'jyseps2_1' not in mesh options. Setting to 0
Variable 'jyseps2_2' not in mesh options. Setting to 0
Variable 'ny_inner' not in mesh options. Setting to 0
	Option NXPE = 256 (Command line)
	Option IncIntShear = 0 (default)
	Option periodicX = 0 (default)
	Option async_send = 0 (default)
	Option ZMIN = 0 (default)
	Option ZMAX = 1 (default)
	EQUILIBRIUM IS SINGLE NULL (SND) 
Connection between top of Y processor 0 and bottom of 0 in range 0 <= x < 8196
=> This processor sending in up
=> This processor sending in down
WARNING adding connection: poloidal index -1 out of range
	MYPE_IN_CORE = 1
	DXS = 36, DIN = 0. DOUT = -1
	UXS = 36, UIN = 0. UOUT = -1
	XIN = -1, XOUT = 1
	Twist-shift: DI UI 
	Option TwistShift = 0 (default)
Variable 'ShiftAngle' not in mesh options. Setting to empty vector
Boundary regions in this processor: core, 
Constructing default regions
	Boundary region inner X
	Option mesh:extrapolate_x = 0 (default)
	Option mesh:extrapolate_y = 0 (default)
	Option mesh:dx = 3.75e-2 (delta_0.25/BOUT.inp)
Variable 'dy' not in mesh options. Setting to 1.000000e+00
	Option ZMIN = 0 (default)
	Option ZMAX = 1 (default)
	Option mesh:dz = 0.0375 (delta_0.25/BOUT.inp)
Variable 'g11' not in mesh options. Setting to 1.000000e+00
Variable 'g22' not in mesh options. Setting to 1.000000e+00
Variable 'g33' not in mesh options. Setting to 1.000000e+00
Variable 'g12' not in mesh options. Setting to 0.000000e+00
Variable 'g13' not in mesh options. Setting to 0.000000e+00
Variable 'g23' not in mesh options. Setting to 0.000000e+00
	Local maximum error in diagonal inversion is 0.000000e+00
	Local maximum error in off-diagonal inversion is 0.000000e+00
Variable 'J' not in mesh options. Setting to 0.000000e+00
	WARNING: Jacobian 'J' not found. Calculating from metric tensor
Variable 'Bxy' not in mesh options. Setting to 0.000000e+00
	WARNING: Magnitude of B field 'Bxy' not found. Calculating from metric tensor
Calculating differential geometry terms
	Communicating connection terms
	Option non_uniform = 1 (default)
Variable 'd2x' not in mesh options. Setting to 0.000000e+00
	WARNING: differencing quantity 'd2x' not found. Calculating from dx
Variable 'd2y' not in mesh options. Setting to 0.000000e+00
	WARNING: differencing quantity 'd2y' not found. Calculating from dy
Variable 'ShiftTorsion' not in mesh options. Setting to 0.000000e+00
	WARNING: No Torsion specified for zShift. Derivatives may not be correct
	Option mesh:paralleltransform:type = identity (default)
	done
	Option append = 0 (default)
	Option dump_format = nc (default)
Setting up output (dump) file
	Option output:parallel = 0 (default)
	Option output:flush = 1 (default)
	Option output:guards = 1 (default)
	Option output:floats = 0 (default)
	Option output:openclose = 1 (default)
	Option output:enabled = false (delta_0.25/BOUT.inp)
	Option output:init_missing = 0 (default)
	Option output:shiftOutput = 0 (default)
	Option output:shiftInput = 0 (default)
	Option output:flushFrequency = 1 (default)
	Option restart:parallel = 0 (default)
	Option restart:flush = 1 (default)
	Option restart:guards = 1 (default)
	Option restart:floats = 0 (default)
	Option restart:openclose = 1 (default)
	Option restart:enabled = false (delta_0.25/BOUT.inp)
	Option restart:init_missing = 0 (default)
	Option restart:shiftOutput = 0 (default)
	Option restart:shiftInput = 0 (default)
	Option restart:flushFrequency = 1 (default)
	Option solver:type = pvode (default)
	Option solver:monitor_timestep = 0 (default)
	Option solver:is_nonsplit_model_diffusive = 1 (default)
	Option solver:mms = 0 (default)
	Option solver:mms_initialise = 0 (default)
	Option restart = 0 (default)
	Option model:te0 = 5 (delta_0.25/BOUT.inp)
	Option model:e = 1.602e-19 (default)
	Option model:m_i = 3.334e-27 (default)
	Option model:m_e = 9.11e-31 (default)
	Option model:n0 = 2e+18 (delta_0.25/BOUT.inp)
	Option model:d_vort = 1e-06 (delta_0.25/BOUT.inp)
	Option model:d_n = 1e-06 (delta_0.25/BOUT.inp)
	Option model:r_c = 1.5 (delta_0.25/BOUT.inp)
	Option model:L_par = 10 (default)
	Option model:B0 = 0.35 (default)
	Option model:compressible = false (delta_0.25/BOUT.inp)
	Option model:boussinesq = true (delta_0.25/BOUT.inp)
	Option model:sheath = 1 (default)


	----------Parameters: ------------ 
	Omega_i = 1.681764e+07 /s,
	c_s = 1.550006e+04 m/s,
	rho_s = 9.216552e-04 m
	delta_* = rho_s * (dn/n) * 9.372772e+00 	Option phiboussinesq:type = ipt (Command line)
Initialising Laplacian inversion routines
	Option phiboussinesq:async = 1 (default)
	Option phiboussinesq:filter = 0 (default)
	Option phiboussinesq:maxmode = 512 (default)
	Option phiboussinesq:low_mem = 0 (default)
	Option phiboussinesq:nonuniform = 1 (default)
	Option phiboussinesq:all_terms = 1 (default)
	Option phiboussinesq:global_flags = 0 (default)
	Option phiboussinesq:inner_boundary_flags = 0 (default)
	Option phiboussinesq:outer_boundary_flags = 0 (default)
	Option phiboussinesq:include_yguards = 0 (default)
	Option phiboussinesq:extra_yguards_lower = 0 (default)
	Option phiboussinesq:extra_yguards_upper = 0 (default)
	Option phiboussinesq:rtol = 1e-06 (Command line)
	Option phiboussinesq:atol = 1e-07 (Command line)
	Option phiboussinesq:maxits = 10000 (delta_0.25/BOUT.inp)
	Option phiboussinesq:max_level = 6 (Command line)
	Option phiboussinesq:max_cycle = 1 (delta_0.25/BOUT.inp)
	Option phiboussinesq:predict_exit = 0 (default)
Setting boundary for variable n
	core region: 	Option all:bndry_all = neumann (delta_0.25/BOUT.inp)

	Option input:transform_from_field_aligned = true (default)
	Option input:max_recursion_depth = 0 (default)
	Option n:function = 1 + height * exp(-((x-0.25)/width)^2 - ((z/(2*pi) - 0.5)/width)^2) (delta_0.25/BOUT.inp)
	Option n:height = 0.5 (delta_0.25/BOUT.inp)
	Option n:width = 0.1 (delta_0.25/BOUT.inp)
	Option n:scale = 1 (delta_0.25/BOUT.inp)
	Option all:evolve_bndry = 0 (default)
	Option n:evolve_bndry = 0 (default)
Setting boundary for variable omega
	core region: 	Option all:bndry_all = neumann (delta_0.25/BOUT.inp)

	Option input:transform_from_field_aligned = true (default)
	Option input:max_recursion_depth = 0 (default)
	Option all:function = 0.0 (default)
	Option all:scale = 0 (delta_0.25/BOUT.inp)
	Option all:evolve_bndry = false (default)
	Option omega:evolve_bndry = 0 (default)
	Option datadir = delta_0.25 ()
	Option dump_format = nc (default)
	Option restart_format = nc (default)
	Option nout = 15 (delta_0.25/BOUT.inp)
	Option timestep = 20 (delta_0.25/BOUT.inp)
	Option solver:NOUT = 15 (default)
	Option solver:output_step = 20 (default)
Solver running for 15 outputs with output timestep of 2.000000e+01
Initialising solver
Initialising PVODE solver
	3d fields = 2, 2d fields = 0 neq=16777216, local_N=65536
	Option solver:mudq = 68 (default)
	Option solver:mldq = 68 (default)
	Option solver:mukeep = 0 (default)
	Option solver:mlkeep = 0 (default)
	Option solver:atol = 1e-10 (delta_0.25/BOUT.inp)
	Option solver:rtol = 1e-05 (delta_0.25/BOUT.inp)
	Option solver:use_precon = 0 (default)
	Option solver:precon_dimens = 50 (default)
	Option solver:precon_tol = 0.0001 (default)
	Option solver:mxstep = 10000 (delta_0.25/BOUT.inp)
	Option fft:fft_measure = 0 (default)
	Option laplace:type = cyclic (default)
Initialising Laplacian inversion routines
	Option laplace:async = 1 (default)
	Option laplace:filter = 0 (default)
	Option laplace:maxmode = 512 (default)
	Option laplace:low_mem = 0 (default)
	Option laplace:nonuniform = 1 (default)
	Option laplace:all_terms = 1 (default)
	Option laplace:global_flags = 0 (default)
	Option laplace:inner_boundary_flags = 0 (default)
	Option laplace:outer_boundary_flags = 0 (default)
	Option laplace:include_yguards = 0 (default)
	Option laplace:extra_yguards_lower = 0 (default)
	Option laplace:extra_yguards_upper = 0 (default)
	Option laplace:dst = 0 (default)
Running simulation


Run started at  : Fri Sep 11 15:05:44 2020
	Option restart = false (default)
	Option append = false (default)
	Option dump_on_restart = 1 (default)
	Option wall_limit = -1 (default)
	Option stopCheck = 0 (default)
Sim Time  |  RHS evals  | Wall Time |  Calc    Inv   Comm    I/O   SOLVER

0.000e+00          2       1.61e-02   183.4  317.1    7.7    0.0  -408.2
|  Step 0 of 15. Elapsed 0:00:00.0 ETA 0:00:00.22.000e+01         51       1.27e+00    41.9   36.9    0.4    0.0   20.8
/  Step 1 of 15. Elapsed 0:00:01.3 ETA 0:00:17.84.000e+01         22       4.95e-01    45.6   31.6    0.4    0.0   22.4
-  Step 2 of 15. Elapsed 0:00:01.8 ETA 0:00:06.46.000e+01         31       7.30e-01    43.4   34.9    0.4    0.0   21.3
\  Step 3 of 15. Elapsed 0:00:02.5 ETA 0:00:08.88.000e+01        107       2.23e+00    49.3   26.5    0.4    0.0   23.8
|  Step 4 of 15. Elapsed 0:00:04.7 ETA 0:00:24.51.000e+02        115       2.31e+00    50.9   24.5    0.4    0.0   24.2
/  Step 5 of 15. Elapsed 0:00:07.1 ETA 0:00:23.11.200e+02        166       4.44e+00    38.4   22.9    0.3    0.0   38.3
-  Step 6 of 15. Elapsed 0:00:11.5 ETA 0:00:40.01.400e+02        134       2.92e+00    47.4   30.7    0.4    0.0   21.5
\  Step 7 of 15. Elapsed 0:00:14.4 ETA 0:00:23.31.600e+02        134       2.85e+00    48.2   29.6    0.4    0.0   21.7
|  Step 8 of 15. Elapsed 0:00:17.3 ETA 0:00:20.01.800e+02        151       3.22e+00    48.3   29.7    0.4    0.0   21.7
/  Step 9 of 15. Elapsed 0:00:20.5 ETA 0:00:19.32.000e+02        195       4.22e+00    47.7   30.1    0.4    0.0   21.7
-  Step 10 of 15. Elapsed 0:00:24.7 ETA 0:00:21.12.200e+02        183       3.90e+00    48.5   29.4    0.4    0.0   21.8
\  Step 11 of 15. Elapsed 0:00:28.6 ETA 0:00:15.62.400e+02        205       4.31e+00    49.1   28.6    0.4    0.0   21.9
|  Step 12 of 15. Elapsed 0:00:32.9 ETA 0:00:12.92.600e+02        223       4.87e+00    47.3   29.6    0.4    0.0   22.7
/  Step 13 of 15. Elapsed 0:00:37.8 ETA 0:00:09.72.800e+02        178       4.25e+00    43.2   33.1    0.4    0.0   23.3
-  Step 14 of 15. Elapsed 0:00:42.0 ETA 0:00:04.33.000e+02        208       5.02e+00    42.7   26.7    0.4    0.0   30.3
\  Step 15 of 15. Elapsed 0:00:47.1 ETA 0:00:00.0
Run finished at  : Fri Sep 11 15:06:32 2020
Run time : 48 s
	Option datadir = delta_0.25 ()
	Option settingsfile = BOUT.settings ()
Writing options to file delta_0.25/BOUT.settings
	Option time_report:show = true (delta_0.25/BOUT.inp)

Timer report 

Timer name | Total time (s) | % of top | Hits  | Mean time/hit (s)
-----------|----------------|----------|-------|------------------
run        | 47.7970787     | 100.00%  | 1     | 47.7970787       
rhs        | 35.5282911     | 74.33%   | 2105  | 0.016878048      
invert     | 13.6430216     | 28.54%   | 2105  | 0.00648124542    
comms      | 0.186249453    | 0.39%    | 17016 | 1.09455485e-05   
io         | 0              | 0.00%    | 0     | -nan             

Application 41970147 resources: utime ~12420s, stime ~61s, Rss ~47092, inblocks ~1024366, outblocks ~3159367
BOUT++ version 5.0.0-alpha
Revision: BOUT_REVISION
MD5 checksum: e83d7fb8cb8c2a605f03f73f101cf268
Code compiled on Sep 10 2020 at 11:35:25

B.Dudson (University of York), M.Umansky (LLNL) 2007
Based on BOUT by Xueqiao Xu, 1999

Processor number: 0 of 256

pid: 14740

Compile-time options:
	Checking disabled
	Signal handling enabled
	netCDF4 support enabled
	Parallel NetCDF support disabled
	OpenMP parallelisation disabled
	Compiled with flags : "-DMD5SUM=e83d7fb8cb8c2a605f03f73f101cf268 -DBOUT_REVISION=276f77758e18c24bfcbf3e9b6e356930437df6f8 -g -DHAS_PRETTY_FUNCTION -Wall -Wextra -Wnull-dereference -O3 -march=native -funroll-loops -DSIGHANDLE -DLOGCOLOR -DBACKTRACE -DBOUT_HAS_FFTW -DNCDF4 -DHDF5 -DLAPACK -DBOUT_HAS_PVODE -DBOUT_HAS_GETTEXT -DBOUT_LOCALE_PATH=/usr/local/share/locale"
	Command line options for this run : ../../../blob2d_276f777 -d delta_0.25 NXPE=256 phiboussinesq:atol=1e-7 phiboussinesq:rtol=1e-6 phiboussinesq:type=ipt phiboussinesq:max_level=5 
Reading options file delta_0.25/BOUT.inp
	Option phiboussinesq:atol = 1e-10 (delta_0.25/BOUT.inp) overwritten with:
		phiboussinesq:atol = 1e-7 (Command line)
	Option phiboussinesq:rtol = 1e-5 (delta_0.25/BOUT.inp) overwritten with:
		phiboussinesq:rtol = 1e-6 (Command line)
	Option phiboussinesq:type = cyclic (delta_0.25/BOUT.inp) overwritten with:
		phiboussinesq:type = ipt (Command line)
	Option phiboussinesq:max_level = 8 (delta_0.25/BOUT.inp) overwritten with:
		phiboussinesq:max_level = 5 (Command line)
Writing options to file delta_0.25/BOUT.settings

Getting grid data from options
	Option mesh:type = bout (default)
	Option mesh:include_corner_cells = 1 (default)
	Option mesh:StaggerGrids = 0 (default)
	Option mesh:maxregionblocksize = 64 (default)
	Option mesh:calcParallelSlices_on_communicate = 1 (default)
	Option mesh:ddx:first = c2 (delta_0.25/BOUT.inp)
	Option mesh:ddx:second = c2 (delta_0.25/BOUT.inp)
	Option mesh:ddx:upwind = w3 (delta_0.25/BOUT.inp)
	Option mesh:ddy:first = c2 (delta_0.25/BOUT.inp)
	Option mesh:ddy:second = c2 (delta_0.25/BOUT.inp)
	Option mesh:ddy:upwind = w3 (delta_0.25/BOUT.inp)
	Option mesh:ddz:first = fft (delta_0.25/BOUT.inp)
	Option mesh:ddz:second = fft (delta_0.25/BOUT.inp)
	Option mesh:ddz:upwind = w3 (delta_0.25/BOUT.inp)
	Option mesh:ddy:first = c2 (delta_0.25/BOUT.inp)
	Option mesh:ddy:second = c2 (delta_0.25/BOUT.inp)
	Option mesh:ddy:upwind = w3 (delta_0.25/BOUT.inp)
	Option mesh:ddx:first = c2 (delta_0.25/BOUT.inp)
	Option mesh:ddx:second = c2 (delta_0.25/BOUT.inp)
	Option mesh:ddx:upwind = w3 (delta_0.25/BOUT.inp)
	Option mesh:ddy:first = c2 (delta_0.25/BOUT.inp)
	Option mesh:ddy:second = c2 (delta_0.25/BOUT.inp)
	Option mesh:ddy:upwind = w3 (delta_0.25/BOUT.inp)
	Option mesh:ddz:first = fft (delta_0.25/BOUT.inp)
	Option mesh:ddz:second = fft (delta_0.25/BOUT.inp)
	Option mesh:ddz:upwind = w3 (delta_0.25/BOUT.inp)
	Option mesh:ddy:first = c2 (delta_0.25/BOUT.inp)
	Option mesh:ddy:second = c2 (delta_0.25/BOUT.inp)
	Option mesh:ddy:upwind = w3 (delta_0.25/BOUT.inp)
	Option mesh:ddz:fft_filter = 0 (default)
	Option mesh:symmetricGlobalX = 1 (default)
	Option optionfile = BOUT.inp ()
WARNING: The default of this option has changed in release 4.1.
If you want the old setting, you have to specify mesh:symmetricGlobalY=false in BOUT.inp
	Option mesh:symmetricGlobalY = 1 (default)
Loading mesh
	Option input:transform_from_field_aligned = 1 (default)
	Option input:max_recursion_depth = 0 (default)
	Option mesh:nx = 8196 (delta_0.25/BOUT.inp)
	Option mesh:ny = 1 (delta_0.25/BOUT.inp)
	Option mesh:nz = 1024 (delta_0.25/BOUT.inp)
	Read nz from input grid file
	Grid size: 8196 x 1 x 1024
Variable 'MXG' not in mesh options. Setting to 0
	Option mxg = 2 (delta_0.25/BOUT.inp)
Variable 'MYG' not in mesh options. Setting to 0
	Option myg = 0 (delta_0.25/BOUT.inp)
	Guard cells (x,y,z): 2, 0, 0
Variable 'ixseps1' not in mesh options. Setting to 8196
Variable 'ixseps2' not in mesh options. Setting to 8196
Variable 'jyseps1_1' not in mesh options. Setting to -1
Variable 'jyseps1_2' not in mesh options. Setting to 0
Variable 'jyseps2_1' not in mesh options. Setting to 0
Variable 'jyseps2_2' not in mesh options. Setting to 0
Variable 'ny_inner' not in mesh options. Setting to 0
	Option NXPE = 256 (Command line)
	Option IncIntShear = 0 (default)
	Option periodicX = 0 (default)
	Option async_send = 0 (default)
	Option ZMIN = 0 (default)
	Option ZMAX = 1 (default)
	EQUILIBRIUM IS SINGLE NULL (SND) 
Connection between top of Y processor 0 and bottom of 0 in range 0 <= x < 8196
=> This processor sending in up
=> This processor sending in down
WARNING adding connection: poloidal index -1 out of range
	MYPE_IN_CORE = 1
	DXS = 36, DIN = 0. DOUT = -1
	UXS = 36, UIN = 0. UOUT = -1
	XIN = -1, XOUT = 1
	Twist-shift: DI UI 
	Option TwistShift = 0 (default)
Variable 'ShiftAngle' not in mesh options. Setting to empty vector
Boundary regions in this processor: core, 
Constructing default regions
	Boundary region inner X
	Option mesh:extrapolate_x = 0 (default)
	Option mesh:extrapolate_y = 0 (default)
	Option mesh:dx = 3.75e-2 (delta_0.25/BOUT.inp)
Variable 'dy' not in mesh options. Setting to 1.000000e+00
	Option ZMIN = 0 (default)
	Option ZMAX = 1 (default)
	Option mesh:dz = 0.0375 (delta_0.25/BOUT.inp)
Variable 'g11' not in mesh options. Setting to 1.000000e+00
Variable 'g22' not in mesh options. Setting to 1.000000e+00
Variable 'g33' not in mesh options. Setting to 1.000000e+00
Variable 'g12' not in mesh options. Setting to 0.000000e+00
Variable 'g13' not in mesh options. Setting to 0.000000e+00
Variable 'g23' not in mesh options. Setting to 0.000000e+00
	Local maximum error in diagonal inversion is 0.000000e+00
	Local maximum error in off-diagonal inversion is 0.000000e+00
Variable 'J' not in mesh options. Setting to 0.000000e+00
	WARNING: Jacobian 'J' not found. Calculating from metric tensor
Variable 'Bxy' not in mesh options. Setting to 0.000000e+00
	WARNING: Magnitude of B field 'Bxy' not found. Calculating from metric tensor
Calculating differential geometry terms
	Communicating connection terms
	Option non_uniform = 1 (default)
Variable 'd2x' not in mesh options. Setting to 0.000000e+00
	WARNING: differencing quantity 'd2x' not found. Calculating from dx
Variable 'd2y' not in mesh options. Setting to 0.000000e+00
	WARNING: differencing quantity 'd2y' not found. Calculating from dy
Variable 'ShiftTorsion' not in mesh options. Setting to 0.000000e+00
	WARNING: No Torsion specified for zShift. Derivatives may not be correct
	Option mesh:paralleltransform:type = identity (default)
	done
	Option append = 0 (default)
	Option dump_format = nc (default)
Setting up output (dump) file
	Option output:parallel = 0 (default)
	Option output:flush = 1 (default)
	Option output:guards = 1 (default)
	Option output:floats = 0 (default)
	Option output:openclose = 1 (default)
	Option output:enabled = false (delta_0.25/BOUT.inp)
	Option output:init_missing = 0 (default)
	Option output:shiftOutput = 0 (default)
	Option output:shiftInput = 0 (default)
	Option output:flushFrequency = 1 (default)
	Option restart:parallel = 0 (default)
	Option restart:flush = 1 (default)
	Option restart:guards = 1 (default)
	Option restart:floats = 0 (default)
	Option restart:openclose = 1 (default)
	Option restart:enabled = false (delta_0.25/BOUT.inp)
	Option restart:init_missing = 0 (default)
	Option restart:shiftOutput = 0 (default)
	Option restart:shiftInput = 0 (default)
	Option restart:flushFrequency = 1 (default)
	Option solver:type = pvode (default)
	Option solver:monitor_timestep = 0 (default)
	Option solver:is_nonsplit_model_diffusive = 1 (default)
	Option solver:mms = 0 (default)
	Option solver:mms_initialise = 0 (default)
	Option restart = 0 (default)
	Option model:te0 = 5 (delta_0.25/BOUT.inp)
	Option model:e = 1.602e-19 (default)
	Option model:m_i = 3.334e-27 (default)
	Option model:m_e = 9.11e-31 (default)
	Option model:n0 = 2e+18 (delta_0.25/BOUT.inp)
	Option model:d_vort = 1e-06 (delta_0.25/BOUT.inp)
	Option model:d_n = 1e-06 (delta_0.25/BOUT.inp)
	Option model:r_c = 1.5 (delta_0.25/BOUT.inp)
	Option model:L_par = 10 (default)
	Option model:B0 = 0.35 (default)
	Option model:compressible = false (delta_0.25/BOUT.inp)
	Option model:boussinesq = true (delta_0.25/BOUT.inp)
	Option model:sheath = 1 (default)


	----------Parameters: ------------ 
	Omega_i = 1.681764e+07 /s,
	c_s = 1.550006e+04 m/s,
	rho_s = 9.216552e-04 m
	delta_* = rho_s * (dn/n) * 9.372772e+00 	Option phiboussinesq:type = ipt (Command line)
Initialising Laplacian inversion routines
	Option phiboussinesq:async = 1 (default)
	Option phiboussinesq:filter = 0 (default)
	Option phiboussinesq:maxmode = 512 (default)
	Option phiboussinesq:low_mem = 0 (default)
	Option phiboussinesq:nonuniform = 1 (default)
	Option phiboussinesq:all_terms = 1 (default)
	Option phiboussinesq:global_flags = 0 (default)
	Option phiboussinesq:inner_boundary_flags = 0 (default)
	Option phiboussinesq:outer_boundary_flags = 0 (default)
	Option phiboussinesq:include_yguards = 0 (default)
	Option phiboussinesq:extra_yguards_lower = 0 (default)
	Option phiboussinesq:extra_yguards_upper = 0 (default)
	Option phiboussinesq:rtol = 1e-06 (Command line)
	Option phiboussinesq:atol = 1e-07 (Command line)
	Option phiboussinesq:maxits = 10000 (delta_0.25/BOUT.inp)
	Option phiboussinesq:max_level = 5 (Command line)
	Option phiboussinesq:max_cycle = 1 (delta_0.25/BOUT.inp)
	Option phiboussinesq:predict_exit = 0 (default)
Setting boundary for variable n
	core region: 	Option all:bndry_all = neumann (delta_0.25/BOUT.inp)

	Option input:transform_from_field_aligned = true (default)
	Option input:max_recursion_depth = 0 (default)
	Option n:function = 1 + height * exp(-((x-0.25)/width)^2 - ((z/(2*pi) - 0.5)/width)^2) (delta_0.25/BOUT.inp)
	Option n:height = 0.5 (delta_0.25/BOUT.inp)
	Option n:width = 0.1 (delta_0.25/BOUT.inp)
	Option n:scale = 1 (delta_0.25/BOUT.inp)
	Option all:evolve_bndry = 0 (default)
	Option n:evolve_bndry = 0 (default)
Setting boundary for variable omega
	core region: 	Option all:bndry_all = neumann (delta_0.25/BOUT.inp)

	Option input:transform_from_field_aligned = true (default)
	Option input:max_recursion_depth = 0 (default)
	Option all:function = 0.0 (default)
	Option all:scale = 0 (delta_0.25/BOUT.inp)
	Option all:evolve_bndry = false (default)
	Option omega:evolve_bndry = 0 (default)
	Option datadir = delta_0.25 ()
	Option dump_format = nc (default)
	Option restart_format = nc (default)
	Option nout = 15 (delta_0.25/BOUT.inp)
	Option timestep = 20 (delta_0.25/BOUT.inp)
	Option solver:NOUT = 15 (default)
	Option solver:output_step = 20 (default)
Solver running for 15 outputs with output timestep of 2.000000e+01
Initialising solver
Initialising PVODE solver
	3d fields = 2, 2d fields = 0 neq=16777216, local_N=65536
	Option solver:mudq = 68 (default)
	Option solver:mldq = 68 (default)
	Option solver:mukeep = 0 (default)
	Option solver:mlkeep = 0 (default)
	Option solver:atol = 1e-10 (delta_0.25/BOUT.inp)
	Option solver:rtol = 1e-05 (delta_0.25/BOUT.inp)
	Option solver:use_precon = 0 (default)
	Option solver:precon_dimens = 50 (default)
	Option solver:precon_tol = 0.0001 (default)
	Option solver:mxstep = 10000 (delta_0.25/BOUT.inp)
	Option fft:fft_measure = 0 (default)
	Option laplace:type = cyclic (default)
Initialising Laplacian inversion routines
	Option laplace:async = 1 (default)
	Option laplace:filter = 0 (default)
	Option laplace:maxmode = 512 (default)
	Option laplace:low_mem = 0 (default)
	Option laplace:nonuniform = 1 (default)
	Option laplace:all_terms = 1 (default)
	Option laplace:global_flags = 0 (default)
	Option laplace:inner_boundary_flags = 0 (default)
	Option laplace:outer_boundary_flags = 0 (default)
	Option laplace:include_yguards = 0 (default)
	Option laplace:extra_yguards_lower = 0 (default)
	Option laplace:extra_yguards_upper = 0 (default)
	Option laplace:dst = 0 (default)
Running simulation


Run started at  : Fri Sep 11 15:06:42 2020
	Option restart = false (default)
	Option append = false (default)
	Option dump_on_restart = 1 (default)
	Option wall_limit = -1 (default)
	Option stopCheck = 0 (default)
Sim Time  |  RHS evals  | Wall Time |  Calc    Inv   Comm    I/O   SOLVER

0.000e+00          2       1.63e-02   182.3  397.8    7.7    0.0  -487.8
|  Step 0 of 15. Elapsed 0:00:00.0 ETA 0:00:00.22.000e+01         51       1.17e+00    45.2   32.5    0.4    0.0   21.8
/  Step 1 of 15. Elapsed 0:00:01.2 ETA 0:00:16.44.000e+01         22       5.18e-01    43.5   35.6    0.4    0.0   20.5
-  Step 2 of 15. Elapsed 0:00:01.7 ETA 0:00:06.76.000e+01         31       7.04e-01    45.3   33.9    0.4    0.0   20.5
\  Step 3 of 15. Elapsed 0:00:02.4 ETA 0:00:08.48.000e+01        107       2.17e+00    50.6   25.3    0.4    0.0   23.6
|  Step 4 of 15. Elapsed 0:00:04.6 ETA 0:00:23.91.000e+02        123       2.42e+00    52.1   23.6    0.4    0.0   23.9
/  Step 5 of 15. Elapsed 0:00:07.0 ETA 0:00:24.21.200e+02        163       3.41e+00    49.1   27.0    0.4    0.0   23.4
-  Step 6 of 15. Elapsed 0:00:10.4 ETA 0:00:30.61.400e+02        127       2.75e+00    47.2   31.1    0.4    0.0   21.3
\  Step 7 of 15. Elapsed 0:00:13.2 ETA 0:00:22.01.600e+02        138       2.91e+00    48.7   29.3    0.4    0.0   21.5
|  Step 8 of 15. Elapsed 0:00:16.1 ETA 0:00:20.41.800e+02        157       3.22e+00    50.1   27.3    0.4    0.0   22.1
/  Step 9 of 15. Elapsed 0:00:19.3 ETA 0:00:19.32.000e+02        172       3.56e+00    49.7   27.2    0.4    0.0   22.7
-  Step 10 of 15. Elapsed 0:00:22.8 ETA 0:00:17.82.200e+02        158       3.39e+00    47.9   29.1    0.4    0.0   22.6
\  Step 11 of 15. Elapsed 0:00:26.2 ETA 0:00:13.62.400e+02        199       4.12e+00    49.7   27.6    0.4    0.0   22.3
|  Step 12 of 15. Elapsed 0:00:30.4 ETA 0:00:12.32.600e+02        232       4.72e+00    50.5   26.9    0.4    0.0   22.2
/  Step 13 of 15. Elapsed 0:00:35.1 ETA 0:00:09.42.800e+02        241       4.92e+00    50.3   26.9    0.4    0.0   22.3
-  Step 14 of 15. Elapsed 0:00:40.0 ETA 0:00:04.93.000e+02        324       6.61e+00    50.4   26.2    0.4    0.0   23.0
\  Step 15 of 15. Elapsed 0:00:46.6 ETA 0:00:00.0
Run finished at  : Fri Sep 11 15:07:28 2020
Run time : 46 s
	Option datadir = delta_0.25 ()
	Option settingsfile = BOUT.settings ()
Writing options to file delta_0.25/BOUT.settings
	Option time_report:show = true (delta_0.25/BOUT.inp)

Timer report 

Timer name | Total time (s) | % of top | Hits  | Mean time/hit (s)
-----------|----------------|----------|-------|------------------
run        | 46.6073854     | 100.00%  | 1     | 46.6073854       
rhs        | 36.2105789     | 77.69%   | 2247  | 0.0161150774     
invert     | 12.9131249     | 27.71%   | 2247  | 0.00574682904    
comms      | 0.201522314    | 0.43%    | 18152 | 1.11019344e-05   
io         | 0              | 0.00%    | 0     | -nan             

Application 41970157 resources: utime ~12155s, stime ~59s, Rss ~46912, inblocks ~1024252, outblocks ~3159361
BOUT++ version 5.0.0-alpha
Revision: BOUT_REVISION
MD5 checksum: e83d7fb8cb8c2a605f03f73f101cf268
Code compiled on Sep 10 2020 at 11:35:25

B.Dudson (University of York), M.Umansky (LLNL) 2007
Based on BOUT by Xueqiao Xu, 1999

Processor number: 0 of 256

pid: 14880

Compile-time options:
	Checking disabled
	Signal handling enabled
	netCDF4 support enabled
	Parallel NetCDF support disabled
	OpenMP parallelisation disabled
	Compiled with flags : "-DMD5SUM=e83d7fb8cb8c2a605f03f73f101cf268 -DBOUT_REVISION=276f77758e18c24bfcbf3e9b6e356930437df6f8 -g -DHAS_PRETTY_FUNCTION -Wall -Wextra -Wnull-dereference -O3 -march=native -funroll-loops -DSIGHANDLE -DLOGCOLOR -DBACKTRACE -DBOUT_HAS_FFTW -DNCDF4 -DHDF5 -DLAPACK -DBOUT_HAS_PVODE -DBOUT_HAS_GETTEXT -DBOUT_LOCALE_PATH=/usr/local/share/locale"
	Command line options for this run : ../../../blob2d_276f777 -d delta_0.25 NXPE=256 phiboussinesq:atol=1e-7 phiboussinesq:rtol=1e-6 phiboussinesq:type=ipt phiboussinesq:max_level=4 
Reading options file delta_0.25/BOUT.inp
	Option phiboussinesq:atol = 1e-10 (delta_0.25/BOUT.inp) overwritten with:
		phiboussinesq:atol = 1e-7 (Command line)
	Option phiboussinesq:rtol = 1e-5 (delta_0.25/BOUT.inp) overwritten with:
		phiboussinesq:rtol = 1e-6 (Command line)
	Option phiboussinesq:type = cyclic (delta_0.25/BOUT.inp) overwritten with:
		phiboussinesq:type = ipt (Command line)
	Option phiboussinesq:max_level = 8 (delta_0.25/BOUT.inp) overwritten with:
		phiboussinesq:max_level = 4 (Command line)
Writing options to file delta_0.25/BOUT.settings

Getting grid data from options
	Option mesh:type = bout (default)
	Option mesh:include_corner_cells = 1 (default)
	Option mesh:StaggerGrids = 0 (default)
	Option mesh:maxregionblocksize = 64 (default)
	Option mesh:calcParallelSlices_on_communicate = 1 (default)
	Option mesh:ddx:first = c2 (delta_0.25/BOUT.inp)
	Option mesh:ddx:second = c2 (delta_0.25/BOUT.inp)
	Option mesh:ddx:upwind = w3 (delta_0.25/BOUT.inp)
	Option mesh:ddy:first = c2 (delta_0.25/BOUT.inp)
	Option mesh:ddy:second = c2 (delta_0.25/BOUT.inp)
	Option mesh:ddy:upwind = w3 (delta_0.25/BOUT.inp)
	Option mesh:ddz:first = fft (delta_0.25/BOUT.inp)
	Option mesh:ddz:second = fft (delta_0.25/BOUT.inp)
	Option mesh:ddz:upwind = w3 (delta_0.25/BOUT.inp)
	Option mesh:ddy:first = c2 (delta_0.25/BOUT.inp)
	Option mesh:ddy:second = c2 (delta_0.25/BOUT.inp)
	Option mesh:ddy:upwind = w3 (delta_0.25/BOUT.inp)
	Option mesh:ddx:first = c2 (delta_0.25/BOUT.inp)
	Option mesh:ddx:second = c2 (delta_0.25/BOUT.inp)
	Option mesh:ddx:upwind = w3 (delta_0.25/BOUT.inp)
	Option mesh:ddy:first = c2 (delta_0.25/BOUT.inp)
	Option mesh:ddy:second = c2 (delta_0.25/BOUT.inp)
	Option mesh:ddy:upwind = w3 (delta_0.25/BOUT.inp)
	Option mesh:ddz:first = fft (delta_0.25/BOUT.inp)
	Option mesh:ddz:second = fft (delta_0.25/BOUT.inp)
	Option mesh:ddz:upwind = w3 (delta_0.25/BOUT.inp)
	Option mesh:ddy:first = c2 (delta_0.25/BOUT.inp)
	Option mesh:ddy:second = c2 (delta_0.25/BOUT.inp)
	Option mesh:ddy:upwind = w3 (delta_0.25/BOUT.inp)
	Option mesh:ddz:fft_filter = 0 (default)
	Option mesh:symmetricGlobalX = 1 (default)
	Option optionfile = BOUT.inp ()
WARNING: The default of this option has changed in release 4.1.
If you want the old setting, you have to specify mesh:symmetricGlobalY=false in BOUT.inp
	Option mesh:symmetricGlobalY = 1 (default)
Loading mesh
	Option input:transform_from_field_aligned = 1 (default)
	Option input:max_recursion_depth = 0 (default)
	Option mesh:nx = 8196 (delta_0.25/BOUT.inp)
	Option mesh:ny = 1 (delta_0.25/BOUT.inp)
	Option mesh:nz = 1024 (delta_0.25/BOUT.inp)
	Read nz from input grid file
	Grid size: 8196 x 1 x 1024
Variable 'MXG' not in mesh options. Setting to 0
	Option mxg = 2 (delta_0.25/BOUT.inp)
Variable 'MYG' not in mesh options. Setting to 0
	Option myg = 0 (delta_0.25/BOUT.inp)
	Guard cells (x,y,z): 2, 0, 0
Variable 'ixseps1' not in mesh options. Setting to 8196
Variable 'ixseps2' not in mesh options. Setting to 8196
Variable 'jyseps1_1' not in mesh options. Setting to -1
Variable 'jyseps1_2' not in mesh options. Setting to 0
Variable 'jyseps2_1' not in mesh options. Setting to 0
Variable 'jyseps2_2' not in mesh options. Setting to 0
Variable 'ny_inner' not in mesh options. Setting to 0
	Option NXPE = 256 (Command line)
	Option IncIntShear = 0 (default)
	Option periodicX = 0 (default)
	Option async_send = 0 (default)
	Option ZMIN = 0 (default)
	Option ZMAX = 1 (default)
	EQUILIBRIUM IS SINGLE NULL (SND) 
Connection between top of Y processor 0 and bottom of 0 in range 0 <= x < 8196
=> This processor sending in up
=> This processor sending in down
WARNING adding connection: poloidal index -1 out of range
	MYPE_IN_CORE = 1
	DXS = 36, DIN = 0. DOUT = -1
	UXS = 36, UIN = 0. UOUT = -1
	XIN = -1, XOUT = 1
	Twist-shift: DI UI 
	Option TwistShift = 0 (default)
Variable 'ShiftAngle' not in mesh options. Setting to empty vector
Boundary regions in this processor: core, 
Constructing default regions
	Boundary region inner X
	Option mesh:extrapolate_x = 0 (default)
	Option mesh:extrapolate_y = 0 (default)
	Option mesh:dx = 3.75e-2 (delta_0.25/BOUT.inp)
Variable 'dy' not in mesh options. Setting to 1.000000e+00
	Option ZMIN = 0 (default)
	Option ZMAX = 1 (default)
	Option mesh:dz = 0.0375 (delta_0.25/BOUT.inp)
Variable 'g11' not in mesh options. Setting to 1.000000e+00
Variable 'g22' not in mesh options. Setting to 1.000000e+00
Variable 'g33' not in mesh options. Setting to 1.000000e+00
Variable 'g12' not in mesh options. Setting to 0.000000e+00
Variable 'g13' not in mesh options. Setting to 0.000000e+00
Variable 'g23' not in mesh options. Setting to 0.000000e+00
	Local maximum error in diagonal inversion is 0.000000e+00
	Local maximum error in off-diagonal inversion is 0.000000e+00
Variable 'J' not in mesh options. Setting to 0.000000e+00
	WARNING: Jacobian 'J' not found. Calculating from metric tensor
Variable 'Bxy' not in mesh options. Setting to 0.000000e+00
	WARNING: Magnitude of B field 'Bxy' not found. Calculating from metric tensor
Calculating differential geometry terms
	Communicating connection terms
	Option non_uniform = 1 (default)
Variable 'd2x' not in mesh options. Setting to 0.000000e+00
	WARNING: differencing quantity 'd2x' not found. Calculating from dx
Variable 'd2y' not in mesh options. Setting to 0.000000e+00
	WARNING: differencing quantity 'd2y' not found. Calculating from dy
Variable 'ShiftTorsion' not in mesh options. Setting to 0.000000e+00
	WARNING: No Torsion specified for zShift. Derivatives may not be correct
	Option mesh:paralleltransform:type = identity (default)
	done
	Option append = 0 (default)
	Option dump_format = nc (default)
Setting up output (dump) file
	Option output:parallel = 0 (default)
	Option output:flush = 1 (default)
	Option output:guards = 1 (default)
	Option output:floats = 0 (default)
	Option output:openclose = 1 (default)
	Option output:enabled = false (delta_0.25/BOUT.inp)
	Option output:init_missing = 0 (default)
	Option output:shiftOutput = 0 (default)
	Option output:shiftInput = 0 (default)
	Option output:flushFrequency = 1 (default)
	Option restart:parallel = 0 (default)
	Option restart:flush = 1 (default)
	Option restart:guards = 1 (default)
	Option restart:floats = 0 (default)
	Option restart:openclose = 1 (default)
	Option restart:enabled = false (delta_0.25/BOUT.inp)
	Option restart:init_missing = 0 (default)
	Option restart:shiftOutput = 0 (default)
	Option restart:shiftInput = 0 (default)
	Option restart:flushFrequency = 1 (default)
	Option solver:type = pvode (default)
	Option solver:monitor_timestep = 0 (default)
	Option solver:is_nonsplit_model_diffusive = 1 (default)
	Option solver:mms = 0 (default)
	Option solver:mms_initialise = 0 (default)
	Option restart = 0 (default)
	Option model:te0 = 5 (delta_0.25/BOUT.inp)
	Option model:e = 1.602e-19 (default)
	Option model:m_i = 3.334e-27 (default)
	Option model:m_e = 9.11e-31 (default)
	Option model:n0 = 2e+18 (delta_0.25/BOUT.inp)
	Option model:d_vort = 1e-06 (delta_0.25/BOUT.inp)
	Option model:d_n = 1e-06 (delta_0.25/BOUT.inp)
	Option model:r_c = 1.5 (delta_0.25/BOUT.inp)
	Option model:L_par = 10 (default)
	Option model:B0 = 0.35 (default)
	Option model:compressible = false (delta_0.25/BOUT.inp)
	Option model:boussinesq = true (delta_0.25/BOUT.inp)
	Option model:sheath = 1 (default)


	----------Parameters: ------------ 
	Omega_i = 1.681764e+07 /s,
	c_s = 1.550006e+04 m/s,
	rho_s = 9.216552e-04 m
	delta_* = rho_s * (dn/n) * 9.372772e+00 	Option phiboussinesq:type = ipt (Command line)
Initialising Laplacian inversion routines
	Option phiboussinesq:async = 1 (default)
	Option phiboussinesq:filter = 0 (default)
	Option phiboussinesq:maxmode = 512 (default)
	Option phiboussinesq:low_mem = 0 (default)
	Option phiboussinesq:nonuniform = 1 (default)
	Option phiboussinesq:all_terms = 1 (default)
	Option phiboussinesq:global_flags = 0 (default)
	Option phiboussinesq:inner_boundary_flags = 0 (default)
	Option phiboussinesq:outer_boundary_flags = 0 (default)
	Option phiboussinesq:include_yguards = 0 (default)
	Option phiboussinesq:extra_yguards_lower = 0 (default)
	Option phiboussinesq:extra_yguards_upper = 0 (default)
	Option phiboussinesq:rtol = 1e-06 (Command line)
	Option phiboussinesq:atol = 1e-07 (Command line)
	Option phiboussinesq:maxits = 10000 (delta_0.25/BOUT.inp)
	Option phiboussinesq:max_level = 4 (Command line)
	Option phiboussinesq:max_cycle = 1 (delta_0.25/BOUT.inp)
	Option phiboussinesq:predict_exit = 0 (default)
Setting boundary for variable n
	core region: 	Option all:bndry_all = neumann (delta_0.25/BOUT.inp)

	Option input:transform_from_field_aligned = true (default)
	Option input:max_recursion_depth = 0 (default)
	Option n:function = 1 + height * exp(-((x-0.25)/width)^2 - ((z/(2*pi) - 0.5)/width)^2) (delta_0.25/BOUT.inp)
	Option n:height = 0.5 (delta_0.25/BOUT.inp)
	Option n:width = 0.1 (delta_0.25/BOUT.inp)
	Option n:scale = 1 (delta_0.25/BOUT.inp)
	Option all:evolve_bndry = 0 (default)
	Option n:evolve_bndry = 0 (default)
Setting boundary for variable omega
	core region: 	Option all:bndry_all = neumann (delta_0.25/BOUT.inp)

	Option input:transform_from_field_aligned = true (default)
	Option input:max_recursion_depth = 0 (default)
	Option all:function = 0.0 (default)
	Option all:scale = 0 (delta_0.25/BOUT.inp)
	Option all:evolve_bndry = false (default)
	Option omega:evolve_bndry = 0 (default)
	Option datadir = delta_0.25 ()
	Option dump_format = nc (default)
	Option restart_format = nc (default)
	Option nout = 15 (delta_0.25/BOUT.inp)
	Option timestep = 20 (delta_0.25/BOUT.inp)
	Option solver:NOUT = 15 (default)
	Option solver:output_step = 20 (default)
Solver running for 15 outputs with output timestep of 2.000000e+01
Initialising solver
Initialising PVODE solver
	3d fields = 2, 2d fields = 0 neq=16777216, local_N=65536
	Option solver:mudq = 68 (default)
	Option solver:mldq = 68 (default)
	Option solver:mukeep = 0 (default)
	Option solver:mlkeep = 0 (default)
	Option solver:atol = 1e-10 (delta_0.25/BOUT.inp)
	Option solver:rtol = 1e-05 (delta_0.25/BOUT.inp)
	Option solver:use_precon = 0 (default)
	Option solver:precon_dimens = 50 (default)
	Option solver:precon_tol = 0.0001 (default)
	Option solver:mxstep = 10000 (delta_0.25/BOUT.inp)
	Option fft:fft_measure = 0 (default)
	Option laplace:type = cyclic (default)
Initialising Laplacian inversion routines
	Option laplace:async = 1 (default)
	Option laplace:filter = 0 (default)
	Option laplace:maxmode = 512 (default)
	Option laplace:low_mem = 0 (default)
	Option laplace:nonuniform = 1 (default)
	Option laplace:all_terms = 1 (default)
	Option laplace:global_flags = 0 (default)
	Option laplace:inner_boundary_flags = 0 (default)
	Option laplace:outer_boundary_flags = 0 (default)
	Option laplace:include_yguards = 0 (default)
	Option laplace:extra_yguards_lower = 0 (default)
	Option laplace:extra_yguards_upper = 0 (default)
	Option laplace:dst = 0 (default)
Running simulation


Run started at  : Fri Sep 11 15:07:38 2020
	Option restart = false (default)
	Option append = false (default)
	Option dump_on_restart = 1 (default)
	Option wall_limit = -1 (default)
	Option stopCheck = 0 (default)
Sim Time  |  RHS evals  | Wall Time |  Calc    Inv   Comm    I/O   SOLVER

0.000e+00          2       1.63e-02   179.9  296.0   10.0    0.0  -385.9
|  Step 0 of 15. Elapsed 0:00:00.0 ETA 0:00:00.22.000e+01         53       1.19e+00    46.2   30.9    0.4    0.0   22.4
/  Step 1 of 15. Elapsed 0:00:01.2 ETA 0:00:16.64.000e+01         20       4.56e-01    45.5   32.6    0.4    0.0   21.5
-  Step 2 of 15. Elapsed 0:00:01.7 ETA 0:00:05.96.000e+01         27       5.42e-01    51.7   25.2    0.4    0.0   22.6
\  Step 3 of 15. Elapsed 0:00:02.2 ETA 0:00:06.58.000e+01         71       1.42e+00    51.4   24.0    0.4    0.0   24.2
|  Step 4 of 15. Elapsed 0:00:03.6 ETA 0:00:15.61.000e+02         86       1.87e+00    47.6   29.5    0.4    0.0   22.5
/  Step 5 of 15. Elapsed 0:00:05.5 ETA 0:00:18.71.200e+02        105       2.15e+00    50.5   26.8    0.4    0.0   22.3
-  Step 6 of 15. Elapsed 0:00:07.6 ETA 0:00:19.31.400e+02        124       2.51e+00    50.9   26.7    0.4    0.0   21.9
\  Step 7 of 15. Elapsed 0:00:10.2 ETA 0:00:20.11.600e+02        139       2.80e+00    51.3   25.8    0.4    0.0   22.6
|  Step 8 of 15. Elapsed 0:00:12.9 ETA 0:00:19.61.800e+02        176       3.58e+00    50.6   26.2    0.4    0.0   22.8
/  Step 9 of 15. Elapsed 0:00:16.5 ETA 0:00:21.52.000e+02        185       3.80e+00    50.0   27.3    0.4    0.0   22.3
-  Step 10 of 15. Elapsed 0:00:20.3 ETA 0:00:19.02.200e+02        241       4.84e+00    51.2   25.3    0.4    0.0   23.1
\  Step 11 of 15. Elapsed 0:00:25.2 ETA 0:00:19.42.400e+02        257       5.20e+00    50.9   26.4    0.4    0.0   22.2
|  Step 12 of 15. Elapsed 0:00:30.4 ETA 0:00:15.62.600e+02        259       5.45e+00    49.0   27.8    0.4    0.0   22.8
/  Step 13 of 15. Elapsed 0:00:35.8 ETA 0:00:10.92.800e+02        199       4.52e+00    45.6   30.0    0.4    0.0   24.0
-  Step 14 of 15. Elapsed 0:00:40.3 ETA 0:00:04.53.000e+02        196       4.41e+00    45.9   29.4    0.4    0.0   24.2
\  Step 15 of 15. Elapsed 0:00:44.7 ETA 0:00:00.0
Run finished at  : Fri Sep 11 15:08:22 2020
Run time : 44 s
	Option datadir = delta_0.25 ()
	Option settingsfile = BOUT.settings ()
Writing options to file delta_0.25/BOUT.settings
	Option time_report:show = true (delta_0.25/BOUT.inp)

Timer report 

Timer name | Total time (s) | % of top | Hits  | Mean time/hit (s)
-----------|----------------|----------|-------|------------------
run        | 44.7514005     | 100.00%  | 1     | 44.7514005       
rhs        | 34.5733634     | 77.26%   | 2140  | 0.0161557773     
invert     | 12.3035208     | 27.49%   | 2140  | 0.00574930877    
comms      | 0.187203803    | 0.42%    | 17296 | 1.08235316e-05   
io         | 0              | 0.00%    | 0     | -nan             

Application 41970162 resources: utime ~11702s, stime ~62s, Rss ~46760, inblocks ~1024229, outblocks ~3159353
BOUT++ version 5.0.0-alpha
Revision: BOUT_REVISION
MD5 checksum: e83d7fb8cb8c2a605f03f73f101cf268
Code compiled on Sep 10 2020 at 11:35:25

B.Dudson (University of York), M.Umansky (LLNL) 2007
Based on BOUT by Xueqiao Xu, 1999

Processor number: 0 of 256

pid: 15024

Compile-time options:
	Checking disabled
	Signal handling enabled
	netCDF4 support enabled
	Parallel NetCDF support disabled
	OpenMP parallelisation disabled
	Compiled with flags : "-DMD5SUM=e83d7fb8cb8c2a605f03f73f101cf268 -DBOUT_REVISION=276f77758e18c24bfcbf3e9b6e356930437df6f8 -g -DHAS_PRETTY_FUNCTION -Wall -Wextra -Wnull-dereference -O3 -march=native -funroll-loops -DSIGHANDLE -DLOGCOLOR -DBACKTRACE -DBOUT_HAS_FFTW -DNCDF4 -DHDF5 -DLAPACK -DBOUT_HAS_PVODE -DBOUT_HAS_GETTEXT -DBOUT_LOCALE_PATH=/usr/local/share/locale"
	Command line options for this run : ../../../blob2d_276f777 -d delta_0.25 NXPE=256 phiboussinesq:atol=1e-7 phiboussinesq:rtol=1e-6 phiboussinesq:type=ipt phiboussinesq:max_level=3 
Reading options file delta_0.25/BOUT.inp
	Option phiboussinesq:atol = 1e-10 (delta_0.25/BOUT.inp) overwritten with:
		phiboussinesq:atol = 1e-7 (Command line)
	Option phiboussinesq:rtol = 1e-5 (delta_0.25/BOUT.inp) overwritten with:
		phiboussinesq:rtol = 1e-6 (Command line)
	Option phiboussinesq:type = cyclic (delta_0.25/BOUT.inp) overwritten with:
		phiboussinesq:type = ipt (Command line)
	Option phiboussinesq:max_level = 8 (delta_0.25/BOUT.inp) overwritten with:
		phiboussinesq:max_level = 3 (Command line)
Writing options to file delta_0.25/BOUT.settings

Getting grid data from options
	Option mesh:type = bout (default)
	Option mesh:include_corner_cells = 1 (default)
	Option mesh:StaggerGrids = 0 (default)
	Option mesh:maxregionblocksize = 64 (default)
	Option mesh:calcParallelSlices_on_communicate = 1 (default)
	Option mesh:ddx:first = c2 (delta_0.25/BOUT.inp)
	Option mesh:ddx:second = c2 (delta_0.25/BOUT.inp)
	Option mesh:ddx:upwind = w3 (delta_0.25/BOUT.inp)
	Option mesh:ddy:first = c2 (delta_0.25/BOUT.inp)
	Option mesh:ddy:second = c2 (delta_0.25/BOUT.inp)
	Option mesh:ddy:upwind = w3 (delta_0.25/BOUT.inp)
	Option mesh:ddz:first = fft (delta_0.25/BOUT.inp)
	Option mesh:ddz:second = fft (delta_0.25/BOUT.inp)
	Option mesh:ddz:upwind = w3 (delta_0.25/BOUT.inp)
	Option mesh:ddy:first = c2 (delta_0.25/BOUT.inp)
	Option mesh:ddy:second = c2 (delta_0.25/BOUT.inp)
	Option mesh:ddy:upwind = w3 (delta_0.25/BOUT.inp)
	Option mesh:ddx:first = c2 (delta_0.25/BOUT.inp)
	Option mesh:ddx:second = c2 (delta_0.25/BOUT.inp)
	Option mesh:ddx:upwind = w3 (delta_0.25/BOUT.inp)
	Option mesh:ddy:first = c2 (delta_0.25/BOUT.inp)
	Option mesh:ddy:second = c2 (delta_0.25/BOUT.inp)
	Option mesh:ddy:upwind = w3 (delta_0.25/BOUT.inp)
	Option mesh:ddz:first = fft (delta_0.25/BOUT.inp)
	Option mesh:ddz:second = fft (delta_0.25/BOUT.inp)
	Option mesh:ddz:upwind = w3 (delta_0.25/BOUT.inp)
	Option mesh:ddy:first = c2 (delta_0.25/BOUT.inp)
	Option mesh:ddy:second = c2 (delta_0.25/BOUT.inp)
	Option mesh:ddy:upwind = w3 (delta_0.25/BOUT.inp)
	Option mesh:ddz:fft_filter = 0 (default)
	Option mesh:symmetricGlobalX = 1 (default)
	Option optionfile = BOUT.inp ()
WARNING: The default of this option has changed in release 4.1.
If you want the old setting, you have to specify mesh:symmetricGlobalY=false in BOUT.inp
	Option mesh:symmetricGlobalY = 1 (default)
Loading mesh
	Option input:transform_from_field_aligned = 1 (default)
	Option input:max_recursion_depth = 0 (default)
	Option mesh:nx = 8196 (delta_0.25/BOUT.inp)
	Option mesh:ny = 1 (delta_0.25/BOUT.inp)
	Option mesh:nz = 1024 (delta_0.25/BOUT.inp)
	Read nz from input grid file
	Grid size: 8196 x 1 x 1024
Variable 'MXG' not in mesh options. Setting to 0
	Option mxg = 2 (delta_0.25/BOUT.inp)
Variable 'MYG' not in mesh options. Setting to 0
	Option myg = 0 (delta_0.25/BOUT.inp)
	Guard cells (x,y,z): 2, 0, 0
Variable 'ixseps1' not in mesh options. Setting to 8196
Variable 'ixseps2' not in mesh options. Setting to 8196
Variable 'jyseps1_1' not in mesh options. Setting to -1
Variable 'jyseps1_2' not in mesh options. Setting to 0
Variable 'jyseps2_1' not in mesh options. Setting to 0
Variable 'jyseps2_2' not in mesh options. Setting to 0
Variable 'ny_inner' not in mesh options. Setting to 0
	Option NXPE = 256 (Command line)
	Option IncIntShear = 0 (default)
	Option periodicX = 0 (default)
	Option async_send = 0 (default)
	Option ZMIN = 0 (default)
	Option ZMAX = 1 (default)
	EQUILIBRIUM IS SINGLE NULL (SND) 
Connection between top of Y processor 0 and bottom of 0 in range 0 <= x < 8196
=> This processor sending in up
=> This processor sending in down
WARNING adding connection: poloidal index -1 out of range
	MYPE_IN_CORE = 1
	DXS = 36, DIN = 0. DOUT = -1
	UXS = 36, UIN = 0. UOUT = -1
	XIN = -1, XOUT = 1
	Twist-shift: DI UI 
	Option TwistShift = 0 (default)
Variable 'ShiftAngle' not in mesh options. Setting to empty vector
Boundary regions in this processor: core, 
Constructing default regions
	Boundary region inner X
	Option mesh:extrapolate_x = 0 (default)
	Option mesh:extrapolate_y = 0 (default)
	Option mesh:dx = 3.75e-2 (delta_0.25/BOUT.inp)
Variable 'dy' not in mesh options. Setting to 1.000000e+00
	Option ZMIN = 0 (default)
	Option ZMAX = 1 (default)
	Option mesh:dz = 0.0375 (delta_0.25/BOUT.inp)
Variable 'g11' not in mesh options. Setting to 1.000000e+00
Variable 'g22' not in mesh options. Setting to 1.000000e+00
Variable 'g33' not in mesh options. Setting to 1.000000e+00
Variable 'g12' not in mesh options. Setting to 0.000000e+00
Variable 'g13' not in mesh options. Setting to 0.000000e+00
Variable 'g23' not in mesh options. Setting to 0.000000e+00
	Local maximum error in diagonal inversion is 0.000000e+00
	Local maximum error in off-diagonal inversion is 0.000000e+00
Variable 'J' not in mesh options. Setting to 0.000000e+00
	WARNING: Jacobian 'J' not found. Calculating from metric tensor
Variable 'Bxy' not in mesh options. Setting to 0.000000e+00
	WARNING: Magnitude of B field 'Bxy' not found. Calculating from metric tensor
Calculating differential geometry terms
	Communicating connection terms
	Option non_uniform = 1 (default)
Variable 'd2x' not in mesh options. Setting to 0.000000e+00
	WARNING: differencing quantity 'd2x' not found. Calculating from dx
Variable 'd2y' not in mesh options. Setting to 0.000000e+00
	WARNING: differencing quantity 'd2y' not found. Calculating from dy
Variable 'ShiftTorsion' not in mesh options. Setting to 0.000000e+00
	WARNING: No Torsion specified for zShift. Derivatives may not be correct
	Option mesh:paralleltransform:type = identity (default)
	done
	Option append = 0 (default)
	Option dump_format = nc (default)
Setting up output (dump) file
	Option output:parallel = 0 (default)
	Option output:flush = 1 (default)
	Option output:guards = 1 (default)
	Option output:floats = 0 (default)
	Option output:openclose = 1 (default)
	Option output:enabled = false (delta_0.25/BOUT.inp)
	Option output:init_missing = 0 (default)
	Option output:shiftOutput = 0 (default)
	Option output:shiftInput = 0 (default)
	Option output:flushFrequency = 1 (default)
	Option restart:parallel = 0 (default)
	Option restart:flush = 1 (default)
	Option restart:guards = 1 (default)
	Option restart:floats = 0 (default)
	Option restart:openclose = 1 (default)
	Option restart:enabled = false (delta_0.25/BOUT.inp)
	Option restart:init_missing = 0 (default)
	Option restart:shiftOutput = 0 (default)
	Option restart:shiftInput = 0 (default)
	Option restart:flushFrequency = 1 (default)
	Option solver:type = pvode (default)
	Option solver:monitor_timestep = 0 (default)
	Option solver:is_nonsplit_model_diffusive = 1 (default)
	Option solver:mms = 0 (default)
	Option solver:mms_initialise = 0 (default)
	Option restart = 0 (default)
	Option model:te0 = 5 (delta_0.25/BOUT.inp)
	Option model:e = 1.602e-19 (default)
	Option model:m_i = 3.334e-27 (default)
	Option model:m_e = 9.11e-31 (default)
	Option model:n0 = 2e+18 (delta_0.25/BOUT.inp)
	Option model:d_vort = 1e-06 (delta_0.25/BOUT.inp)
	Option model:d_n = 1e-06 (delta_0.25/BOUT.inp)
	Option model:r_c = 1.5 (delta_0.25/BOUT.inp)
	Option model:L_par = 10 (default)
	Option model:B0 = 0.35 (default)
	Option model:compressible = false (delta_0.25/BOUT.inp)
	Option model:boussinesq = true (delta_0.25/BOUT.inp)
	Option model:sheath = 1 (default)


	----------Parameters: ------------ 
	Omega_i = 1.681764e+07 /s,
	c_s = 1.550006e+04 m/s,
	rho_s = 9.216552e-04 m
	delta_* = rho_s * (dn/n) * 9.372772e+00 	Option phiboussinesq:type = ipt (Command line)
Initialising Laplacian inversion routines
	Option phiboussinesq:async = 1 (default)
	Option phiboussinesq:filter = 0 (default)
	Option phiboussinesq:maxmode = 512 (default)
	Option phiboussinesq:low_mem = 0 (default)
	Option phiboussinesq:nonuniform = 1 (default)
	Option phiboussinesq:all_terms = 1 (default)
	Option phiboussinesq:global_flags = 0 (default)
	Option phiboussinesq:inner_boundary_flags = 0 (default)
	Option phiboussinesq:outer_boundary_flags = 0 (default)
	Option phiboussinesq:include_yguards = 0 (default)
	Option phiboussinesq:extra_yguards_lower = 0 (default)
	Option phiboussinesq:extra_yguards_upper = 0 (default)
	Option phiboussinesq:rtol = 1e-06 (Command line)
	Option phiboussinesq:atol = 1e-07 (Command line)
	Option phiboussinesq:maxits = 10000 (delta_0.25/BOUT.inp)
	Option phiboussinesq:max_level = 3 (Command line)
	Option phiboussinesq:max_cycle = 1 (delta_0.25/BOUT.inp)
	Option phiboussinesq:predict_exit = 0 (default)
Setting boundary for variable n
	core region: 	Option all:bndry_all = neumann (delta_0.25/BOUT.inp)

	Option input:transform_from_field_aligned = true (default)
	Option input:max_recursion_depth = 0 (default)
	Option n:function = 1 + height * exp(-((x-0.25)/width)^2 - ((z/(2*pi) - 0.5)/width)^2) (delta_0.25/BOUT.inp)
	Option n:height = 0.5 (delta_0.25/BOUT.inp)
	Option n:width = 0.1 (delta_0.25/BOUT.inp)
	Option n:scale = 1 (delta_0.25/BOUT.inp)
	Option all:evolve_bndry = 0 (default)
	Option n:evolve_bndry = 0 (default)
Setting boundary for variable omega
	core region: 	Option all:bndry_all = neumann (delta_0.25/BOUT.inp)

	Option input:transform_from_field_aligned = true (default)
	Option input:max_recursion_depth = 0 (default)
	Option all:function = 0.0 (default)
	Option all:scale = 0 (delta_0.25/BOUT.inp)
	Option all:evolve_bndry = false (default)
	Option omega:evolve_bndry = 0 (default)
	Option datadir = delta_0.25 ()
	Option dump_format = nc (default)
	Option restart_format = nc (default)
	Option nout = 15 (delta_0.25/BOUT.inp)
	Option timestep = 20 (delta_0.25/BOUT.inp)
	Option solver:NOUT = 15 (default)
	Option solver:output_step = 20 (default)
Solver running for 15 outputs with output timestep of 2.000000e+01
Initialising solver
Initialising PVODE solver
	3d fields = 2, 2d fields = 0 neq=16777216, local_N=65536
	Option solver:mudq = 68 (default)
	Option solver:mldq = 68 (default)
	Option solver:mukeep = 0 (default)
	Option solver:mlkeep = 0 (default)
	Option solver:atol = 1e-10 (delta_0.25/BOUT.inp)
	Option solver:rtol = 1e-05 (delta_0.25/BOUT.inp)
	Option solver:use_precon = 0 (default)
	Option solver:precon_dimens = 50 (default)
	Option solver:precon_tol = 0.0001 (default)
	Option solver:mxstep = 10000 (delta_0.25/BOUT.inp)
	Option fft:fft_measure = 0 (default)
	Option laplace:type = cyclic (default)
Initialising Laplacian inversion routines
	Option laplace:async = 1 (default)
	Option laplace:filter = 0 (default)
	Option laplace:maxmode = 512 (default)
	Option laplace:low_mem = 0 (default)
	Option laplace:nonuniform = 1 (default)
	Option laplace:all_terms = 1 (default)
	Option laplace:global_flags = 0 (default)
	Option laplace:inner_boundary_flags = 0 (default)
	Option laplace:outer_boundary_flags = 0 (default)
	Option laplace:include_yguards = 0 (default)
	Option laplace:extra_yguards_lower = 0 (default)
	Option laplace:extra_yguards_upper = 0 (default)
	Option laplace:dst = 0 (default)
Running simulation


Run started at  : Fri Sep 11 15:08:32 2020
	Option restart = false (default)
	Option append = false (default)
	Option dump_on_restart = 1 (default)
	Option wall_limit = -1 (default)
	Option stopCheck = 0 (default)
Sim Time  |  RHS evals  | Wall Time |  Calc    Inv   Comm    I/O   SOLVER

0.000e+00          2       1.60e-02   182.0  270.5    9.7    0.0  -362.2
|  Step 0 of 15. Elapsed 0:00:00.0 ETA 0:00:00.22.000e+01         54       1.29e+00    42.4   34.7    0.4    0.0   22.5
/  Step 1 of 15. Elapsed 0:00:01.3 ETA 0:00:18.14.000e+01         18       3.89e-01    47.4   27.7    0.5    0.0   24.4
-  Step 2 of 15. Elapsed 0:00:01.7 ETA 0:00:05.16.000e+01         53       1.06e+00    51.5   23.9    0.4    0.0   24.2
\  Step 3 of 15. Elapsed 0:00:02.8 ETA 0:00:12.78.000e+01         80       1.65e+00    50.1   25.3    0.4    0.0   24.2
|  Step 4 of 15. Elapsed 0:00:04.4 ETA 0:00:18.11.000e+02        126       2.50e+00    51.9   24.5    0.4    0.0   23.1
/  Step 5 of 15. Elapsed 0:00:06.9 ETA 0:00:25.01.200e+02        165       3.34e+00    51.0   24.9    0.4    0.0   23.6
-  Step 6 of 15. Elapsed 0:00:10.2 ETA 0:00:30.01.400e+02        136       2.76e+00    50.3   25.4    0.5    0.0   23.8
\  Step 7 of 15. Elapsed 0:00:13.0 ETA 0:00:22.11.600e+02        113       2.40e+00    48.5   27.4    0.4    0.0   23.6
|  Step 8 of 15. Elapsed 0:00:15.4 ETA 0:00:16.81.800e+02        116       2.48e+00    48.3   28.0    0.4    0.0   23.3
/  Step 9 of 15. Elapsed 0:00:17.9 ETA 0:00:14.92.000e+02        170       3.41e+00    51.2   25.8    0.5    0.0   22.5
-  Step 10 of 15. Elapsed 0:00:21.3 ETA 0:00:17.02.200e+02        170       3.30e+00    52.8   23.8    0.5    0.0   23.0
\  Step 11 of 15. Elapsed 0:00:24.6 ETA 0:00:13.22.400e+02        192       3.74e+00    52.6   24.0    0.5    0.0   23.0
|  Step 12 of 15. Elapsed 0:00:28.3 ETA 0:00:11.22.600e+02        234       4.53e+00    53.1   23.2    0.5    0.0   23.2
/  Step 13 of 15. Elapsed 0:00:32.9 ETA 0:00:09.12.800e+02        226       4.42e+00    52.5   23.8    0.5    0.0   23.3
-  Step 14 of 15. Elapsed 0:00:37.3 ETA 0:00:04.43.000e+02        254       4.90e+00    53.2   23.2    0.5    0.0   23.1
\  Step 15 of 15. Elapsed 0:00:42.2 ETA 0:00:00.0
Run finished at  : Fri Sep 11 15:09:14 2020
Run time : 42 s
	Option datadir = delta_0.25 ()
	Option settingsfile = BOUT.settings ()
Writing options to file delta_0.25/BOUT.settings
	Option time_report:show = true (delta_0.25/BOUT.inp)

Timer report 

Timer name | Total time (s) | % of top | Hits  | Mean time/hit (s)
-----------|----------------|----------|-------|------------------
run        | 42.1853968     | 100.00%  | 1     | 42.1853968       
rhs        | 32.434729      | 76.89%   | 2109  | 0.0153791982     
invert     | 10.5685131     | 25.05%   | 2109  | 0.00501114893    
comms      | 0.193216477    | 0.46%    | 17048 | 1.13336742e-05   
io         | 0              | 0.00%    | 0     | -nan             

Application 41970168 resources: utime ~10939s, stime ~56s, Rss ~46324, inblocks ~1024015, outblocks ~3159338
BOUT++ version 5.0.0-alpha
Revision: BOUT_REVISION
MD5 checksum: e83d7fb8cb8c2a605f03f73f101cf268
Code compiled on Sep 10 2020 at 11:35:25

B.Dudson (University of York), M.Umansky (LLNL) 2007
Based on BOUT by Xueqiao Xu, 1999

Processor number: 0 of 256

pid: 15162

Compile-time options:
	Checking disabled
	Signal handling enabled
	netCDF4 support enabled
	Parallel NetCDF support disabled
	OpenMP parallelisation disabled
	Compiled with flags : "-DMD5SUM=e83d7fb8cb8c2a605f03f73f101cf268 -DBOUT_REVISION=276f77758e18c24bfcbf3e9b6e356930437df6f8 -g -DHAS_PRETTY_FUNCTION -Wall -Wextra -Wnull-dereference -O3 -march=native -funroll-loops -DSIGHANDLE -DLOGCOLOR -DBACKTRACE -DBOUT_HAS_FFTW -DNCDF4 -DHDF5 -DLAPACK -DBOUT_HAS_PVODE -DBOUT_HAS_GETTEXT -DBOUT_LOCALE_PATH=/usr/local/share/locale"
	Command line options for this run : ../../../blob2d_276f777 -d delta_0.25 NXPE=256 phiboussinesq:type=cyclic 
Reading options file delta_0.25/BOUT.inp
Writing options to file delta_0.25/BOUT.settings

Getting grid data from options
	Option mesh:type = bout (default)
	Option mesh:include_corner_cells = 1 (default)
	Option mesh:StaggerGrids = 0 (default)
	Option mesh:maxregionblocksize = 64 (default)
	Option mesh:calcParallelSlices_on_communicate = 1 (default)
	Option mesh:ddx:first = c2 (delta_0.25/BOUT.inp)
	Option mesh:ddx:second = c2 (delta_0.25/BOUT.inp)
	Option mesh:ddx:upwind = w3 (delta_0.25/BOUT.inp)
	Option mesh:ddy:first = c2 (delta_0.25/BOUT.inp)
	Option mesh:ddy:second = c2 (delta_0.25/BOUT.inp)
	Option mesh:ddy:upwind = w3 (delta_0.25/BOUT.inp)
	Option mesh:ddz:first = fft (delta_0.25/BOUT.inp)
	Option mesh:ddz:second = fft (delta_0.25/BOUT.inp)
	Option mesh:ddz:upwind = w3 (delta_0.25/BOUT.inp)
	Option mesh:ddy:first = c2 (delta_0.25/BOUT.inp)
	Option mesh:ddy:second = c2 (delta_0.25/BOUT.inp)
	Option mesh:ddy:upwind = w3 (delta_0.25/BOUT.inp)
	Option mesh:ddx:first = c2 (delta_0.25/BOUT.inp)
	Option mesh:ddx:second = c2 (delta_0.25/BOUT.inp)
	Option mesh:ddx:upwind = w3 (delta_0.25/BOUT.inp)
	Option mesh:ddy:first = c2 (delta_0.25/BOUT.inp)
	Option mesh:ddy:second = c2 (delta_0.25/BOUT.inp)
	Option mesh:ddy:upwind = w3 (delta_0.25/BOUT.inp)
	Option mesh:ddz:first = fft (delta_0.25/BOUT.inp)
	Option mesh:ddz:second = fft (delta_0.25/BOUT.inp)
	Option mesh:ddz:upwind = w3 (delta_0.25/BOUT.inp)
	Option mesh:ddy:first = c2 (delta_0.25/BOUT.inp)
	Option mesh:ddy:second = c2 (delta_0.25/BOUT.inp)
	Option mesh:ddy:upwind = w3 (delta_0.25/BOUT.inp)
	Option mesh:ddz:fft_filter = 0 (default)
	Option mesh:symmetricGlobalX = 1 (default)
	Option optionfile = BOUT.inp ()
WARNING: The default of this option has changed in release 4.1.
If you want the old setting, you have to specify mesh:symmetricGlobalY=false in BOUT.inp
	Option mesh:symmetricGlobalY = 1 (default)
Loading mesh
	Option input:transform_from_field_aligned = 1 (default)
	Option input:max_recursion_depth = 0 (default)
	Option mesh:nx = 8196 (delta_0.25/BOUT.inp)
	Option mesh:ny = 1 (delta_0.25/BOUT.inp)
	Option mesh:nz = 1024 (delta_0.25/BOUT.inp)
	Read nz from input grid file
	Grid size: 8196 x 1 x 1024
Variable 'MXG' not in mesh options. Setting to 0
	Option mxg = 2 (delta_0.25/BOUT.inp)
Variable 'MYG' not in mesh options. Setting to 0
	Option myg = 0 (delta_0.25/BOUT.inp)
	Guard cells (x,y,z): 2, 0, 0
Variable 'ixseps1' not in mesh options. Setting to 8196
Variable 'ixseps2' not in mesh options. Setting to 8196
Variable 'jyseps1_1' not in mesh options. Setting to -1
Variable 'jyseps1_2' not in mesh options. Setting to 0
Variable 'jyseps2_1' not in mesh options. Setting to 0
Variable 'jyseps2_2' not in mesh options. Setting to 0
Variable 'ny_inner' not in mesh options. Setting to 0
	Option NXPE = 256 (Command line)
	Option IncIntShear = 0 (default)
	Option periodicX = 0 (default)
	Option async_send = 0 (default)
	Option ZMIN = 0 (default)
	Option ZMAX = 1 (default)
	EQUILIBRIUM IS SINGLE NULL (SND) 
Connection between top of Y processor 0 and bottom of 0 in range 0 <= x < 8196
=> This processor sending in up
=> This processor sending in down
WARNING adding connection: poloidal index -1 out of range
	MYPE_IN_CORE = 1
	DXS = 36, DIN = 0. DOUT = -1
	UXS = 36, UIN = 0. UOUT = -1
	XIN = -1, XOUT = 1
	Twist-shift: DI UI 
	Option TwistShift = 0 (default)
Variable 'ShiftAngle' not in mesh options. Setting to empty vector
Boundary regions in this processor: core, 
Constructing default regions
	Boundary region inner X
	Option mesh:extrapolate_x = 0 (default)
	Option mesh:extrapolate_y = 0 (default)
	Option mesh:dx = 3.75e-2 (delta_0.25/BOUT.inp)
Variable 'dy' not in mesh options. Setting to 1.000000e+00
	Option ZMIN = 0 (default)
	Option ZMAX = 1 (default)
	Option mesh:dz = 0.0375 (delta_0.25/BOUT.inp)
Variable 'g11' not in mesh options. Setting to 1.000000e+00
Variable 'g22' not in mesh options. Setting to 1.000000e+00
Variable 'g33' not in mesh options. Setting to 1.000000e+00
Variable 'g12' not in mesh options. Setting to 0.000000e+00
Variable 'g13' not in mesh options. Setting to 0.000000e+00
Variable 'g23' not in mesh options. Setting to 0.000000e+00
	Local maximum error in diagonal inversion is 0.000000e+00
	Local maximum error in off-diagonal inversion is 0.000000e+00
Variable 'J' not in mesh options. Setting to 0.000000e+00
	WARNING: Jacobian 'J' not found. Calculating from metric tensor
Variable 'Bxy' not in mesh options. Setting to 0.000000e+00
	WARNING: Magnitude of B field 'Bxy' not found. Calculating from metric tensor
Calculating differential geometry terms
	Communicating connection terms
	Option non_uniform = 1 (default)
Variable 'd2x' not in mesh options. Setting to 0.000000e+00
	WARNING: differencing quantity 'd2x' not found. Calculating from dx
Variable 'd2y' not in mesh options. Setting to 0.000000e+00
	WARNING: differencing quantity 'd2y' not found. Calculating from dy
Variable 'ShiftTorsion' not in mesh options. Setting to 0.000000e+00
	WARNING: No Torsion specified for zShift. Derivatives may not be correct
	Option mesh:paralleltransform:type = identity (default)
	done
	Option append = 0 (default)
	Option dump_format = nc (default)
Setting up output (dump) file
	Option output:parallel = 0 (default)
	Option output:flush = 1 (default)
	Option output:guards = 1 (default)
	Option output:floats = 0 (default)
	Option output:openclose = 1 (default)
	Option output:enabled = false (delta_0.25/BOUT.inp)
	Option output:init_missing = 0 (default)
	Option output:shiftOutput = 0 (default)
	Option output:shiftInput = 0 (default)
	Option output:flushFrequency = 1 (default)
	Option restart:parallel = 0 (default)
	Option restart:flush = 1 (default)
	Option restart:guards = 1 (default)
	Option restart:floats = 0 (default)
	Option restart:openclose = 1 (default)
	Option restart:enabled = false (delta_0.25/BOUT.inp)
	Option restart:init_missing = 0 (default)
	Option restart:shiftOutput = 0 (default)
	Option restart:shiftInput = 0 (default)
	Option restart:flushFrequency = 1 (default)
	Option solver:type = pvode (default)
	Option solver:monitor_timestep = 0 (default)
	Option solver:is_nonsplit_model_diffusive = 1 (default)
	Option solver:mms = 0 (default)
	Option solver:mms_initialise = 0 (default)
	Option restart = 0 (default)
	Option model:te0 = 5 (delta_0.25/BOUT.inp)
	Option model:e = 1.602e-19 (default)
	Option model:m_i = 3.334e-27 (default)
	Option model:m_e = 9.11e-31 (default)
	Option model:n0 = 2e+18 (delta_0.25/BOUT.inp)
	Option model:d_vort = 1e-06 (delta_0.25/BOUT.inp)
	Option model:d_n = 1e-06 (delta_0.25/BOUT.inp)
	Option model:r_c = 1.5 (delta_0.25/BOUT.inp)
	Option model:L_par = 10 (default)
	Option model:B0 = 0.35 (default)
	Option model:compressible = false (delta_0.25/BOUT.inp)
	Option model:boussinesq = true (delta_0.25/BOUT.inp)
	Option model:sheath = 1 (default)


	----------Parameters: ------------ 
	Omega_i = 1.681764e+07 /s,
	c_s = 1.550006e+04 m/s,
	rho_s = 9.216552e-04 m
	delta_* = rho_s * (dn/n) * 9.372772e+00 	Option phiboussinesq:type = cyclic (Command line)
Initialising Laplacian inversion routines
	Option phiboussinesq:async = 1 (default)
	Option phiboussinesq:filter = 0 (default)
	Option phiboussinesq:maxmode = 512 (default)
	Option phiboussinesq:low_mem = 0 (default)
	Option phiboussinesq:nonuniform = 1 (default)
	Option phiboussinesq:all_terms = 1 (default)
	Option phiboussinesq:global_flags = 0 (default)
	Option phiboussinesq:inner_boundary_flags = 0 (default)
	Option phiboussinesq:outer_boundary_flags = 0 (default)
	Option phiboussinesq:include_yguards = 0 (default)
	Option phiboussinesq:extra_yguards_lower = 0 (default)
	Option phiboussinesq:extra_yguards_upper = 0 (default)
	Option phiboussinesq:dst = 0 (default)
Setting boundary for variable n
	core region: 	Option all:bndry_all = neumann (delta_0.25/BOUT.inp)

	Option input:transform_from_field_aligned = true (default)
	Option input:max_recursion_depth = 0 (default)
	Option n:function = 1 + height * exp(-((x-0.25)/width)^2 - ((z/(2*pi) - 0.5)/width)^2) (delta_0.25/BOUT.inp)
	Option n:height = 0.5 (delta_0.25/BOUT.inp)
	Option n:width = 0.1 (delta_0.25/BOUT.inp)
	Option n:scale = 1 (delta_0.25/BOUT.inp)
	Option all:evolve_bndry = 0 (default)
	Option n:evolve_bndry = 0 (default)
Setting boundary for variable omega
	core region: 	Option all:bndry_all = neumann (delta_0.25/BOUT.inp)

	Option input:transform_from_field_aligned = true (default)
	Option input:max_recursion_depth = 0 (default)
	Option all:function = 0.0 (default)
	Option all:scale = 0 (delta_0.25/BOUT.inp)
	Option all:evolve_bndry = false (default)
	Option omega:evolve_bndry = 0 (default)
	Option datadir = delta_0.25 ()
	Option dump_format = nc (default)
	Option restart_format = nc (default)
	Option nout = 15 (delta_0.25/BOUT.inp)
	Option timestep = 20 (delta_0.25/BOUT.inp)
	Option solver:NOUT = 15 (default)
	Option solver:output_step = 20 (default)
Solver running for 15 outputs with output timestep of 2.000000e+01
Initialising solver
Initialising PVODE solver
	3d fields = 2, 2d fields = 0 neq=16777216, local_N=65536
	Option solver:mudq = 68 (default)
	Option solver:mldq = 68 (default)
	Option solver:mukeep = 0 (default)
	Option solver:mlkeep = 0 (default)
	Option solver:atol = 1e-10 (delta_0.25/BOUT.inp)
	Option solver:rtol = 1e-05 (delta_0.25/BOUT.inp)
	Option solver:use_precon = 0 (default)
	Option solver:precon_dimens = 50 (default)
	Option solver:precon_tol = 0.0001 (default)
	Option solver:mxstep = 10000 (delta_0.25/BOUT.inp)
	Option fft:fft_measure = 0 (default)
	Option laplace:type = cyclic (default)
Initialising Laplacian inversion routines
	Option laplace:async = 1 (default)
	Option laplace:filter = 0 (default)
	Option laplace:maxmode = 512 (default)
	Option laplace:low_mem = 0 (default)
	Option laplace:nonuniform = 1 (default)
	Option laplace:all_terms = 1 (default)
	Option laplace:global_flags = 0 (default)
	Option laplace:inner_boundary_flags = 0 (default)
	Option laplace:outer_boundary_flags = 0 (default)
	Option laplace:include_yguards = 0 (default)
	Option laplace:extra_yguards_lower = 0 (default)
	Option laplace:extra_yguards_upper = 0 (default)
	Option laplace:dst = 0 (default)
Running simulation


Run started at  : Fri Sep 11 15:09:23 2020
	Option restart = false (default)
	Option append = false (default)
	Option dump_on_restart = 1 (default)
	Option wall_limit = -1 (default)
	Option stopCheck = 0 (default)
Sim Time  |  RHS evals  | Wall Time |  Calc    Inv   Comm    I/O   SOLVER

0.000e+00          2       1.83e-02   166.8  556.2    2.7    0.0  -625.8
|  Step 0 of 15. Elapsed 0:00:00.0 ETA 0:00:00.32.000e+01         46       1.06e+00    44.6   28.2    0.6    0.0   26.7
/  Step 1 of 15. Elapsed 0:00:01.1 ETA 0:00:14.84.000e+01         14       2.99e-01    48.5   25.8    0.5    0.0   25.2
-  Step 2 of 15. Elapsed 0:00:01.4 ETA 0:00:03.96.000e+01          7       1.51e-01    48.2   25.8    0.4    0.0   25.6
\  Step 3 of 15. Elapsed 0:00:01.5 ETA 0:00:01.88.000e+01         21       4.57e-01    47.6   27.9    0.4    0.0   24.1
|  Step 4 of 15. Elapsed 0:00:02.0 ETA 0:00:05.01.000e+02         27       1.25e+00    22.2   12.8    0.2    0.0   64.8
/  Step 5 of 15. Elapsed 0:00:03.2 ETA 0:00:12.51.200e+02         40       8.99e-01    46.3   27.8    0.4    0.0   25.5
-  Step 6 of 15. Elapsed 0:00:04.1 ETA 0:00:08.11.400e+02         52       1.15e+00    46.7   27.6    0.5    0.0   25.2
\  Step 7 of 15. Elapsed 0:00:05.3 ETA 0:00:09.21.600e+02         69       1.55e+00    45.6   28.1    0.6    0.0   25.7
|  Step 8 of 15. Elapsed 0:00:06.8 ETA 0:00:10.91.800e+02        106       2.49e+00    43.8   30.7    0.4    0.0   25.1
/  Step 9 of 15. Elapsed 0:00:09.3 ETA 0:00:14.92.000e+02        122       2.90e+00    42.9   30.3    0.5    0.0   26.3
-  Step 10 of 15. Elapsed 0:00:12.2 ETA 0:00:14.52.200e+02        140       3.24e+00    43.9   29.8    0.7    0.0   25.6
\  Step 11 of 15. Elapsed 0:00:15.5 ETA 0:00:12.92.400e+02        313       7.29e+00    43.8   30.1    0.5    0.0   25.6
|  Step 12 of 15. Elapsed 0:00:22.7 ETA 0:00:21.92.600e+02        308       7.20e+00    43.8   29.1    0.5    0.0   26.5
/  Step 13 of 15. Elapsed 0:00:29.9 ETA 0:00:14.42.800e+02        228       5.40e+00    43.1   28.5    0.5    0.0   27.9
-  Step 14 of 15. Elapsed 0:00:35.3 ETA 0:00:05.43.000e+02        358       8.36e+00    43.7   29.4    0.4    0.0   26.5
\  Step 15 of 15. Elapsed 0:00:43.7 ETA 0:00:00.0
Run finished at  : Fri Sep 11 15:10:07 2020
Run time : 44 s
	Option datadir = delta_0.25 ()
	Option settingsfile = BOUT.settings ()
Writing options to file delta_0.25/BOUT.settings
	Option time_report:show = true (delta_0.25/BOUT.inp)

Timer report 

Timer name | Total time (s) | % of top | Hits  | Mean time/hit (s)
-----------|----------------|----------|-------|------------------
run        | 43.7062188     | 100.00%  | 1     | 43.7062188       
rhs        | 31.8712386     | 72.92%   | 1853  | 0.017199805      
invert     | 12.700372      | 29.06%   | 1853  | 0.00685395141    
comms      | 0.216351388    | 0.50%    | 15000 | 1.44234259e-05   
io         | 0              | 0.00%    | 0     | -nan             

Application 41970174 resources: utime ~11276s, stime ~54s, Rss ~46976, inblocks ~1021603, outblocks ~3158774
--------------------------------------------------------------------------------

Resources requested: ncpus=264,place=free,walltime=00:20:00
Resources allocated: cpupercent=25,cput=00:00:19,mem=8144kb,ncpus=264,vmem=289540kb,walltime=00:05:31

*** jtpsla   Job: 7258775.sdb   ended: 11/09/20 15:10:09   queue: standard ***
*** jtpsla   Job: 7258775.sdb   ended: 11/09/20 15:10:09   queue: standard ***
*** jtpsla   Job: 7258775.sdb   ended: 11/09/20 15:10:09   queue: standard ***
*** jtpsla   Job: 7258775.sdb   ended: 11/09/20 15:10:09   queue: standard ***
--------------------------------------------------------------------------------
